Light Intensity vs Angle, Run #21
Angle ( deg )	Light Intensity ( V )
0,000	9,766E-4
0,000	0,001
0,000	0,001
0,000	9,766E-4
0,000	0,001
0,000	0,001
0,000	9,766E-4
0,000	0,001
0,000	0,001
0,000	0,001
0,004	0,001
0,004	0,001
0,004	0,001
0,004	0,001
0,004	0,001
0,004	0,001
0,004	0,001
0,004	0,001
0,004	0,001
0,004	9,766E-4
0,004	9,766E-4
0,004	9,766E-4
0,004	9,766E-4
0,008	0,001
0,008	0,001
0,008	0,001
0,008	0,001
0,013	0,001
0,013	0,001
0,013	9,766E-4
0,013	9,766E-4
0,013	0,001
0,013	0,001
0,013	0,002
0,013	9,766E-4
0,013	0,002
0,013	0,001
0,017	9,766E-4
0,017	0,001
0,017	0,002
0,017	9,766E-4
0,021	0,001
0,025	0,001
0,029	0,001
0,033	0,001
0,050	0,001
0,088	0,002
0,150	0,001
0,242	0,001
0,350	0,001
0,479	0,002
0,621	0,001
0,767	0,001
0,912	0,002
1,038	9,766E-4
1,137	0,002
1,221	0,001
1,296	0,001
1,350	0,001
1,392	9,766E-4
1,425	0,001
1,462	0,001
1,508	0,001
1,554	0,001
1,604	0,001
1,663	0,001
1,725	0,001
1,800	0,001
1,879	0,001
1,962	0,002
2,050	0,001
2,138	0,001
2,221	0,002
2,304	0,001
2,379	0,001
2,442	0,002
2,504	0,001
2,558	0,001
2,600	0,002
2,642	0,001
2,688	0,001
2,729	0,002
2,771	0,001
2,817	0,001
2,858	0,001
2,904	0,002
2,950	0,001
2,992	0,002
3,042	0,001
3,087	0,001
3,138	0,002
3,183	0,002
3,233	9,766E-4
3,292	0,001
3,358	0,002
3,425	0,001
3,496	0,001
3,567	0,002
3,637	0,001
3,700	0,002
3,758	0,002
3,825	0,002
3,896	0,002
3,963	0,001
4,029	0,002
4,096	0,002
4,162	0,001
4,229	0,001
4,292	0,002
4,358	0,002
4,429	0,001
4,504	0,002
4,592	0,002
4,679	0,002
4,767	0,002
4,850	0,003
4,925	0,002
5,008	0,002
5,100	0,002
5,183	0,002
5,258	0,002
5,333	0,004
5,421	0,008
5,504	0,009
5,592	0,006
5,675	0,004
5,758	0,003
5,842	0,002
5,917	0,002
5,987	0,002
6,058	0,002
6,125	0,001
6,196	0,002
6,262	0,002
6,325	0,002
6,388	0,001
6,458	0,002
6,529	0,002
6,612	0,002
6,712	0,002
6,825	0,002
6,950	0,002
7,083	0,002
7,213	0,002
7,350	0,002
7,492	0,002
7,637	0,001
7,783	0,002
7,908	0,002
8,021	0,002
8,121	0,002
8,208	0,002
8,296	0,001
8,375	0,002
8,450	0,002
8,521	0,002
8,583	0,001
8,646	0,002
8,713	0,001
8,788	0,001
8,854	0,001
8,900	0,001
8,917	0,001
8,917	0,001
8,917	0,001
8,917	0,002
8,913	0,002
8,913	0,001
8,913	0,002
8,913	0,001
8,913	0,002
8,913	0,002
8,913	0,001
8,913	0,002
8,913	0,002
8,913	0,001
8,913	0,001
8,913	0,001
8,913	0,002
8,913	0,002
8,913	0,001
8,913	0,002
8,913	0,002
8,913	0,001
8,913	0,002
8,908	0,002
8,908	0,001
8,908	0,001
8,908	0,002
8,908	0,002
8,908	0,001
8,908	0,001
8,908	0,001
8,908	0,002
8,908	0,001
8,908	0,002
8,908	0,002
8,908	0,002
8,908	0,002
8,908	0,002
8,908	0,002
8,908	0,001
8,908	0,001
8,908	0,001
8,908	0,002
8,908	0,002
8,908	0,002
8,908	0,002
8,908	0,001
8,908	0,001
8,904	0,002
8,904	0,002
8,904	0,002
8,904	0,002
8,908	0,001
8,908	0,001
8,908	0,002
8,908	0,001
8,913	0,002
8,913	0,002
8,913	0,001
8,913	0,002
8,913	0,002
8,921	0,001
8,938	0,001
8,954	0,002
8,988	0,002
9,058	0,001
9,183	0,001
9,329	0,002
9,458	0,001
9,575	9,766E-4
9,708	0,001
9,854	0,002
10,013	0,001
10,192	0,001
10,379	0,002
10,533	0,001
10,650	0,001
10,771	0,001
10,913	0,001
11,067	0,002
11,225	0,002
11,396	0,001
11,583	0,002
11,783	0,001
11,983	0,001
12,175	0,001
12,375	0,001
12,583	0,001
12,788	0,002
12,988	0,001
13,179	9,766E-4
13,358	0,001
13,558	0,002
13,750	0,001
13,921	0,001
14,075	0,001
14,221	0,001
14,367	0,001
14,508	0,002
14,629	0,002
14,746	0,002
14,858	0,002
14,967	0,001
15,079	0,002
15,196	0,001
15,329	0,001
15,475	0,001
15,646	0,001
15,817	0,002
16,000	0,002
16,192	0,001
16,379	0,001
16,538	0,002
16,671	0,002
16,800	0,002
16,917	0,002
17,021	0,002
17,104	0,002
17,188	0,002
17,292	0,001
17,446	0,001
17,633	0,001
17,825	0,001
18,000	0,001
18,171	0,002
18,333	0,001
18,492	0,002
18,633	0,002
18,754	0,001
18,863	0,001
18,946	0,002
19,029	0,002
19,113	0,002
19,204	0,001
19,288	0,002
19,379	0,001
19,462	0,002
19,542	0,002
19,625	0,002
19,704	0,002
19,783	0,002
19,846	0,002
19,908	0,003
19,971	0,003
20,038	0,002
20,108	0,002
20,192	0,002
20,279	0,002
20,367	0,002
20,462	0,004
20,558	0,011
20,650	0,026
20,725	0,043
20,783	0,053
20,842	0,051
20,904	0,040
20,967	0,023
21,021	0,013
21,054	0,008
21,083	0,006
21,121	0,005
21,167	0,004
21,217	0,004
21,283	0,003
21,367	0,002
21,454	0,002
21,529	0,002
21,596	0,002
21,671	0,002
21,758	0,002
21,850	0,002
21,950	0,001
22,050	0,002
22,150	0,001
22,246	0,001
22,342	0,002
22,437	0,002
22,529	0,002
22,625	0,003
22,721	0,005
22,829	0,006
22,946	0,004
23,054	0,003
23,146	0,002
23,229	0,002
23,312	0,002
23,404	0,002
23,487	0,002
23,554	0,002
23,621	0,001
23,687	0,001
23,771	0,002
23,862	0,001
23,950	0,002
24,042	0,001
24,129	0,001
24,212	0,001
24,296	0,002
24,383	0,001
24,458	0,001
24,525	0,002
24,587	0,002
24,654	0,002
24,733	0,001
24,821	0,002
24,917	0,001
25,012	0,002
25,096	0,002
25,175	0,002
25,258	0,003
25,354	0,002
25,458	0,002
25,567	0,002
25,675	0,002
25,771	0,002
25,863	0,002
25,950	0,002
26,038	0,001
26,129	0,001
26,221	0,002
26,312	0,002
26,404	0,002
26,492	0,002
26,575	0,002
26,667	0,002
26,762	0,002
26,863	0,002
26,958	0,002
27,037	0,002
27,096	0,002
27,150	0,003
27,200	0,003
27,250	0,003
27,300	0,003
27,358	0,003
27,421	0,003
27,483	0,003
27,550	0,003
27,621	0,004
27,679	0,004
27,733	0,004
27,783	0,004
27,829	0,004
27,871	0,003
27,917	0,003
27,950	0,003
27,979	0,003
28,004	0,003
28,029	0,003
28,054	0,003
28,079	0,003
28,104	0,003
28,125	0,003
28,146	0,003
28,175	0,003
28,208	0,003
28,250	0,004
28,288	0,004
28,329	0,004
28,363	0,004
28,392	0,004
28,425	0,004
28,454	0,005
28,492	0,005
28,537	0,006
28,592	0,006
28,646	0,006
28,700	0,006
28,750	0,006
28,796	0,005
28,833	0,006
28,867	0,006
28,892	0,005
28,917	0,006
28,937	0,006
28,958	0,006
28,992	0,006
29,017	0,006
29,033	0,006
29,046	0,006
29,058	0,006
29,067	0,007
29,083	0,007
29,104	0,007
29,129	0,008
29,154	0,009
29,183	0,013
29,213	0,022
29,246	0,040
29,283	0,071
29,321	0,128
29,354	0,204
29,383	0,293
29,413	0,383
29,437	0,477
29,462	0,567
29,500	0,660
29,533	0,713
29,567	0,703
29,596	0,652
29,625	0,569
29,654	0,456
29,696	0,318
29,737	0,182
29,775	0,093
29,813	0,047
29,854	0,023
29,887	0,015
29,917	0,011
29,942	0,009
29,967	0,009
29,992	0,008
30,017	0,007
30,042	0,007
30,062	0,007
30,083	0,006
30,108	0,007
30,129	0,007
30,154	0,007
30,179	0,008
30,204	0,008
30,225	0,008
30,246	0,009
30,275	0,009
30,304	0,009
30,342	0,009
30,375	0,008
30,417	0,007
30,462	0,005
30,500	0,004
30,537	0,004
30,587	0,003
30,642	0,003
30,696	0,003
30,750	0,003
30,800	0,002
30,846	0,003
30,892	0,002
30,937	0,002
30,975	0,002
31,008	0,002
31,042	0,002
31,079	0,002
31,121	0,002
31,171	0,002
31,221	0,002
31,275	0,002
31,329	0,002
31,379	0,002
31,433	0,002
31,492	0,002
31,554	0,001
31,612	0,002
31,667	0,002
31,717	0,002
31,771	0,001
31,821	0,001
31,871	0,002
31,912	0,001
31,946	0,001
31,987	0,001
32,033	0,001
32,071	0,002
32,113	0,001
32,158	0,002
32,213	0,002
32,267	0,001
32,321	0,002
32,379	0,002
32,437	0,001
32,483	0,001
32,525	0,001
32,571	0,001
32,621	0,001
32,675	0,001
32,742	0,002
32,812	0,002
32,900	0,002
33,000	0,002
33,112	0,001
33,229	0,001
33,346	0,002
33,442	0,001
33,517	9,766E-4
33,579	0,001
33,638	9,766E-4
33,692	0,001
33,737	9,766E-4
33,775	0,001
33,808	9,766E-4
33,833	0,002
33,854	9,766E-4
33,879	9,766E-4
33,908	0,001
33,933	0,001
33,958	0,001
33,988	0,001
34,017	9,766E-4
34,058	0,001
34,108	0,001
34,150	0,001
34,196	9,766E-4
34,242	9,766E-4
34,283	9,766E-4
34,325	9,766E-4
34,358	9,766E-4
34,392	9,766E-4
34,421	9,766E-4
34,450	9,766E-4
34,483	9,766E-4
34,525	0,001
34,571	0,001
34,621	9,766E-4
34,667	9,766E-4
34,717	9,766E-4
34,767	0,001
34,817	4,883E-4
34,867	9,766E-4
34,921	4,883E-4
34,975	9,766E-4
35,025	9,766E-4
35,067	9,766E-4
35,108	9,766E-4
35,163	9,766E-4
35,217	9,766E-4
35,271	9,766E-4
35,337	9,766E-4
35,417	0,001
35,504	9,766E-4
35,592	0,001
35,675	9,766E-4
35,750	9,766E-4
35,821	9,766E-4
35,879	9,766E-4
35,921	9,766E-4
35,958	9,766E-4
35,987	9,766E-4
36,013	0,001
36,033	9,766E-4
36,054	9,766E-4
36,075	4,883E-4
36,092	9,766E-4
36,112	0,001
36,142	9,766E-4
36,175	9,766E-4
36,208	9,766E-4
36,246	9,766E-4
36,288	9,766E-4
36,325	9,766E-4
36,354	9,766E-4
36,388	9,766E-4
36,425	0,001
36,462	9,766E-4
36,500	9,766E-4
36,537	9,766E-4
36,571	9,766E-4
36,612	9,766E-4
36,658	9,766E-4
36,708	9,766E-4
36,758	9,766E-4
36,808	9,766E-4
36,862	9,766E-4
36,913	9,766E-4
36,962	9,766E-4
37,004	9,766E-4
37,042	0,001
37,079	9,766E-4
37,112	9,766E-4
37,146	0,001
37,175	9,766E-4
37,200	4,883E-4
37,229	9,766E-4
37,258	4,883E-4
37,292	4,883E-4
37,325	9,766E-4
37,350	4,883E-4
37,375	9,766E-4
37,408	0,001
37,446	9,766E-4
37,483	0,001
37,517	0,001
37,546	9,766E-4
37,575	0,001
37,600	9,766E-4
37,621	9,766E-4
37,638	9,766E-4
37,654	9,766E-4
37,675	9,766E-4
37,692	9,766E-4
37,704	9,766E-4
37,725	9,766E-4
37,746	9,766E-4
37,775	9,766E-4
37,808	0,001
37,837	9,766E-4
37,875	0,001
37,917	9,766E-4
37,946	0,001
37,962	0,001
37,975	0,001
37,987	9,766E-4
38,008	9,766E-4
38,033	0,001
38,062	0,001
38,096	0,001
38,125	0,002
38,154	9,766E-4
38,187	9,766E-4
38,221	0,001
38,254	9,766E-4
38,288	4,883E-4
38,329	0,001
38,371	0,001
38,413	0,001
38,458	9,766E-4
38,513	9,766E-4
38,575	9,766E-4
38,650	9,766E-4
38,725	0,001
38,796	9,766E-4
38,875	0,001
38,950	9,766E-4
39,021	0,001
39,083	0,001
39,150	0,001
39,217	0,001
39,275	0,002
39,321	0,001
39,354	0,002
39,375	0,001
39,396	9,766E-4
39,421	0,002
39,442	0,002
39,454	9,766E-4
39,467	0,001
39,483	0,002
39,513	0,001
39,554	0,002
39,604	0,001
39,658	0,001
39,721	0,001
39,792	0,001
39,862	0,002
39,933	0,001
40,004	0,002
40,071	0,002
40,129	0,002
40,183	0,001
40,233	0,002
40,283	0,002
40,333	0,001
40,383	0,002
40,429	0,001
40,471	0,002
40,521	0,002
40,575	0,002
40,629	0,002
40,696	0,002
40,775	0,002
40,858	0,001
40,933	0,002
41,004	0,002
41,058	0,002
41,104	0,002
41,138	0,002
41,171	0,002
41,212	0,002
41,258	0,002
41,317	0,002
41,392	0,002
41,471	0,002
41,550	0,002
41,621	0,002
41,683	0,002
41,733	0,002
41,771	0,002
41,800	0,002
41,825	0,002
41,850	0,002
41,875	0,002
41,900	0,003
41,929	0,002
41,962	0,002
42,000	0,002
42,042	0,003
42,092	0,003
42,137	0,002
42,175	0,002
42,204	0,003
42,221	0,003
42,237	0,003
42,254	0,003
42,275	0,003
42,304	0,003
42,337	0,003
42,379	0,003
42,429	0,003
42,483	0,004
42,529	0,003
42,575	0,003
42,612	0,003
42,637	0,003
42,654	0,003
42,671	0,003
42,696	0,003
42,729	0,003
42,767	0,003
42,804	0,004
42,842	0,003
42,879	0,003
42,912	0,003
42,942	0,003
42,967	0,003
42,996	0,004
43,025	0,004
43,058	0,003
43,087	0,003
43,117	0,004
43,146	0,004
43,175	0,003
43,204	0,004
43,242	0,004
43,283	0,004
43,325	0,004
43,371	0,004
43,417	0,004
43,458	0,004
43,496	0,004
43,533	0,004
43,575	0,004
43,633	0,004
43,708	0,004
43,788	0,004
43,871	0,004
43,963	0,004
44,046	0,004
44,112	0,004
44,162	0,004
44,204	0,005
44,233	0,004
44,258	0,005
44,292	0,004
44,329	0,005
44,362	0,004
44,408	0,005
44,458	0,005
44,508	0,005
44,558	0,005
44,612	0,005
44,679	0,005
44,750	0,005
44,825	0,005
44,904	0,005
44,975	0,006
45,038	0,005
45,108	0,006
45,187	0,006
45,258	0,006
45,317	0,006
45,375	0,006
45,429	0,006
45,483	0,006
45,546	0,006
45,621	0,006
45,683	0,006
45,729	0,006
45,775	0,007
45,817	0,007
45,858	0,007
45,896	0,007
45,937	0,007
45,987	0,007
46,037	0,007
46,083	0,007
46,138	0,008
46,200	0,008
46,263	0,008
46,329	0,008
46,408	0,008
46,471	0,008
46,500	0,008
46,521	0,008
46,533	0,008
46,550	0,008
46,571	0,008
46,596	0,008
46,633	0,009
46,667	0,009
46,688	0,009
46,708	0,009
46,725	0,009
46,742	0,009
46,754	0,009
46,771	0,009
46,800	0,009
46,829	0,009
46,862	0,009
46,896	0,009
46,925	0,009
46,962	0,009
46,996	0,010
47,017	0,010
47,038	0,010
47,050	0,010
47,054	0,010
47,054	0,010
47,054	0,010
47,050	0,010
47,050	0,010
47,050	0,010
47,050	0,010
47,050	0,010
47,050	0,010
47,050	0,010
47,054	0,010
47,054	0,010
47,054	0,010
47,058	0,010
47,075	0,010
47,092	0,010
47,092	0,010
47,092	0,010
47,088	0,010
47,088	0,009
47,088	0,010
47,088	0,010
47,088	0,010
47,088	0,010
47,088	0,010
47,088	0,010
47,083	0,010
47,083	0,010
47,083	0,009
47,083	0,010
47,083	0,010
47,083	0,009
47,083	0,009
47,083	0,009
47,083	0,009
47,083	0,010
47,083	0,010
47,083	0,009
47,083	0,009
47,083	0,009
47,083	0,009
47,083	0,009
47,083	0,009
47,083	0,009
47,083	0,009
47,083	0,009
47,083	0,009
47,083	0,009
47,083	0,009
47,083	0,009
47,083	0,009
47,083	0,009
47,083	0,009
47,083	0,009
47,083	0,009
47,083	0,008
47,083	0,009
47,083	0,009
47,083	0,009
47,083	0,008
47,083	0,009
47,083	0,009
47,079	0,008
47,079	0,008
47,079	0,009
47,079	0,008
47,079	0,009
47,079	0,008
47,079	0,008
47,083	0,008
47,083	0,008
47,079	0,008
47,079	0,009
47,079	0,008
47,079	0,008
47,079	0,008
47,079	0,008
47,083	0,008
47,083	0,008
47,083	0,008
47,083	0,008
47,079	0,008
47,079	0,008
47,079	0,008
47,079	0,008
47,079	0,008
47,079	0,008
47,079	0,008
47,079	0,008
47,079	0,008
47,079	0,008
47,079	0,008
47,079	0,008
47,079	0,008
47,079	0,008
47,083	0,008
47,083	0,008
47,083	0,008
47,083	0,008
47,088	0,008
47,088	0,008
47,092	0,008
47,096	0,008
47,096	0,008
47,100	0,008
47,100	0,008
47,100	0,008
47,108	0,008
47,129	0,008
47,167	0,008
47,204	0,008
47,237	0,008
47,254	0,008
47,267	0,008
47,275	0,008
47,292	0,008
47,313	0,008
47,358	0,008
47,421	0,008
47,492	0,009
47,575	0,009
47,633	0,010
47,658	0,010
47,671	0,010
47,692	0,010
47,725	0,010
47,758	0,010
47,783	0,010
47,804	0,011
47,829	0,011
47,854	0,011
47,883	0,011
47,904	0,011
47,933	0,011
47,962	0,012
47,992	0,011
48,025	0,012
48,050	0,012
48,083	0,012
48,125	0,013
48,167	0,013
48,212	0,013
48,246	0,013
48,271	0,014
48,288	0,014
48,304	0,014
48,317	0,014
48,325	0,014
48,333	0,014
48,346	0,014
48,354	0,014
48,367	0,014
48,379	0,014
48,396	0,014
48,408	0,014
48,421	0,014
48,425	0,015
48,433	0,014
48,437	0,014
48,446	0,014
48,462	0,014
48,479	0,014
48,492	0,014
48,500	0,015
48,508	0,015
48,525	0,015
48,542	0,015
48,563	0,015
48,587	0,015
48,621	0,016
48,654	0,015
48,688	0,016
48,712	0,015
48,729	0,016
48,750	0,015
48,767	0,016
48,779	0,016
48,788	0,016
48,792	0,016
48,800	0,016
48,812	0,016
48,821	0,016
48,833	0,016
48,837	0,016
48,846	0,016
48,854	0,016
48,875	0,016
48,908	0,016
48,950	0,016
48,992	0,017
49,038	0,017
49,071	0,017
49,096	0,017
49,121	0,018
49,142	0,018
49,162	0,018
49,188	0,018
49,212	0,019
49,233	0,019
49,246	0,019
49,258	0,019
49,271	0,019
49,287	0,020
49,300	0,020
49,313	0,020
49,321	0,020
49,329	0,021
49,337	0,020
49,342	0,020
49,346	0,021
49,346	0,021
49,350	0,021
49,358	0,021
49,367	0,021
49,375	0,021
49,383	0,022
49,396	0,021
49,408	0,022
49,421	0,022
49,437	0,022
49,454	0,023
49,479	0,023
49,500	0,024
49,525	0,024
49,546	0,025
49,567	0,026
49,583	0,026
49,596	0,027
49,604	0,027
49,613	0,027
49,629	0,028
49,646	0,029
49,658	0,029
49,667	0,030
49,675	0,030
49,679	0,030
49,687	0,032
49,696	0,032
49,700	0,033
49,708	0,033
49,721	0,034
49,737	0,035
49,754	0,037
49,771	0,041
49,788	0,044
49,804	0,048
49,821	0,054
49,837	0,062
49,854	0,072
49,867	0,081
49,875	0,089
49,883	0,101
49,892	0,115
49,900	0,129
49,912	0,147
49,925	0,174
49,938	0,209
49,946	0,249
49,954	0,285
49,962	0,313
49,975	0,368
49,992	0,461
50,008	0,590
50,025	0,733
50,038	0,899
50,054	1,000
50,075	1,000
50,087	1,000
50,096	1,000
50,100	1,000
50,104	1,000
50,108	1,000
50,117	1,000
50,129	1,000
50,146	1,000
50,167	1,000
50,187	1,000
50,204	1,000
50,225	1,000
50,250	1,000
50,275	1,000
50,304	1,000
50,321	1,000
50,333	1,000
50,354	1,000
50,375	1,000
50,396	1,000
50,412	1,000
50,425	1,000
50,438	1,000
50,446	1,000
50,458	1,000
50,483	1,000
50,504	1,000
50,521	1,000
50,542	1,000
50,567	1,000
50,587	1,000
50,596	1,000
50,608	1,000
50,621	1,000
50,629	1,000
50,638	1,000
50,663	1,000
50,687	1,000
50,708	0,770
50,729	0,606
50,754	0,467
50,783	0,327
50,808	0,238
50,829	0,180
50,854	0,135
50,887	0,099
50,917	0,077
50,942	0,064
50,971	0,056
51,004	0,050
51,037	0,045
51,071	0,043
51,104	0,041
51,142	0,038
51,192	0,035
51,246	0,033
51,292	0,031
51,342	0,029
51,400	0,027
51,454	0,026
51,504	0,025
51,554	0,024
51,596	0,024
51,625	0,023
51,650	0,022
51,671	0,022
51,700	0,022
51,725	0,021
51,754	0,021
51,783	0,021
51,808	0,021
51,829	0,020
51,850	0,020
51,875	0,020
51,900	0,019
51,925	0,019
51,946	0,019
51,962	0,019
51,983	0,019
52,004	0,019
52,029	0,019
52,062	0,018
52,088	0,018
52,112	0,018
52,133	0,017
52,158	0,017
52,192	0,017
52,225	0,017
52,258	0,016
52,296	0,016
52,337	0,016
52,383	0,016
52,433	0,016
52,487	0,015
52,542	0,015
52,596	0,015
52,646	0,014
52,687	0,014
52,725	0,014
52,754	0,014
52,779	0,014
52,804	0,013
52,833	0,013
52,871	0,013
52,904	0,012
52,938	0,012
52,971	0,012
53,008	0,013
53,050	0,012
53,104	0,012
53,163	0,012
53,225	0,012
53,275	0,011
53,317	0,012
53,358	0,011
53,387	0,011
53,413	0,011
53,429	0,011
53,446	0,011
53,458	0,011
53,475	0,011
53,496	0,010
53,525	0,011
53,558	0,011
53,587	0,010
53,625	0,010
53,671	0,010
53,712	0,010
53,742	0,010
53,767	0,009
53,800	0,010
53,829	0,010
53,858	0,009
53,887	0,009
53,933	0,010
53,983	0,010
54,038	0,009
54,108	0,009
54,188	0,009
54,283	0,008
54,379	0,008
54,475	0,008
54,562	0,008
54,650	0,008
54,729	0,008
54,800	0,008
54,837	0,008
54,842	0,007
54,842	0,007
54,837	0,007
54,837	0,007
54,837	0,007
54,842	0,007
54,846	0,007
54,854	0,007
54,862	0,007
54,875	0,007
54,883	0,007
54,896	0,007
54,908	0,007
54,912	0,007
54,917	0,007
54,921	0,007
54,929	0,007
54,946	0,006
54,979	0,006
55,017	0,007
55,071	0,007
55,142	0,006
55,212	0,006
55,267	0,006
55,296	0,006
55,308	0,006
55,321	0,006
55,337	0,007
55,350	0,006
55,367	0,006
55,383	0,006
55,387	0,006
55,387	0,006
55,387	0,006
55,387	0,006
55,387	0,006
55,392	0,006
55,396	0,006
55,408	0,006
55,442	0,006
55,483	0,006
55,525	0,006
55,563	0,006
55,596	0,006
55,625	0,006
55,654	0,006
55,687	0,005
55,729	0,006
55,783	0,005
55,838	0,005
55,875	0,005
55,917	0,005
55,962	0,005
56,017	0,005
56,079	0,005
56,137	0,005
56,200	0,005
56,263	0,004
56,321	0,005
56,375	0,005
56,421	0,005
56,463	0,004
56,500	0,005
56,533	0,005
56,571	0,004
56,608	0,004
56,646	0,004
56,688	0,005
56,725	0,004
56,763	0,004
56,796	0,005
56,829	0,004
56,871	0,004
56,917	0,004
56,962	0,004
57,012	0,004
57,062	0,004
57,129	0,004
57,200	0,004
57,283	0,003
57,379	0,003
57,479	0,004
57,579	0,003
57,679	0,003
57,779	0,003
57,871	0,003
57,946	0,003
58,012	0,004
58,075	0,003
58,125	0,003
58,167	0,003
58,217	0,003
58,271	0,003
58,317	0,003
58,354	0,003
58,379	0,002
58,392	0,003
58,400	0,003
58,404	0,003
58,408	0,003
58,413	0,003
58,421	0,003
58,437	0,003
58,462	0,003
58,500	0,003
58,542	0,003
58,575	0,002
58,596	0,002
58,608	0,003
58,617	0,003
58,621	0,003
58,625	0,002
58,642	0,003
58,662	0,003
58,692	0,002
58,721	0,003
58,758	0,002
58,808	0,002
58,862	0,002
58,908	0,002
58,958	0,002
59,008	0,003
59,058	0,002
59,121	0,002
59,188	0,002
59,250	0,002
59,313	0,002
59,367	0,002
59,421	0,002
59,471	0,002
59,525	0,002
59,579	0,002
59,621	0,002
59,654	0,002
59,675	0,002
59,692	0,002
59,704	0,002
59,717	0,002
59,725	0,002
59,742	0,002
59,767	0,002
59,800	0,002
59,837	0,002
59,892	0,002
59,954	0,002
60,013	0,002
60,071	0,002
60,125	0,002
60,179	0,002
60,233	0,002
60,288	0,002
60,342	0,001
60,392	0,002
60,438	0,002
60,483	0,002
60,529	0,002
60,579	0,002
60,637	0,001
60,696	0,002
60,746	0,002
60,792	0,002
60,829	0,002
60,871	0,002
60,917	0,002
60,967	0,002
61,021	0,001
61,079	0,002
61,142	0,002
61,204	0,002
61,267	0,001
61,325	0,001
61,371	0,001
61,404	0,001
61,437	0,002
61,471	0,001
61,508	0,002
61,554	0,001
61,608	0,001
61,667	0,001
61,721	0,002
61,767	0,002
61,808	0,001
61,854	0,001
61,900	0,002
61,946	0,002
61,992	0,001
62,029	0,001
62,067	0,002
62,104	0,001
62,133	0,001
62,167	0,001
62,200	0,001
62,233	0,002
62,267	0,002
62,308	0,001
62,350	9,766E-4
62,388	0,002
62,425	0,001
62,467	0,001
62,517	0,001
62,571	0,001
62,625	0,001
62,675	9,766E-4
62,729	0,001
62,771	0,001
62,808	0,002
62,837	0,001
62,867	0,001
62,892	0,002
62,917	0,001
62,946	0,001
62,975	9,766E-4
63,004	0,001
63,033	0,001
63,063	0,001
63,087	0,001
63,117	0,001
63,142	0,001
63,167	0,001
63,187	0,001
63,208	0,001
63,233	0,002
63,254	0,001
63,271	0,001
63,292	0,001
63,308	0,001
63,333	0,001
63,354	0,001
63,383	0,002
63,408	0,001
63,433	9,766E-4
63,467	0,002
63,496	0,002
63,517	0,001
63,542	0,002
63,567	0,001
63,592	0,001
63,625	0,001
63,650	0,001
63,671	0,001
63,700	0,001
63,733	0,001
63,767	9,766E-4
63,796	9,766E-4
63,825	9,766E-4
63,854	9,766E-4
63,875	0,002
63,900	0,001
63,921	0,001
63,937	0,001
63,958	9,766E-4
63,971	0,001
63,979	9,766E-4
63,983	0,001
63,992	9,766E-4
64,004	0,001
64,021	0,001
64,042	0,001
64,075	9,766E-4
64,104	9,766E-4
64,142	0,001
64,200	0,001
64,258	0,001
64,304	9,766E-4
64,358	0,001
64,429	0,001
64,492	0,001
64,533	9,766E-4
64,587	0,001
64,654	0,001
64,704	9,766E-4
64,733	0,001
64,750	0,001
64,771	0,001
64,783	0,001
64,792	0,001
64,804	0,001
64,821	0,001
64,829	9,766E-4
64,838	0,001
64,850	0,001
64,867	9,766E-4
64,892	9,766E-4
64,925	9,766E-4
64,967	9,766E-4
65,008	0,001
65,050	9,766E-4
65,092	9,766E-4
65,129	9,766E-4
65,167	9,766E-4
65,204	9,766E-4
65,246	9,766E-4
65,292	0,001
65,337	0,001
65,388	0,001
65,429	0,001
65,467	0,002
65,508	0,002
65,550	0,002
65,588	9,766E-4
65,621	0,001
65,654	0,001
65,683	0,001
65,704	0,001
65,721	0,002
65,738	0,001
65,762	0,001
65,792	0,001
65,825	0,002
65,867	0,002
65,913	9,766E-4
65,946	0,002
65,979	0,001
66,025	9,766E-4
66,058	0,002
66,087	0,001
66,121	0,001
66,162	0,001
66,208	9,766E-4
66,254	0,002
66,300	0,001
66,346	0,001
66,379	0,001
66,412	0,001
66,446	0,001
66,475	0,001
66,504	0,001
66,542	0,002
66,575	0,001
66,604	0,001
66,629	0,002
66,646	0,001
66,658	0,002
66,671	0,002
66,683	0,001
66,696	0,002
66,708	0,001
66,721	0,001
66,733	0,002
66,750	0,002
66,771	0,001
66,804	0,002
66,846	0,002
66,896	0,002
66,950	0,002
67,000	0,001
67,050	0,002
67,092	0,001
67,129	0,002
67,167	0,002
67,204	0,001
67,233	0,002
67,263	0,002
67,292	0,002
67,313	0,001
67,329	0,001
67,346	0,002
67,367	0,001
67,383	0,002
67,392	0,001
67,400	0,002
67,413	0,002
67,421	0,002
67,438	0,001
67,458	0,002
67,487	0,002
67,529	0,002
67,579	0,002
67,625	0,002
67,667	0,002
67,704	0,002
67,750	0,002
67,804	0,002
67,858	0,002
67,917	0,002
67,971	0,003
68,029	0,002
68,083	0,002
68,137	0,002
68,187	0,002
68,233	0,002
68,279	0,002
68,329	0,002
68,375	0,002
68,412	0,002
68,446	0,002
68,479	0,002
68,508	0,002
68,533	0,002
68,558	0,002
68,579	0,002
68,600	0,002
68,617	0,002
68,633	0,002
68,650	0,002
68,662	0,003
68,683	0,002
68,708	0,002
68,742	0,002
68,771	0,002
68,808	0,002
68,846	0,002
68,887	0,002
68,933	0,002
68,983	0,003
69,033	0,002
69,083	0,002
69,129	0,002
69,175	0,002
69,217	0,003
69,254	0,003
69,287	0,003
69,321	0,003
69,354	0,003
69,388	0,002
69,417	0,003
69,450	0,002
69,483	0,003
69,521	0,003
69,558	0,003
69,604	0,003
69,658	0,003
69,708	0,003
69,763	0,003
69,813	0,003
69,862	0,003
69,900	0,003
69,946	0,003
69,992	0,003
70,042	0,003
70,088	0,004
70,133	0,004
70,171	0,004
70,200	0,004
70,229	0,004
70,267	0,004
70,300	0,005
70,333	0,006
70,371	0,007
70,408	0,008
70,442	0,009
70,475	0,010
70,508	0,010
70,546	0,012
70,575	0,011
70,600	0,011
70,621	0,010
70,638	0,010
70,654	0,010
70,667	0,009
70,679	0,009
70,692	0,009
70,700	0,008
70,713	0,008
70,729	0,008
70,750	0,007
70,767	0,007
70,779	0,007
70,796	0,006
70,804	0,007
70,817	0,007
70,829	0,007
70,854	0,007
70,879	0,008
70,912	0,012
70,954	0,026
70,996	0,061
71,029	0,110
71,054	0,157
71,071	0,196
71,079	0,226
71,092	0,254
71,104	0,285
71,117	0,321
71,129	0,354
71,146	0,394
71,167	0,453
71,192	0,522
71,213	0,580
71,233	0,625
71,254	0,654
71,271	0,672
71,292	0,680
71,312	0,674
71,338	0,650
71,358	0,607
71,375	0,561
71,387	0,522
71,400	0,485
71,417	0,440
71,433	0,378
71,454	0,304
71,475	0,229
71,500	0,164
71,521	0,110
71,537	0,074
71,554	0,052
71,575	0,037
71,596	0,027
71,617	0,021
71,642	0,016
71,667	0,014
71,696	0,011
71,733	0,010
71,771	0,009
71,804	0,008
71,838	0,007
71,867	0,006
71,896	0,006
71,929	0,006
71,963	0,005
72,000	0,005
72,042	0,005
72,088	0,005
72,137	0,006
72,179	0,006
72,217	0,006
72,246	0,006
72,275	0,006
72,304	0,006
72,338	0,006
72,379	0,005
72,421	0,005
72,463	0,004
72,504	0,004
72,542	0,004
72,583	0,003
72,633	0,004
72,683	0,004
72,721	0,003
72,762	0,003
72,800	0,003
72,821	0,003
72,829	0,003
72,838	0,003
72,846	0,003
72,854	0,003
72,879	0,003
72,925	0,003
72,979	0,003
73,042	0,003
73,108	0,003
73,175	0,003
73,242	0,003
73,308	0,002
73,387	0,003
73,479	0,003
73,571	0,003
73,654	0,002
73,725	0,003
73,800	0,003
73,883	0,002
73,967	0,002
74,062	0,002
74,167	0,002
74,279	0,002
74,396	0,002
74,512	0,002
74,617	0,002
74,717	0,002
74,825	0,002
74,942	0,002
75,058	0,002
75,175	0,002
75,296	0,002
75,408	0,002
75,525	0,002
75,646	0,002
75,779	0,001
75,917	0,002
76,058	0,002
76,192	0,002
76,292	0,002
76,367	0,002
76,429	0,002
76,475	0,002
76,521	0,002
76,571	0,002
76,621	0,002
76,675	0,002
76,742	0,002
76,813	0,002
76,879	0,002
76,950	0,002
77,021	0,002
77,100	0,002
77,179	0,002
77,267	0,002
77,362	0,002
77,475	0,001
77,604	0,002
77,737	0,002
77,858	0,003
77,963	0,004
78,050	0,004
78,133	0,005
78,213	0,005
78,304	0,003
78,412	0,002
78,533	0,002
78,646	0,002
78,746	0,002
78,825	0,002
78,887	0,001
78,942	0,001
78,987	0,002
79,029	0,002
79,058	0,001
79,083	0,002
79,104	0,002
79,125	0,001
79,150	0,002
79,192	0,002
79,254	0,002
79,325	0,002
79,408	0,002
79,496	0,002
79,588	0,002
79,671	0,002
79,737	0,002
79,804	0,003
79,871	0,005
79,933	0,010
79,996	0,017
80,058	0,024
80,133	0,030
80,213	0,031
80,296	0,024
80,379	0,013
80,458	0,005
80,542	0,002
80,638	0,002
80,742	0,002
80,838	0,002
80,933	0,002
81,033	0,002
81,146	0,002
81,267	0,002
81,375	0,002
81,483	0,002
81,592	0,002
81,700	0,002
81,804	0,002
81,925	0,001
82,046	0,002
82,158	0,002
82,254	0,002
82,354	0,002
82,454	0,002
82,550	0,001
82,650	0,002
82,758	0,002
82,871	0,002
82,987	0,001
83,096	0,002
83,192	0,002
83,275	0,002
83,346	0,001
83,400	0,001
83,442	0,002
83,475	0,002
83,504	0,001
83,537	0,002
83,567	0,002
83,596	0,001
83,621	0,002
83,633	0,001
83,642	0,001
83,646	0,001
83,650	0,002
83,658	0,002
83,667	0,002
83,679	0,002
83,696	0,002
83,725	0,002
83,767	0,002
83,829	0,002
83,904	0,001
83,987	0,002
84,079	0,002
84,167	0,002
84,262	0,002
84,362	9,766E-4
84,471	0,002
84,588	0,002
84,700	0,002
84,804	0,001
84,896	0,002
84,987	0,001
85,083	0,002
85,175	0,001
85,267	0,002
85,358	0,001
85,450	0,001
85,542	0,002
85,638	0,002
85,746	0,001
85,854	0,002
85,963	0,002
86,054	0,002
86,133	0,001
86,204	0,001
86,267	0,001
86,329	0,001
86,400	0,002
86,479	0,002
86,567	0,002
86,675	0,001
86,787	0,002
86,908	0,001
87,037	0,002
87,158	0,001
87,271	0,002
87,375	0,002
87,467	0,002
87,567	0,002
87,667	0,002
87,775	0,002
87,896	0,002
88,017	0,002
88,138	0,001
88,258	0,001
88,371	0,002
88,483	0,002
88,604	0,002
88,733	0,002
88,858	0,001
88,967	0,002
89,046	0,001
89,112	0,001
89,183	0,002
89,262	0,002
89,354	0,002
89,454	0,001
89,554	0,002
89,658	0,001
89,767	0,002
89,879	0,002
89,992	0,002
90,100	0,002
90,213	0,002
90,342	0,001
90,483	0,001
90,625	0,002
90,767	0,002
90,900	0,002
91,033	0,002
91,171	0,002
91,304	0,002
91,438	0,002
91,567	0,002
91,683	0,002
91,787	0,001
91,892	0,002
91,983	0,002
92,058	0,002
92,112	0,002
92,154	0,002
92,192	0,002
92,229	0,002
92,271	0,002
92,317	0,002
92,367	0,002
92,408	0,002
92,442	0,002
92,471	0,002
92,500	0,002
92,525	0,002
92,550	0,002
92,575	0,002
92,604	0,002
92,650	0,002
92,713	0,002
92,787	0,002
92,879	0,001
92,975	0,002
93,058	0,002
93,142	0,002
93,229	0,002
93,304	0,002
93,379	0,002
93,446	0,002
93,517	0,002
93,608	0,002
93,717	0,002
93,829	0,002
93,938	0,002
94,037	0,002
94,133	0,002
94,242	0,003
94,346	0,003
94,454	0,003
94,571	0,002
94,692	0,002
94,817	0,002
94,950	0,002
95,088	0,002
95,217	0,002
95,300	0,002
95,300	0,002
95,300	0,002
95,300	0,002
95,300	0,002
95,300	0,002
95,300	0,002
95,300	0,002
95,304	0,002
95,325	0,002
95,375	0,002
95,446	0,002
95,529	0,002
95,625	0,002
95,725	0,002
95,813	0,002
95,875	0,003
95,917	0,003
95,937	0,003
95,954	0,003
95,967	0,003
95,971	0,003
95,979	0,003
95,987	0,003
96,000	0,003
96,008	0,003
96,017	0,003
96,029	0,004
96,042	0,003
96,058	0,004
96,088	0,004
96,133	0,006
96,192	0,017
96,258	0,040
96,325	0,068
96,396	0,078
96,463	0,072
96,529	0,060
96,600	0,045
96,675	0,034
96,742	0,025
96,804	0,019
96,867	0,016
96,929	0,013
97,000	0,012
97,058	0,011
97,108	0,010
97,150	0,009
97,192	0,008
97,237	0,007
97,279	0,006
97,333	0,005
97,400	0,004
97,467	0,004
97,542	0,003
97,617	0,003
97,688	0,003
97,758	0,003
97,825	0,003
97,888	0,003
97,950	0,002
98,029	0,003
98,129	0,002
98,237	0,002
98,346	0,002
98,446	0,002
98,529	0,002
98,612	0,002
98,708	0,002
98,825	0,002
98,946	0,002
99,062	0,002
99,162	0,002
99,233	0,002
99,287	0,002
99,346	0,002
99,417	0,002
99,500	0,002
99,592	0,002
99,675	0,002
99,746	0,002
99,808	0,002
99,867	0,002
99,917	0,002
99,946	0,002
99,950	0,002
99,950	0,002
99,950	0,002
99,950	0,002
99,950	0,001
99,950	0,002
99,950	0,002
99,950	0,002
99,950	0,002
99,950	0,002
99,950	0,002
99,946	0,002
99,946	0,001
99,946	0,002
99,946	0,001
99,946	0,002
99,946	0,002
99,946	0,002
99,946	0,002
99,946	0,002
99,946	0,002
99,942	0,001
99,946	0,001
99,942	0,001
99,942	0,001
99,942	0,001
99,942	0,001
99,942	0,002
99,942	0,001
99,942	0,001
99,946	0,001
99,950	0,002
99,992	0,002
100,096	0,002
100,246	0,001
100,438	0,002
100,671	0,001
100,925	0,002
101,200	0,002
101,471	0,001
101,729	0,001
101,979	0,001
102,217	0,001
102,442	0,001
102,662	0,001
102,879	0,002
103,088	0,001
103,271	0,002
103,429	9,766E-4
103,550	0,001
103,638	0,001
103,708	0,001
103,812	0,001
103,979	0,001
104,196	0,001
104,454	9,766E-4
104,713	9,766E-4
104,950	9,766E-4
105,137	9,766E-4
105,279	9,766E-4
105,400	0,001
105,542	0,001
105,704	0,001
105,875	9,766E-4
106,029	9,766E-4
106,158	0,001
106,263	9,766E-4
106,346	9,766E-4
106,429	9,766E-4
106,533	9,766E-4
106,658	9,766E-4
106,792	0,001
106,929	9,766E-4
107,067	9,766E-4
107,187	0,001
107,283	9,766E-4
107,367	9,766E-4
107,467	9,766E-4
107,575	0,001
107,683	0,001
107,783	9,766E-4
107,879	9,766E-4
107,975	9,766E-4
108,075	9,766E-4
108,187	9,766E-4
108,329	0,001
108,492	9,766E-4
108,667	9,766E-4
108,842	9,766E-4
109,000	9,766E-4
109,138	9,766E-4
109,258	9,766E-4
109,367	9,766E-4
109,462	9,766E-4
109,546	9,766E-4
109,633	9,766E-4
109,717	9,766E-4
109,796	9,766E-4
109,867	9,766E-4
109,933	9,766E-4
110,008	4,883E-4
110,104	9,766E-4
110,233	4,883E-4
110,383	9,766E-4
110,546	9,766E-4
110,713	9,766E-4
110,867	9,766E-4
111,017	9,766E-4
111,183	9,766E-4
111,371	4,883E-4
111,571	9,766E-4
111,763	9,766E-4
111,958	4,883E-4
112,167	4,883E-4
112,408	4,883E-4
112,679	4,883E-4
112,938	4,883E-4
113,050	9,766E-4
113,050	4,883E-4
113,050	9,766E-4
113,050	9,766E-4
113,050	4,883E-4
113,050	9,766E-4
113,050	4,883E-4
113,050	4,883E-4
113,050	4,883E-4
113,050	4,883E-4
113,050	9,766E-4
113,050	9,766E-4
113,046	4,883E-4
113,046	9,766E-4
113,046	0,000
113,046	4,883E-4
113,046	4,883E-4
113,046	4,883E-4
113,046	9,766E-4
113,046	9,766E-4
113,046	4,883E-4
113,046	4,883E-4
113,046	4,883E-4
113,046	9,766E-4
113,046	4,883E-4
113,046	4,883E-4
113,046	4,883E-4
113,046	4,883E-4
113,046	4,883E-4
113,046	9,766E-4
113,046	4,883E-4
113,046	4,883E-4
113,046	4,883E-4
113,046	4,883E-4
113,046	4,883E-4
113,046	9,766E-4
113,046	9,766E-4
113,046	4,883E-4
113,046	4,883E-4
113,046	4,883E-4
113,046	9,766E-4
113,046	4,883E-4
113,046	9,766E-4
113,046	9,766E-4
113,042	9,766E-4
113,042	4,883E-4
113,046	9,766E-4
113,046	0,001
113,042	0,001
113,042	9,766E-4
113,042	0,001
113,042	9,766E-4
113,042	0,001
113,042	4,883E-4
113,042	4,883E-4
113,042	4,883E-4
113,042	4,883E-4
113,042	4,883E-4
113,042	0,000
113,042	0,000
113,042	4,883E-4
113,042	0,000
113,042	4,883E-4
113,042	4,883E-4
