Light Intensity vs Angle, Run #20
Angle ( deg )	Light Intensity ( V )
0,000	0,000
0,000	4,883E-4
0,000	0,000
0,000	0,000
0,000	0,000
0,000	0,000
0,000	0,000
0,000	0,000
0,000	0,000
0,000	0,000
0,000	0,000
0,000	0,000
0,000	0,000
0,000	0,000
0,000	0,000
0,000	0,000
0,000	0,000
0,000	0,000
0,000	0,000
0,000	0,000
0,000	0,000
0,000	0,000
0,000	0,000
0,000	0,000
0,000	0,000
0,000	0,000
0,000	0,000
0,000	0,000
0,000	0,000
0,000	0,000
0,000	0,000
0,000	-9,766E-4
0,000	0,000
0,000	0,000
0,000	0,000
0,000	0,000
0,000	0,000
0,000	0,000
0,000	0,000
0,000	0,000
0,000	0,000
0,000	0,000
0,000	0,000
0,000	0,000
0,000	0,000
0,000	0,000
0,000	0,000
0,000	0,000
0,000	0,000
0,000	0,000
0,000	0,000
0,000	0,000
0,000	0,000
0,000	0,000
0,000	0,000
0,000	0,000
0,000	0,000
0,000	0,000
0,000	0,000
0,000	0,000
0,000	0,000
0,000	0,000
0,000	0,000
0,000	0,000
0,000	0,000
0,000	0,000
0,000	0,000
0,000	0,000
0,000	0,000
0,000	0,000
0,000	0,000
0,000	0,000
0,000	4,883E-4
0,000	0,000
0,000	0,000
0,000	0,000
0,000	0,000
0,000	0,000
0,000	0,000
0,000	0,000
0,000	0,000
0,000	0,000
0,000	0,000
0,000	0,000
0,000	0,000
0,000	0,000
0,000	0,000
0,000	0,000
0,004	0,000
0,004	0,000
0,004	0,000
0,004	-4,883E-4
0,004	0,000
0,004	0,000
0,004	0,000
0,004	0,000
0,004	0,000
0,004	0,000
0,008	0,000
0,008	-4,883E-4
0,008	4,883E-4
0,008	4,883E-4
0,008	0,000
0,008	0,000
0,008	0,000
0,008	0,000
0,008	0,000
0,008	0,000
0,008	0,000
0,008	0,000
0,008	0,000
0,008	0,000
0,008	0,000
0,008	0,000
0,013	0,000
0,013	0,000
0,013	0,000
0,013	0,000
0,013	4,883E-4
0,013	0,000
0,013	0,000
0,017	0,000
0,017	0,000
0,017	0,000
0,017	0,000
0,017	0,000
0,021	0,000
0,021	0,000
0,025	0,000
0,029	0,000
0,037	0,000
0,046	0,000
0,058	0,000
0,088	0,000
0,133	0,000
0,217	0,000
0,325	0,000
0,471	0,000
0,654	0,000
0,867	0,000
1,100	0,000
1,337	0,000
1,583	0,000
1,817	0,000
2,029	0,000
2,221	0,000
2,417	4,883E-4
2,600	0,000
2,771	0,000
2,921	0,000
3,050	0,000
3,158	0,000
3,250	0,000
3,325	0,000
3,392	0,000
3,458	0,000
3,521	0,000
3,579	0,000
3,629	4,883E-4
3,675	0,000
3,729	0,000
3,800	0,000
3,871	0,000
3,938	0,000
4,000	0,000
4,058	0,000
4,121	0,000
4,187	0,000
4,254	0,000
4,312	0,000
4,367	0,000
4,421	0,000
4,475	0,000
4,533	0,000
4,600	4,883E-4
4,671	0,000
4,746	0,000
4,812	0,000
4,862	0,000
4,900	0,000
4,929	0,000
4,954	0,000
4,979	0,000
5,004	0,000
5,029	0,000
5,062	0,000
5,096	0,000
5,137	0,000
5,183	0,000
5,225	0,000
5,258	0,000
5,292	0,000
5,329	0,000
5,371	9,766E-4
5,421	9,766E-4
5,475	4,883E-4
5,525	0,000
5,579	0,000
5,642	0,000
5,717	0,000
5,808	4,883E-4
5,904	0,000
6,008	0,000
6,112	0,000
6,208	0,000
6,304	0,000
6,392	0,000
6,475	0,000
6,554	0,000
6,642	0,000
6,733	0,000
6,817	0,000
6,904	0,000
7,000	0,000
7,096	4,883E-4
7,179	0,000
7,250	4,883E-4
7,300	0,000
7,333	0,000
7,362	0,000
7,392	4,883E-4
7,433	0,000
7,479	4,883E-4
7,529	0,000
7,579	0,000
7,629	0,000
7,687	0,000
7,742	0,000
7,796	0,000
7,854	0,000
7,917	0,000
7,979	0,000
8,038	0,000
8,088	0,000
8,133	0,000
8,179	4,883E-4
8,229	0,000
8,283	0,000
8,350	0,000
8,425	0,000
8,512	0,000
8,613	0,000
8,717	0,000
8,821	0,000
8,917	4,883E-4
9,017	0,000
9,121	0,000
9,233	4,883E-4
9,338	4,883E-4
9,438	0,000
9,525	0,000
9,608	0,000
9,663	0,000
9,704	0,000
9,733	4,883E-4
9,771	0,000
9,813	0,000
9,850	0,000
9,896	0,000
9,942	0,000
9,996	0,000
10,054	0,000
10,113	0,000
10,183	4,883E-4
10,258	0,000
10,333	0,000
10,400	0,000
10,463	0,000
10,521	0,000
10,579	0,000
10,633	0,000
10,692	0,000
10,742	0,000
10,787	0,000
10,838	0,000
10,883	0,000
10,942	0,000
11,012	0,000
11,088	4,883E-4
11,163	0,000
11,233	4,883E-4
11,292	0,000
11,350	0,000
11,421	0,000
11,496	0,000
11,575	0,000
11,663	0,000
11,754	0,000
11,850	0,000
11,946	0,000
12,046	4,883E-4
12,150	0,000
12,258	0,000
12,371	0,000
12,496	0,000
12,642	0,000
12,800	4,883E-4
12,958	0,000
13,108	0,000
13,246	4,883E-4
13,363	0,000
13,467	0,000
13,558	0,000
13,642	0,000
13,713	0,000
13,771	0,000
13,817	0,000
13,850	0,000
13,883	0,000
13,925	0,000
13,975	0,000
14,025	0,000
14,075	0,000
14,125	0,000
14,183	0,000
14,258	4,883E-4
14,338	0,000
14,421	0,000
14,500	0,000
14,579	0,000
14,658	0,000
14,729	0,000
14,792	0,000
14,850	0,000
14,917	0,000
14,988	0,000
15,067	0,000
15,142	4,883E-4
15,204	0,000
15,254	0,000
15,296	0,000
15,338	0,000
15,387	0,000
15,438	0,000
15,492	0,000
15,554	0,000
15,625	0,000
15,708	0,000
15,800	0,000
15,887	0,000
15,979	0,000
16,063	0,000
16,146	0,000
16,233	0,000
16,325	0,000
16,421	0,000
16,508	4,883E-4
16,592	0,000
16,675	0,000
16,758	0,000
16,833	0,000
16,908	0,000
16,983	4,883E-4
17,058	0,000
17,125	0,000
17,183	0,000
17,246	0,000
17,313	4,883E-4
17,383	4,883E-4
17,467	0,000
17,558	0,000
17,646	0,000
17,729	0,000
17,804	0,000
17,867	0,000
17,938	0,000
18,004	0,000
18,063	0,000
18,121	0,000
18,188	0,000
18,258	4,883E-4
18,329	0,000
18,396	0,000
18,463	0,000
18,542	0,000
18,633	0,000
18,717	0,000
18,800	0,000
18,883	0,000
18,967	0,000
19,046	0,000
19,125	0,000
19,188	0,000
19,250	0,000
19,308	0,000
19,367	0,000
19,429	0,000
19,483	0,000
19,533	0,000
19,587	0,000
19,646	4,883E-4
19,713	0,000
19,783	0,000
19,854	0,000
19,925	0,000
20,000	0,000
20,083	0,000
20,163	-4,883E-4
20,238	0,000
20,312	0,000
20,383	0,000
20,458	9,766E-4
20,537	0,002
20,613	0,004
20,679	0,006
20,754	0,005
20,833	0,003
20,908	9,766E-4
20,979	4,883E-4
21,042	0,000
21,104	4,883E-4
21,175	0,000
21,258	0,000
21,342	0,000
21,425	0,000
21,504	4,883E-4
21,583	0,000
21,667	0,000
21,758	0,000
21,850	0,000
21,937	0,000
22,017	0,000
22,087	0,000
22,150	0,000
22,204	0,000
22,258	0,000
22,308	0,000
22,354	0,000
22,404	0,000
22,454	0,000
22,504	0,000
22,558	0,000
22,617	4,883E-4
22,675	4,883E-4
22,733	4,883E-4
22,787	4,883E-4
22,850	0,000
22,917	0,000
22,987	0,000
23,071	0,000
23,150	0,000
23,233	0,000
23,317	0,000
23,396	0,000
23,471	0,000
23,542	0,000
23,608	0,000
23,675	0,000
23,738	0,000
23,808	0,000
23,875	0,000
23,950	0,000
24,029	0,000
24,108	0,000
24,179	0,000
24,242	0,000
24,304	0,000
24,371	0,000
24,437	0,000
24,504	0,000
24,571	0,000
24,646	0,000
24,725	0,000
24,800	0,000
24,867	0,000
24,929	0,000
24,988	0,000
25,050	-4,883E-4
25,121	0,000
25,192	4,883E-4
25,279	0,000
25,375	0,000
25,463	0,000
25,537	0,000
25,600	0,000
25,654	0,000
25,700	0,000
25,742	0,000
25,775	0,000
25,804	0,000
25,833	0,000
25,863	0,000
25,896	0,000
25,925	0,000
25,958	0,000
25,996	0,000
26,038	0,000
26,075	0,000
26,121	0,000
26,162	0,000
26,213	4,883E-4
26,271	0,000
26,333	4,883E-4
26,396	0,000
26,450	0,000
26,492	0,000
26,529	0,000
26,562	0,000
26,592	0,000
26,625	0,000
26,658	0,000
26,692	0,000
26,729	0,000
26,771	0,000
26,829	0,000
26,892	4,883E-4
26,958	0,000
27,025	0,000
27,092	0,000
27,162	4,883E-4
27,242	4,883E-4
27,329	4,883E-4
27,421	0,000
27,504	0,000
27,575	4,883E-4
27,617	0,000
27,642	0,000
27,663	0,000
27,687	0,000
27,717	0,000
27,754	0,000
27,792	0,000
27,829	0,000
27,867	0,000
27,900	4,883E-4
27,938	0,000
27,971	0,000
28,008	0,000
28,058	4,883E-4
28,117	0,000
28,183	0,000
28,246	0,000
28,312	4,883E-4
28,375	0,000
28,442	4,883E-4
28,500	4,883E-4
28,563	0,000
28,633	4,883E-4
28,704	4,883E-4
28,783	4,883E-4
28,867	9,766E-4
28,950	4,883E-4
29,025	9,766E-4
29,087	4,883E-4
29,133	0,001
29,183	0,005
29,242	0,011
29,292	0,021
29,342	0,036
29,375	0,048
29,400	0,056
29,425	0,063
29,446	0,065
29,467	0,067
29,496	0,067
29,533	0,061
29,571	0,050
29,617	0,034
29,667	0,019
29,712	0,009
29,762	0,004
29,813	0,001
29,871	4,883E-4
29,937	9,766E-4
29,996	9,766E-4
30,046	4,883E-4
30,100	4,883E-4
30,158	9,766E-4
30,225	4,883E-4
30,292	9,766E-4
30,358	4,883E-4
30,425	0,000
30,483	0,000
30,542	4,883E-4
30,600	4,883E-4
30,650	0,000
30,700	0,000
30,746	0,000
30,792	0,000
30,833	0,000
30,879	0,000
30,933	0,000
30,992	0,000
31,054	0,000
31,121	0,000
31,183	0,000
31,250	0,000
31,317	0,000
31,383	0,000
31,442	0,000
31,496	0,000
31,550	0,000
31,608	0,000
31,675	0,000
31,746	0,000
31,808	0,000
31,858	0,000
31,896	0,000
31,925	0,000
31,950	0,000
31,979	0,000
32,012	0,000
32,050	0,000
32,096	0,000
32,158	0,000
32,233	0,000
32,308	0,000
32,375	0,000
32,442	4,883E-4
32,508	0,000
32,575	4,883E-4
32,629	0,000
32,687	0,000
32,746	0,000
32,821	0,000
32,904	0,000
32,992	0,000
33,075	0,000
33,158	0,000
33,233	0,000
33,296	0,000
33,346	0,000
33,392	0,000
33,437	0,000
33,483	0,000
33,529	0,000
33,579	0,000
33,638	0,000
33,713	0,000
33,796	0,000
33,875	0,000
33,950	0,000
34,021	0,000
34,096	0,000
34,175	0,000
34,254	0,000
34,333	0,000
34,408	0,000
34,479	0,000
34,542	0,000
34,604	0,000
34,662	0,000
34,725	0,000
34,783	0,000
34,837	4,883E-4
34,896	0,000
34,958	0,000
35,017	0,000
35,079	0,000
35,150	0,000
35,225	0,000
35,300	0,000
35,383	-9,766E-4
35,458	0,000
35,500	0,000
35,504	0,000
35,504	0,000
35,504	0,000
35,504	0,000
35,504	0,000
35,504	0,000
35,504	0,000
35,508	0,000
35,529	0,000
35,575	0,000
35,629	0,000
35,679	0,000
35,717	0,000
35,742	0,000
35,750	0,000
35,754	0,000
35,754	0,000
35,763	0,000
35,775	0,000
35,796	0,000
35,825	0,000
35,862	0,000
35,900	0,000
35,950	0,000
36,013	0,000
36,092	0,000
36,196	0,000
36,296	0,000
36,379	0,000
36,442	0,000
36,496	0,000
36,562	0,000
36,633	0,000
36,704	0,000
36,771	0,000
36,825	0,000
36,867	0,000
36,900	0,000
36,933	0,000
36,971	0,000
37,004	0,000
37,042	0,000
37,087	4,883E-4
37,133	0,000
37,183	0,000
37,233	-9,766E-4
37,292	0,000
37,367	0,000
37,450	0,000
37,538	0,000
37,612	0,000
37,675	0,000
37,725	0,000
37,767	0,000
37,808	0,000
37,850	0,000
37,896	0,000
37,954	0,000
38,021	0,000
38,092	0,000
38,179	0,000
38,275	0,000
38,371	0,000
38,458	0,000
38,546	0,000
38,633	0,000
38,733	0,000
38,842	0,000
38,958	0,000
39,079	0,000
39,196	0,000
39,325	0,000
39,462	0,000
39,604	0,000
39,754	0,000
39,900	0,000
40,046	0,000
40,187	0,000
40,321	0,000
40,446	-9,766E-4
40,542	0,000
40,621	0,000
40,700	0,000
40,788	0,000
40,892	0,000
41,000	0,000
41,117	0,000
41,250	0,000
41,400	0,000
41,558	0,000
41,725	0,000
41,892	0,000
42,046	0,000
42,183	0,000
42,308	0,000
42,412	0,000
42,504	0,000
42,575	0,000
42,629	0,000
42,663	0,000
42,696	0,000
42,729	0,000
42,758	0,000
42,792	0,000
42,833	0,000
42,879	0,000
42,929	0,000
42,983	0,000
43,037	0,000
43,100	0,000
43,167	4,883E-4
43,233	0,000
43,292	0,000
43,367	0,000
43,446	0,000
43,513	0,000
43,554	0,000
43,583	0,000
43,608	4,883E-4
43,650	0,000
43,708	4,883E-4
43,783	0,000
43,854	0,000
43,929	0,000
44,004	0,000
44,087	0,000
44,162	0,000
44,225	0,000
44,275	0,000
44,325	0,000
44,388	0,000
44,458	4,883E-4
44,525	4,883E-4
44,583	4,883E-4
44,633	0,000
44,679	0,000
44,729	4,883E-4
44,787	4,883E-4
44,862	4,883E-4
44,954	0,000
45,054	0,000
45,146	4,883E-4
45,237	0,000
45,337	0,000
45,438	0,000
45,529	4,883E-4
45,612	4,883E-4
45,683	0,000
45,754	0,000
45,817	4,883E-4
45,858	4,883E-4
45,887	0,000
45,904	0,000
45,921	4,883E-4
45,942	4,883E-4
45,971	4,883E-4
46,013	9,766E-4
46,063	4,883E-4
46,117	0,000
46,167	4,883E-4
46,221	4,883E-4
46,288	4,883E-4
46,371	9,766E-4
46,458	4,883E-4
46,546	9,766E-4
46,638	9,766E-4
46,729	4,883E-4
46,813	9,766E-4
46,892	9,766E-4
46,971	9,766E-4
47,050	9,766E-4
47,129	9,766E-4
47,192	9,766E-4
47,233	4,883E-4
47,267	9,766E-4
47,304	9,766E-4
47,346	9,766E-4
47,392	9,766E-4
47,442	0,001
47,487	9,766E-4
47,542	9,766E-4
47,596	9,766E-4
47,646	9,766E-4
47,696	9,766E-4
47,746	9,766E-4
47,788	0,001
47,833	0,002
47,888	0,001
47,950	9,766E-4
48,025	9,766E-4
48,092	0,002
48,146	0,001
48,196	0,002
48,246	0,001
48,296	0,002
48,346	0,002
48,400	0,002
48,450	0,001
48,508	0,002
48,571	0,002
48,637	0,002
48,717	0,002
48,788	0,001
48,858	0,002
48,933	0,002
49,012	0,002
49,083	0,002
49,150	0,003
49,221	0,003
49,287	0,003
49,358	0,003
49,429	0,004
49,504	0,004
49,575	0,004
49,642	0,005
49,712	0,007
49,788	0,013
49,862	0,037
49,933	0,101
50,004	0,221
50,071	0,381
50,137	0,525
50,204	0,617
50,262	0,686
50,312	0,749
50,354	0,807
50,396	0,804
50,446	0,678
50,500	0,455
50,550	0,222
50,596	0,119
50,638	0,066
50,683	0,039
50,725	0,022
50,767	0,014
50,812	0,009
50,854	0,007
50,900	0,006
50,946	0,005
51,000	0,005
51,058	0,004
51,121	0,004
51,188	0,003
51,250	0,003
51,308	0,003
51,358	0,002
51,400	0,002
51,437	0,002
51,475	0,002
51,508	0,002
51,542	0,002
51,571	0,002
51,600	0,003
51,629	0,002
51,654	0,002
51,683	0,001
51,712	0,002
51,737	0,002
51,763	0,002
51,787	0,001
51,817	0,002
51,842	0,002
51,871	0,002
51,896	0,002
51,921	0,001
51,942	0,001
51,971	0,002
52,000	0,002
52,029	0,001
52,058	0,001
52,088	0,002
52,121	0,001
52,146	0,002
52,171	0,001
52,200	0,001
52,225	0,001
52,250	9,766E-4
52,275	9,766E-4
52,300	0,001
52,325	0,001
52,350	0,001
52,371	9,766E-4
52,387	0,001
52,400	0,001
52,413	9,766E-4
52,425	0,001
52,438	9,766E-4
52,454	9,766E-4
52,471	0,001
52,487	9,766E-4
52,504	0,001
52,521	9,766E-4
52,546	0,001
52,567	9,766E-4
52,592	9,766E-4
52,617	9,766E-4
52,637	9,766E-4
52,658	9,766E-4
52,679	0,001
52,700	9,766E-4
52,721	9,766E-4
52,737	9,766E-4
52,746	9,766E-4
52,754	9,766E-4
52,758	0,001
52,767	9,766E-4
52,771	0,001
52,771	9,766E-4
52,779	9,766E-4
52,783	9,766E-4
52,796	9,766E-4
52,808	9,766E-4
52,817	9,766E-4
52,829	9,766E-4
52,842	9,766E-4
52,858	4,883E-4
52,875	9,766E-4
52,892	9,766E-4
52,908	4,883E-4
52,933	9,766E-4
52,958	9,766E-4
52,992	9,766E-4
53,033	9,766E-4
53,071	4,883E-4
53,108	9,766E-4
53,146	9,766E-4
53,187	9,766E-4
53,225	9,766E-4
53,271	4,883E-4
53,312	4,883E-4
53,358	9,766E-4
53,404	4,883E-4
53,450	9,766E-4
53,492	4,883E-4
53,533	9,766E-4
53,583	4,883E-4
53,642	4,883E-4
53,712	4,883E-4
53,788	4,883E-4
53,867	4,883E-4
53,942	4,883E-4
54,017	0,000
54,083	4,883E-4
54,154	9,766E-4
54,233	0,000
54,317	4,883E-4
54,408	4,883E-4
54,508	9,766E-4
54,617	4,883E-4
54,729	4,883E-4
54,833	4,883E-4
54,933	4,883E-4
55,025	4,883E-4
55,108	4,883E-4
55,175	4,883E-4
55,229	9,766E-4
55,292	4,883E-4
55,350	4,883E-4
55,408	0,000
55,471	0,000
55,542	9,766E-4
55,604	4,883E-4
55,667	0,000
55,742	0,000
55,821	0,000
55,896	0,000
55,971	0,000
56,054	0,000
56,125	0,000
56,183	0,000
56,246	0,000
56,317	0,000
56,392	4,883E-4
56,467	4,883E-4
56,558	0,000
56,654	0,000
56,750	0,000
56,846	0,000
56,942	4,883E-4
57,029	0,000
57,121	4,883E-4
57,208	4,883E-4
57,296	4,883E-4
57,375	4,883E-4
57,454	0,000
57,525	0,000
57,596	0,000
57,667	0,000
57,733	0,000
57,804	0,000
57,871	0,000
57,942	0,000
58,025	4,883E-4
58,112	0,000
58,196	0,000
58,283	0,000
58,383	0,000
58,487	0,000
58,592	0,000
58,704	0,000
58,817	0,000
58,921	0,000
59,017	0,000
59,112	0,000
59,192	4,883E-4
59,263	0,000
59,337	4,883E-4
59,413	0,000
59,483	0,000
59,558	0,000
59,633	0,000
59,717	0,000
59,792	0,000
59,871	0,000
59,958	0,000
60,050	0,000
60,137	0,000
60,225	0,000
60,312	0,000
60,396	0,000
60,479	0,000
60,563	0,000
60,642	0,000
60,725	4,883E-4
60,804	0,000
60,883	0,000
60,962	0,000
61,042	0,000
61,117	0,000
61,188	0,000
61,263	0,000
61,350	4,883E-4
61,433	0,000
61,521	0,000
61,608	0,000
61,696	0,000
61,788	4,883E-4
61,875	4,883E-4
61,967	0,000
62,062	0,000
62,163	0,000
62,258	0,000
62,354	0,000
62,442	0,000
62,521	-4,883E-4
62,592	4,883E-4
62,658	0,000
62,725	0,000
62,783	0,000
62,833	0,000
62,883	0,000
62,933	0,000
62,987	0,000
63,050	0,000
63,121	0,000
63,187	0,000
63,250	0,000
63,296	0,000
63,329	0,000
63,354	0,000
63,383	0,000
63,408	0,000
63,437	0,000
63,471	0,000
63,517	0,000
63,567	0,000
63,629	0,000
63,700	0,000
63,771	0,000
63,833	0,000
63,892	0,000
63,958	0,000
64,012	0,000
64,067	0,000
64,121	0,000
64,167	0,000
64,212	0,000
64,263	0,000
64,317	0,000
64,375	0,000
64,429	0,000
64,487	0,000
64,546	0,000
64,617	0,000
64,687	0,000
64,750	0,000
64,800	0,000
64,842	0,000
64,879	0,000
64,912	0,000
64,946	0,000
64,979	0,000
65,025	0,000
65,079	0,000
65,133	0,000
65,187	4,883E-4
65,242	0,000
65,287	0,000
65,329	0,000
65,371	0,000
65,412	0,000
65,463	0,000
65,508	0,000
65,558	0,000
65,617	0,000
65,683	0,000
65,750	0,000
65,812	0,000
65,871	0,000
65,933	0,000
66,000	0,000
66,071	0,000
66,150	4,883E-4
66,229	0,000
66,312	0,000
66,396	0,000
66,492	0,000
66,592	4,883E-4
66,692	0,000
66,800	0,000
66,917	0,000
67,021	0,000
67,117	0,000
67,217	0,000
67,317	0,000
67,408	0,000
67,492	0,000
67,567	0,000
67,629	0,000
67,683	4,883E-4
67,733	0,000
67,779	0,000
67,821	0,000
67,858	4,883E-4
67,896	0,000
67,938	0,000
67,983	4,883E-4
68,033	0,000
68,092	0,000
68,163	0,000
68,254	4,883E-4
68,362	4,883E-4
68,475	4,883E-4
68,600	0,000
68,725	0,000
68,854	0,000
68,987	4,883E-4
69,112	0,000
69,229	4,883E-4
69,342	0,000
69,446	0,000
69,550	0,000
69,650	0,000
69,750	0,000
69,846	4,883E-4
69,929	0,000
69,996	0,000
70,054	0,000
70,104	0,000
70,158	4,883E-4
70,217	0,000
70,279	0,000
70,350	9,766E-4
70,425	4,883E-4
70,504	4,883E-4
70,579	4,883E-4
70,658	0,000
70,733	4,883E-4
70,800	9,766E-4
70,858	0,001
70,921	0,005
70,983	0,013
71,042	0,024
71,088	0,034
71,125	0,041
71,158	0,045
71,188	0,047
71,221	0,047
71,250	0,045
71,275	0,042
71,292	0,039
71,308	0,036
71,329	0,031
71,350	0,026
71,367	0,022
71,379	0,020
71,392	0,016
71,412	0,013
71,433	0,010
71,454	0,006
71,483	0,004
71,517	0,002
71,554	9,766E-4
71,596	9,766E-4
71,633	9,766E-4
71,671	0,000
71,700	4,883E-4
71,733	4,883E-4
71,763	4,883E-4
71,792	9,766E-4
71,821	4,883E-4
71,846	9,766E-4
71,871	4,883E-4
71,888	4,883E-4
71,904	4,883E-4
71,921	4,883E-4
71,942	4,883E-4
71,963	4,883E-4
71,987	4,883E-4
72,021	4,883E-4
72,054	9,766E-4
72,092	4,883E-4
72,133	4,883E-4
72,183	9,766E-4
72,233	4,883E-4
72,283	9,766E-4
72,333	0,000
72,383	4,883E-4
72,438	0,000
72,487	0,000
72,542	0,000
72,588	0,000
72,629	0,000
72,675	0,000
72,721	0,000
72,767	0,000
72,821	4,883E-4
72,888	0,000
72,967	4,883E-4
73,058	4,883E-4
73,162	4,883E-4
73,275	4,883E-4
73,387	0,000
73,496	0,000
73,600	4,883E-4
73,700	4,883E-4
73,800	4,883E-4
73,892	0,000
73,983	0,000
74,075	0,000
74,158	0,000
74,242	0,000
74,325	0,000
74,400	0,000
74,475	0,000
74,554	0,000
74,646	0,000
74,750	4,883E-4
74,858	0,000
74,963	0,000
75,046	0,000
75,112	4,883E-4
75,171	0,000
75,221	0,000
75,275	0,000
75,338	4,883E-4
75,408	0,000
75,487	0,000
75,575	0,000
75,662	0,000
75,746	4,883E-4
75,829	4,883E-4
75,917	0,000
76,008	0,000
76,100	0,000
76,192	0,000
76,283	4,883E-4
76,367	0,000
76,446	0,000
76,517	0,000
76,588	4,883E-4
76,658	0,000
76,725	0,000
76,796	0,000
76,862	0,000
76,933	0,000
77,004	0,000
77,079	0,000
77,154	4,883E-4
77,229	0,000
77,313	4,883E-4
77,400	4,883E-4
77,487	0,000
77,571	0,000
77,654	0,000
77,729	0,000
77,796	4,883E-4
77,858	4,883E-4
77,917	4,883E-4
77,975	4,883E-4
78,025	0,000
78,075	9,766E-4
78,121	4,883E-4
78,175	4,883E-4
78,233	9,766E-4
78,296	4,883E-4
78,362	0,000
78,433	0,000
78,500	4,883E-4
78,567	0,000
78,625	4,883E-4
78,692	0,000
78,758	4,883E-4
78,825	0,000
78,896	-9,766E-4
78,967	0,000
79,033	0,000
79,096	4,883E-4
79,154	0,000
79,204	0,000
79,254	0,000
79,300	0,000
79,346	0,000
79,392	0,000
79,450	4,883E-4
79,508	4,883E-4
79,571	4,883E-4
79,625	0,000
79,687	0,000
79,750	4,883E-4
79,813	9,766E-4
79,879	0,002
79,950	0,003
80,017	0,004
80,088	0,005
80,150	0,005
80,217	0,003
80,279	0,002
80,342	9,766E-4
80,400	4,883E-4
80,458	0,000
80,512	0,000
80,567	0,000
80,612	0,000
80,654	0,000
80,696	0,000
80,742	4,883E-4
80,787	4,883E-4
80,833	4,883E-4
80,879	0,000
80,929	0,000
80,983	0,000
81,042	0,000
81,100	0,000
81,158	4,883E-4
81,221	0,000
81,279	0,000
81,342	0,000
81,412	0,000
81,479	0,000
81,550	4,883E-4
81,608	0,000
81,662	0,000
81,725	0,000
81,800	0,000
81,892	4,883E-4
81,979	0,000
82,067	0,000
82,158	0,000
82,250	0,000
82,338	0,000
82,425	0,000
82,517	0,000
82,608	0,000
82,696	0,000
82,783	0,000
82,867	0,000
82,958	0,000
83,058	0,000
83,158	0,000
83,254	0,000
83,354	4,883E-4
83,450	0,000
83,550	0,000
83,646	0,000
83,746	0,000
83,854	0,000
83,967	0,000
84,079	0,000
84,192	0,000
84,304	0,000
84,413	0,000
84,521	0,000
84,633	0,000
84,750	0,000
84,875	0,000
85,004	0,000
85,142	0,000
85,275	-4,883E-4
85,412	0,000
85,550	0,000
85,687	0,000
85,808	0,000
85,925	0,000
86,050	0,000
86,183	0,000
86,329	0,000
86,471	0,000
86,625	0,000
86,779	0,000
86,942	0,000
87,108	-4,883E-4
87,283	0,000
87,467	0,000
87,642	0,000
87,817	0,000
87,996	0,000
88,183	0,000
88,371	0,000
88,550	0,000
88,717	0,000
88,875	0,000
89,029	0,000
89,171	0,000
89,300	0,000
89,413	4,883E-4
89,517	0,000
89,617	0,000
89,713	0,000
89,812	0,000
89,908	0,000
89,996	4,883E-4
90,079	0,000
90,175	0,000
90,300	0,000
90,425	0,000
90,542	0,000
90,658	4,883E-4
90,783	0,000
90,917	0,000
91,062	0,000
91,217	0,000
91,371	0,000
91,525	0,000
91,667	0,000
91,808	0,000
91,950	0,000
92,075	4,883E-4
92,187	0,000
92,300	0,000
92,425	0,000
92,546	0,000
92,646	0,000
92,750	0,000
92,858	0,000
92,963	0,000
93,042	0,000
93,117	0,000
93,187	0,000
93,262	0,000
93,338	0,000
93,392	0,000
93,437	0,000
93,487	0,000
93,550	0,000
93,621	0,000
93,692	0,000
93,767	0,000
93,842	0,000
93,929	0,000
94,021	0,000
94,112	0,000
94,179	4,883E-4
94,221	4,883E-4
94,258	0,000
94,296	0,000
94,333	0,000
94,371	0,000
94,400	4,883E-4
94,429	4,883E-4
94,458	4,883E-4
94,479	0,000
94,500	0,000
94,517	0,000
94,529	0,000
94,542	0,000
94,563	0,000
94,588	0,000
94,621	0,000
94,654	0,000
94,687	0,000
94,717	0,000
94,742	4,883E-4
94,763	0,000
94,787	0,000
94,808	0,000
94,833	0,000
94,858	0,000
94,883	0,000
94,908	0,000
94,933	0,000
94,962	0,000
95,000	0,000
95,042	0,000
95,079	0,000
95,113	4,883E-4
95,146	0,000
95,179	0,000
95,213	0,000
95,246	0,000
95,275	0,000
95,308	0,000
95,342	0,000
95,383	0,000
95,421	0,000
95,458	0,000
95,492	0,000
95,521	0,000
95,554	0,000
95,587	0,000
95,625	0,000
95,667	0,000
95,708	0,000
95,750	0,000
95,787	0,000
95,825	0,000
95,862	0,000
95,900	0,000
95,946	0,000
95,992	0,000
96,038	0,000
96,088	0,000
96,142	0,002
96,200	0,004
96,254	0,006
96,312	0,007
96,371	0,007
96,429	0,005
96,492	0,004
96,546	0,004
96,604	0,002
96,662	0,002
96,725	0,001
96,792	9,766E-4
96,862	9,766E-4
96,929	9,766E-4
96,988	4,883E-4
97,042	9,766E-4
97,100	0,000
97,163	4,883E-4
97,229	0,000
97,300	0,000
97,375	4,883E-4
97,454	4,883E-4
97,538	0,000
97,625	0,000
97,717	0,000
97,817	0,000
97,921	0,000
98,025	0,000
98,121	0,000
98,225	0,000
98,342	0,000
98,471	0,000
98,617	0,000
98,779	0,000
98,942	0,000
99,108	0,000
99,275	0,000
99,437	0,000
99,592	0,000
99,729	0,000
99,858	0,000
99,987	0,000
100,117	0,000
100,246	0,000
100,358	0,000
100,454	0,000
100,546	0,000
100,638	0,000
100,738	0,000
100,846	0,000
100,983	0,000
101,154	0,000
101,346	0,000
101,525	0,000
101,683	0,000
101,829	0,000
101,971	0,000
102,117	-9,766E-4
102,258	0,000
102,417	0,000
102,592	0,000
102,767	0,000
102,950	0,000
103,138	0,000
103,329	0,000
103,513	0,000
103,692	0,000
103,867	0,000
104,054	0,000
104,246	0,000
104,442	-4,883E-4
104,642	0,000
104,850	0,000
105,062	0,000
105,292	0,000
105,521	0,000
105,767	0,000
106,021	0,000
106,283	0,000
106,554	0,000
106,825	0,000
107,088	0,000
107,346	0,000
107,592	0,000
107,829	-4,883E-4
108,046	0,000
108,254	0,000
108,463	0,000
108,675	0,000
108,883	0,000
109,100	0,000
109,304	-9,766E-4
109,487	0,000
109,654	0,000
109,821	0,000
109,983	0,000
110,142	-4,883E-4
110,292	0,000
110,429	0,000
110,554	0,000
110,679	0,000
110,813	0,000
110,946	0,000
111,050	0,000
111,125	0,000
111,183	0,000
111,233	0,000
111,283	0,000
111,338	0,000
111,392	0,000
111,454	0,000
111,529	0,000
111,625	0,000
111,771	0,000
111,938	0,000
112,108	0,000
112,250	0,000
112,354	0,000
112,442	0,000
112,538	0,000
112,683	0,000
112,883	0,000
112,946	0,000
112,942	0,000
112,938	0,000
112,938	0,000
112,938	0,000
112,938	0,000
112,938	0,000
112,938	0,000
112,933	0,000
112,929	0,000
112,929	0,000
112,929	0,000
112,929	0,000
112,929	0,000
112,929	0,000
112,929	-9,766E-4
112,929	0,000
112,929	0,000
112,929	-4,883E-4
112,929	0,000
112,929	-9,766E-4
112,929	-4,883E-4
