Voltage, ChA vs Angular Position, Ch1&2, Run #15
Angular Position, Ch1&2 ( rad )	Voltage, ChA ( V )
-0.004	-0.424
-0.004	-0.412
-0.004	-0.405
-0.004	-0.396
-0.004	-0.408
-0.004	-0.412
-0.004	-0.408
-0.004	-0.407
-0.004	-0.405
-0.004	-0.420
-0.004	-0.415
-0.004	-0.411
-0.004	-0.404
-0.004	-0.420
-0.004	-0.405
-0.004	-0.410
-0.004	-0.407
-0.004	-0.401
-0.004	-0.418
-0.004	-0.414
-0.004	-0.415
-0.004	-0.421
-0.004	-0.417
-0.004	-0.410
-0.004	-0.407
-0.004	-0.416
-0.004	-0.413
-0.004	-0.410
-0.004	-0.402
-0.004	-0.413
-0.004	-0.413
-0.004	-0.408
-0.004	-0.411
-0.004	-0.408
-0.004	-0.406
-0.004	-0.405
-0.009	-0.413
-0.009	-0.396
-0.009	-0.409
-0.009	-0.411
-0.009	-0.413
-0.009	-0.400
-0.009	-0.400
-0.009	-0.398
-0.009	-0.408
-0.009	-0.403
-0.009	-0.412
-0.009	-0.418
-0.009	-0.400
-0.009	-0.413
-0.009	-0.407
-0.009	-0.417
-0.009	-0.414
-0.009	-0.406
-0.009	-0.406
-0.009	-0.410
-0.009	-0.404
-0.009	-0.417
-0.009	-0.408
-0.004	-0.404
-0.004	-0.411
-0.004	-0.399
-0.004	-0.403
-0.004	-0.405
-0.004	-0.408
-0.004	-0.405
-0.004	-0.404
-0.004	-0.402
-0.004	-0.408
-0.004	-0.407
-0.004	-0.400
-0.004	-0.407
-0.004	-0.400
-0.004	-0.403
-0.004	-0.413
-0.004	-0.400
-0.004	-0.402
-0.004	-0.405
-0.004	-0.403
-0.004	-0.403
-0.004	-0.410
-0.004	-0.397
-0.004	-0.399
-0.004	-0.403
-0.004	-0.403
-0.004	-0.405
-0.004	-0.408
-0.004	-0.410
-0.004	-0.405
-0.004	-0.410
-0.004	-0.404
-0.004	-0.411
-0.004	-0.407
-0.004	-0.407
-0.004	-0.400
-0.004	-0.400
-0.004	-0.410
-0.004	-0.416
-0.004	-0.411
-0.004	-0.407
-0.004	-0.408
-0.004	-0.401
-0.004	-0.415
-0.004	-0.400
-0.004	-0.415
-0.004	-0.404
-0.004	-0.405
-0.004	-0.405
-0.004	-0.408
-0.004	-0.408
-0.004	-0.405
-0.004	-0.394
-0.004	-0.405
-0.004	-0.400
-0.004	-0.417
-0.004	-0.410
-0.004	-0.407
-0.004	-0.411
-0.004	-0.406
-0.004	-0.397
-0.004	-0.406
-0.004	-0.405
-0.004	-0.406
-0.004	-0.396
-0.004	-0.394
-0.004	-0.398
-0.004	-0.391
-0.004	-0.409
-0.004	-0.400
-0.004	-0.402
-0.004	-0.404
-0.004	-0.409
-0.004	-0.405
-0.004	-0.407
-0.004	-0.421
-0.004	-0.410
-0.004	-0.410
-0.004	-0.405
-0.004	-0.409
-0.004	-0.408
-0.004	-0.409
-0.004	-0.402
-0.004	-0.411
-0.004	-0.409
-0.004	-0.403
-0.004	-0.407
-0.004	-0.410
-0.004	-0.408
-0.004	-0.405
-0.004	-0.401
-0.004	-0.409
-0.004	-0.407
-0.004	-0.411
-0.004	-0.409
-0.004	-0.403
-0.004	-0.414
-0.004	-0.397
-0.004	-0.410
-0.004	-0.413
-0.004	-0.399
-0.004	-0.414
-0.004	-0.407
-0.004	-0.408
-0.004	-0.406
-0.004	-0.410
-0.004	-0.414
-0.004	-0.403
-0.004	-0.405
-0.004	-0.405
-0.004	-0.409
-0.004	-0.401
-0.004	-0.401
-0.004	-0.407
-0.004	-0.403
-0.004	-0.391
-0.004	-0.406
0.000	-0.417
0.000	-0.410
0.000	-0.410
0.000	-0.410
0.000	-0.410
0.000	-0.410
0.000	-0.408
0.000	-0.400
0.000	-0.414
0.004	-0.403
0.004	-0.406
0.004	-0.422
0.004	-0.417
0.004	-0.416
0.004	-0.405
0.004	-0.405
0.009	-0.411
0.017	-0.416
0.039	-0.414
0.074	-0.412
0.105	-0.413
0.131	-0.411
0.157	-0.407
0.188	-0.419
0.214	-0.407
0.240	-0.400
0.279	-0.415
0.349	-0.405
0.436	-0.401
0.524	-0.411
0.589	-0.402
0.650	-0.406
0.707	-0.405
0.755	-0.410
0.803	-0.411
0.846	-0.406
0.886	-0.414
0.925	-0.407
0.964	-0.421
0.999	-0.413
1.038	-0.413
1.082	-0.420
1.121	-0.405
1.156	-0.410
1.182	-0.414
1.204	-0.416
1.222	-0.415
1.239	-0.417
1.252	-0.411
1.261	-0.404
1.274	-0.408
1.287	-0.416
1.296	-0.416
1.305	-0.417
1.318	-0.407
1.335	-0.409
1.357	-0.415
1.392	-0.424
1.418	-0.416
1.440	-0.415
1.462	-0.416
1.492	-0.413
1.532	-0.428
1.580	-0.420
1.636	-0.417
1.689	-0.409
1.732	-0.420
1.780	-0.415
1.820	-0.411
1.846	-0.423
1.881	-0.419
1.920	-0.413
1.972	-0.413
2.020	-0.404
2.073	-0.418
2.129	-0.422
2.177	-0.398
2.225	-0.415
2.273	-0.416
2.321	-0.418
2.369	-0.416
2.413	-0.419
2.452	-0.432
2.487	-0.419
2.522	-0.418
2.557	-0.415
2.596	-0.411
2.640	-0.421
2.688	-0.411
2.718	-0.408
2.753	-0.419
2.788	-0.423
2.823	-0.415
2.858	-0.423
2.893	-0.419
2.923	-0.414
2.950	-0.406
2.963	-0.433
2.976	-0.428
2.985	-0.419
2.993	-0.420
3.002	-0.419
3.011	-0.429
3.024	-0.413
3.041	-0.417
3.076	-0.405
3.124	-0.421
3.176	-0.425
3.233	-0.412
3.294	-0.421
3.355	-0.418
3.416	-0.423
3.469	-0.420
3.508	-0.421
3.530	-0.423
3.547	-0.421
3.565	-0.428
3.582	-0.428
3.600	-0.413
3.613	-0.419
3.630	-0.422
3.648	-0.425
3.670	-0.421
3.691	-0.432
3.713	-0.428
3.739	-0.420
3.779	-0.436
3.831	-0.416
3.883	-0.422
3.936	-0.425
3.984	-0.417
4.032	-0.425
4.075	-0.405
4.115	-0.416
4.158	-0.416
4.193	-0.411
4.228	-0.424
4.259	-0.419
4.285	-0.421
4.311	-0.430
4.342	-0.420
4.368	-0.419
4.394	-0.419
4.411	-0.413
4.420	-0.430
4.433	-0.419
4.455	-0.430
4.490	-0.427
4.529	-0.417
4.573	-0.414
4.629	-0.422
4.695	-0.428
4.756	-0.423
4.813	-0.436
4.874	-0.422
4.931	-0.411
4.992	-0.419
5.057	-0.423
5.123	-0.421
5.184	-0.422
5.240	-0.425
5.306	-0.421
5.367	-0.422
5.428	-0.430
5.489	-0.432
5.550	-0.430
5.607	-0.430
5.668	-0.420
5.733	-0.420
5.808	-0.421
5.895	-0.423
5.978	-0.413
6.056	-0.416
6.144	-0.415
6.218	-0.414
6.283	-0.422
6.349	-0.421
6.440	-0.424
6.528	-0.413
6.615	-0.430
6.693	-0.426
6.768	-0.435
6.837	-0.422
6.903	-0.424
6.960	-0.425
7.012	-0.422
7.064	-0.420
7.121	-0.424
7.186	-0.416
7.265	-0.427
7.352	-0.419
7.439	-0.420
7.522	-0.432
7.597	-0.417
7.658	-0.421
7.723	-0.424
7.793	-0.414
7.858	-0.426
7.924	-0.411
7.989	-0.419
8.046	-0.430
8.116	-0.430
8.194	-0.438
8.282	-0.421
8.369	-0.414
8.456	-0.427
8.539	-0.430
8.622	-0.423
8.696	-0.424
8.762	-0.429
8.823	-0.417
8.879	-0.433
8.940	-0.419
9.002	-0.433
9.067	-0.427
9.146	-0.423
9.237	-0.419
9.333	-0.428
9.425	-0.410
9.521	-0.430
9.608	-0.416
9.682	-0.419
9.752	-0.416
9.826	-0.419
9.905	-0.415
9.983	-0.403
10.075	-0.401
10.167	-0.394
10.254	-0.384
10.350	-0.371
10.437	-0.345
10.511	-0.333
10.585	-0.307
10.655	-0.292
10.729	-0.287
10.795	-0.299
10.860	-0.319
10.913	-0.334
10.961	-0.341
11.022	-0.357
11.092	-0.371
11.157	-0.391
11.218	-0.392
11.288	-0.394
11.349	-0.406
11.414	-0.405
11.480	-0.405
11.554	-0.409
11.624	-0.410
11.698	-0.424
11.777	-0.424
11.860	-0.417
11.942	-0.425
12.025	-0.434
12.104	-0.429
12.169	-0.426
12.235	-0.432
12.296	-0.419
12.357	-0.425
12.418	-0.432
12.479	-0.433
12.545	-0.426
12.606	-0.428
12.684	-0.433
12.754	-0.428
12.828	-0.433
12.911	-0.434
13.003	-0.431
13.090	-0.428
13.169	-0.430
13.243	-0.436
13.304	-0.426
13.365	-0.435
13.430	-0.428
13.483	-0.423
13.535	-0.430
13.587	-0.445
13.640	-0.428
13.692	-0.438
13.744	-0.441
13.801	-0.427
13.858	-0.424
13.919	-0.444
13.984	-0.430
14.054	-0.427
14.124	-0.434
14.198	-0.436
14.268	-0.422
14.325	-0.427
14.390	-0.427
14.456	-0.425
14.526	-0.430
14.595	-0.436
14.665	-0.435
14.744	-0.436
14.809	-0.441
14.866	-0.423
14.927	-0.443
14.992	-0.435
15.062	-0.435
15.128	-0.432
15.180	-0.425
15.237	-0.436
15.289	-0.435
15.341	-0.433
15.398	-0.432
15.451	-0.439
15.494	-0.438
15.547	-0.425
15.603	-0.433
15.656	-0.425
15.712	-0.428
15.773	-0.425
15.834	-0.437
15.887	-0.422
15.939	-0.427
15.992	-0.425
16.040	-0.419
16.092	-0.430
16.144	-0.441
16.188	-0.429
16.232	-0.436
16.280	-0.436
16.332	-0.441
16.397	-0.443
16.458	-0.427
16.515	-0.432
16.572	-0.431
16.633	-0.432
16.698	-0.443
16.755	-0.436
16.812	-0.429
16.873	-0.436
16.912	-0.444
16.938	-0.424
16.960	-0.433
16.982	-0.438
17.008	-0.433
17.039	-0.440
17.069	-0.439
17.104	-0.435
17.139	-0.436
17.178	-0.440
17.222	-0.449
17.266	-0.440
17.309	-0.434
17.353	-0.440
17.405	-0.432
17.453	-0.431
17.501	-0.437
17.549	-0.442
17.597	-0.436
17.637	-0.440
17.676	-0.448
17.711	-0.440
17.754	-0.443
17.798	-0.427
17.842	-0.438
17.885	-0.440
17.920	-0.432
17.968	-0.439
18.025	-0.436
18.086	-0.425
18.147	-0.441
18.199	-0.439
18.256	-0.442
18.313	-0.444
18.374	-0.432
18.435	-0.437
18.492	-0.437
18.540	-0.446
18.579	-0.450
18.623	-0.441
18.662	-0.460
18.701	-0.449
18.754	-0.446
18.806	-0.445
18.850	-0.436
18.889	-0.438
18.937	-0.446
18.980	-0.442
19.024	-0.447
19.072	-0.450
19.120	-0.436
19.172	-0.443
19.225	-0.438
19.282	-0.455
19.338	-0.440
19.404	-0.447
19.474	-0.453
19.539	-0.449
19.604	-0.439
19.679	-0.444
19.766	-0.449
19.857	-0.449
19.962	-0.446
20.067	-0.450
20.172	-0.445
20.268	-0.450
20.355	-0.439
20.433	-0.446
20.516	-0.448
20.586	-0.441
20.647	-0.439
20.721	-0.442
20.804	-0.437
20.883	-0.453
20.966	-0.438
21.044	-0.440
21.123	-0.444
21.201	-0.447
21.271	-0.443
21.337	-0.455
21.389	-0.454
21.428	-0.439
21.472	-0.447
21.524	-0.445
21.590	-0.452
21.668	-0.456
21.756	-0.458
21.852	-0.458
21.934	-0.455
22.009	-0.441
22.096	-0.443
22.187	-0.444
22.275	-0.457
22.358	-0.448
22.436	-0.457
22.519	-0.448
22.606	-0.457
22.689	-0.450
22.768	-0.454
22.846	-0.445
22.929	-0.443
23.008	-0.447
23.078	-0.453
23.143	-0.455
23.204	-0.447
23.265	-0.457
23.326	-0.446
23.379	-0.455
23.435	-0.449
23.505	-0.455
23.588	-0.440
23.680	-0.444
23.780	-0.454
23.880	-0.457
23.976	-0.444
24.059	-0.452
24.142	-0.458
24.216	-0.443
24.286	-0.442
24.356	-0.461
24.430	-0.457
24.504	-0.447
24.583	-0.449
24.657	-0.445
24.736	-0.447
24.823	-0.464
24.915	-0.455
24.997	-0.453
25.080	-0.454
25.150	-0.455
25.211	-0.463
25.294	-0.450
25.377	-0.447
25.469	-0.458
25.573	-0.462
25.665	-0.454
25.765	-0.461
25.857	-0.447
25.936	-0.454
26.027	-0.451
26.119	-0.467
26.206	-0.456
26.289	-0.457
26.363	-0.452
26.442	-0.456
26.529	-0.448
26.621	-0.458
26.704	-0.455
26.786	-0.458
26.869	-0.449
26.935	-0.458
26.996	-0.458
27.070	-0.443
27.149	-0.457
27.231	-0.459
27.323	-0.464
27.423	-0.457
27.524	-0.458
27.629	-0.458
27.720	-0.454
27.799	-0.449
27.882	-0.457
27.960	-0.454
28.034	-0.455
28.095	-0.457
28.161	-0.459
28.213	-0.460
28.270	-0.452
28.327	-0.462
28.388	-0.460
28.458	-0.458
28.523	-0.448
28.593	-0.458
28.667	-0.469
28.741	-0.461
28.820	-0.460
28.907	-0.459
28.994	-0.455
29.082	-0.468
29.156	-0.468
29.230	-0.463
29.295	-0.464
29.352	-0.466
29.409	-0.463
29.474	-0.458
29.535	-0.463
29.596	-0.463
29.653	-0.467
29.710	-0.463
29.771	-0.458
29.849	-0.479
29.941	-0.460
30.037	-0.459
30.155	-0.458
30.277	-0.464
30.377	-0.468
30.465	-0.450
30.539	-0.465
30.604	-0.450
30.657	-0.467
30.709	-0.458
30.761	-0.467
30.818	-0.459
30.892	-0.466
30.988	-0.459
31.097	-0.467
31.211	-0.459
31.316	-0.455
31.412	-0.474
31.477	-0.460
31.538	-0.464
31.595	-0.464
31.660	-0.460
31.734	-0.468
31.822	-0.453
31.918	-0.464
32.018	-0.474
32.123	-0.468
32.223	-0.469
32.319	-0.474
32.411	-0.472
32.485	-0.466
32.559	-0.470
32.625	-0.466
32.681	-0.477
32.738	-0.471
32.803	-0.459
32.882	-0.465
32.965	-0.462
33.043	-0.474
33.122	-0.469
33.183	-0.469
33.227	-0.472
33.275	-0.474
33.327	-0.468
33.375	-0.478
33.436	-0.477
33.497	-0.458
33.554	-0.466
33.619	-0.468
33.698	-0.476
33.772	-0.468
33.846	-0.468
33.916	-0.467
33.986	-0.464
34.051	-0.475
34.117	-0.475
34.195	-0.485
34.274	-0.474
34.357	-0.480
34.444	-0.474
34.531	-0.479
34.619	-0.474
34.719	-0.477
34.828	-0.475
34.937	-0.474
35.046	-0.464
35.160	-0.464
35.269	-0.469
35.378	-0.472
35.469	-0.469
35.570	-0.473
35.670	-0.479
35.766	-0.482
35.853	-0.469
35.954	-0.483
36.054	-0.472
36.159	-0.477
36.264	-0.474
36.364	-0.476
36.460	-0.475
36.543	-0.475
36.630	-0.478
36.722	-0.482
36.826	-0.483
36.936	-0.482
37.049	-0.479
37.162	-0.482
37.272	-0.482
37.381	-0.481
37.490	-0.478
37.599	-0.471
37.703	-0.475
37.813	-0.475
37.926	-0.480
38.057	-0.483
38.188	-0.487
38.314	-0.479
38.441	-0.482
38.585	-0.482
38.751	-0.487
38.899	-0.485
39.026	-0.485
39.139	-0.484
39.257	-0.484
39.370	-0.487
39.488	-0.479
39.602	-0.475
39.715	-0.476
39.833	-0.482
39.946	-0.479
40.051	-0.472
40.151	-0.476
40.247	-0.471
40.339	-0.494
40.417	-0.484
40.496	-0.479
40.575	-0.483
40.653	-0.474
40.736	-0.484
40.823	-0.475
40.915	-0.478
41.015	-0.482
41.111	-0.475
41.207	-0.475
41.308	-0.484
41.404	-0.497
41.491	-0.480
41.578	-0.477
41.665	-0.494
41.757	-0.483
41.862	-0.485
41.953	-0.488
42.041	-0.494
42.110	-0.474
42.172	-0.481
42.233	-0.491
42.289	-0.486
42.355	-0.476
42.425	-0.483
42.486	-0.494
42.555	-0.490
42.630	-0.484
42.704	-0.475
42.778	-0.469
42.843	-0.489
42.918	-0.475
42.996	-0.486
43.083	-0.479
43.175	-0.496
43.271	-0.496
43.367	-0.497
43.459	-0.475
43.550	-0.486
43.638	-0.486
43.729	-0.493
43.821	-0.494
43.921	-0.490
44.022	-0.494
44.113	-0.508
44.209	-0.493
44.305	-0.499
44.401	-0.491
44.493	-0.479
44.571	-0.482
44.654	-0.487
44.724	-0.490
44.790	-0.498
44.868	-0.499
44.951	-0.478
45.034	-0.499
45.125	-0.494
45.213	-0.493
45.300	-0.500
45.392	-0.496
45.492	-0.488
45.588	-0.483
45.675	-0.495
45.758	-0.493
45.837	-0.486
45.924	-0.499
46.007	-0.494
46.081	-0.497
46.155	-0.493
46.225	-0.500
46.295	-0.497
46.356	-0.497
46.417	-0.489
46.478	-0.496
46.535	-0.488
46.592	-0.500
46.648	-0.485
46.709	-0.515
46.784	-0.492
46.862	-0.491
46.954	-0.490
47.045	-0.507
47.137	-0.497
47.242	-0.490
47.342	-0.491
47.438	-0.501
47.525	-0.499
47.613	-0.495
47.700	-0.501
47.774	-0.502
47.848	-0.501
47.914	-0.502
47.983	-0.494
48.066	-0.504
48.154	-0.496
48.258	-0.494
48.367	-0.501
48.485	-0.508
48.612	-0.494
48.743	-0.493
48.856	-0.501
48.956	-0.503
49.052	-0.492
49.131	-0.505
49.196	-0.496
49.253	-0.502
49.306	-0.497
49.358	-0.512
49.406	-0.504
49.463	-0.508
49.515	-0.504
49.580	-0.498
49.655	-0.493
49.733	-0.498
49.825	-0.502
49.921	-0.488
50.030	-0.501
50.135	-0.511
50.235	-0.511
50.327	-0.505
50.423	-0.494
50.510	-0.495
50.615	-0.498
50.724	-0.492
50.828	-0.499
50.920	-0.502
50.999	-0.513
51.077	-0.501
51.156	-0.508
51.239	-0.490
51.313	-0.497
51.391	-0.512
51.465	-0.507
51.540	-0.506
51.622	-0.502
51.701	-0.495
51.771	-0.489
51.841	-0.501
51.906	-0.492
51.967	-0.499
52.028	-0.504
52.081	-0.504
52.142	-0.508
52.216	-0.504
52.299	-0.513
52.395	-0.518
52.500	-0.507
52.609	-0.503
52.713	-0.504
52.818	-0.510
52.910	-0.527
52.988	-0.515
53.062	-0.507
53.137	-0.513
53.215	-0.508
53.281	-0.508
53.359	-0.499
53.442	-0.510
53.521	-0.510
53.603	-0.513
53.673	-0.515
53.743	-0.514
53.813	-0.508
53.900	-0.512
53.987	-0.508
54.075	-0.511
54.153	-0.513
54.236	-0.499
54.319	-0.512
54.402	-0.522
54.480	-0.517
54.576	-0.505
54.672	-0.516
54.760	-0.525
54.856	-0.513
54.947	-0.515
55.030	-0.516
55.122	-0.508
55.213	-0.511
55.309	-0.511
55.401	-0.515
55.488	-0.524
55.580	-0.493
55.667	-0.516
55.755	-0.522
55.842	-0.516
55.942	-0.516
56.043	-0.513
56.143	-0.513
56.235	-0.510
56.322	-0.513
56.405	-0.522
56.479	-0.525
56.553	-0.515
56.623	-0.521
56.701	-0.525
56.771	-0.524
56.841	-0.523
56.915	-0.519
56.989	-0.522
57.068	-0.521
57.151	-0.503
57.242	-0.530
57.330	-0.526
57.421	-0.517
57.513	-0.521
57.605	-0.526
57.696	-0.527
57.788	-0.529
57.871	-0.533
57.954	-0.513
58.032	-0.516
58.115	-0.528
58.198	-0.538
58.290	-0.522
58.390	-0.531
58.490	-0.511
58.595	-0.530
58.709	-0.517
58.813	-0.521
58.922	-0.533
59.036	-0.519
59.149	-0.530
59.241	-0.527
59.324	-0.532
59.398	-0.534
59.463	-0.521
59.524	-0.536
59.577	-0.524
59.625	-0.530
59.668	-0.533
59.716	-0.526
59.769	-0.533
59.830	-0.526
59.900	-0.529
59.987	-0.532
60.070	-0.527
60.166	-0.518
60.271	-0.523
60.384	-0.526
60.493	-0.531
60.589	-0.538
60.685	-0.541
60.785	-0.533
60.899	-0.537
61.025	-0.551
61.169	-0.535
61.313	-0.529
61.427	-0.535
61.518	-0.523
61.601	-0.518
61.671	-0.546
61.754	-0.535
61.854	-0.538
61.968	-0.533
62.081	-0.533
62.195	-0.531
62.313	-0.535
62.435	-0.533
62.557	-0.528
62.675	-0.536
62.779	-0.546
62.889	-0.537
62.998	-0.536
63.120	-0.543
63.246	-0.543
63.369	-0.541
63.482	-0.535
63.591	-0.526
63.700	-0.543
63.805	-0.538
63.897	-0.541
63.988	-0.532
64.084	-0.546
64.176	-0.542
64.267	-0.532
64.363	-0.548
64.455	-0.527
64.555	-0.549
64.664	-0.541
64.760	-0.544
64.856	-0.538
64.948	-0.531
65.044	-0.544
65.131	-0.540
65.227	-0.532
65.336	-0.545
65.441	-0.549
65.541	-0.545
65.642	-0.537
65.751	-0.545
65.847	-0.542
65.943	-0.543
66.043	-0.541
66.144	-0.552
66.235	-0.537
66.331	-0.554
66.427	-0.546
66.523	-0.555
66.606	-0.541
66.689	-0.545
66.776	-0.538
66.868	-0.546
66.973	-0.540
67.073	-0.532
67.169	-0.540
67.261	-0.528
67.348	-0.522
67.435	-0.528
67.527	-0.512
67.623	-0.507
67.714	-0.504
67.806	-0.491
67.902	-0.486
68.002	-0.474
68.098	-0.455
68.199	-0.439
68.303	-0.430
68.413	-0.408
68.530	-0.383
68.648	-0.341
68.766	-0.319
68.888	-0.287
68.993	-0.236
69.098	-0.195
69.211	-0.172
69.333	-0.125
69.468	-0.106
69.608	-0.070
69.752	-0.062
69.892	-0.048
70.040	-0.052
70.197	-0.059
70.350	-0.068
70.498	-0.102
70.633	-0.131
70.747	-0.152
70.839	-0.193
70.930	-0.209
71.009	-0.239
71.113	-0.261
71.240	-0.283
71.362	-0.319
71.480	-0.326
71.589	-0.347
71.689	-0.374
71.781	-0.394
71.864	-0.403
71.960	-0.418
72.056	-0.432
72.139	-0.445
72.222	-0.450
72.296	-0.453
72.366	-0.470
72.431	-0.488
72.510	-0.494
72.610	-0.494
72.715	-0.496
72.811	-0.504
72.902	-0.502
72.994	-0.509
73.099	-0.507
73.195	-0.512
73.286	-0.516
73.365	-0.526
73.426	-0.530
73.470	-0.521
73.518	-0.521
73.574	-0.538
73.631	-0.537
73.679	-0.547
73.723	-0.542
73.766	-0.548
73.806	-0.538
73.841	-0.556
73.875	-0.543
73.915	-0.547
73.937	-0.548
73.950	-0.552
73.967	-0.560
73.985	-0.546
73.993	-0.548
74.006	-0.554
74.024	-0.551
74.059	-0.548
74.111	-0.558
74.176	-0.558
74.238	-0.559
74.312	-0.560
74.377	-0.560
74.438	-0.558
74.499	-0.566
74.556	-0.566
74.613	-0.566
74.670	-0.565
74.726	-0.573
74.783	-0.562
74.827	-0.567
74.866	-0.555
74.910	-0.566
74.962	-0.557
75.023	-0.573
75.102	-0.566
75.189	-0.568
75.294	-0.562
75.389	-0.570
75.477	-0.570
75.560	-0.566
75.638	-0.572
75.725	-0.561
75.804	-0.560
75.878	-0.555
75.944	-0.573
76.013	-0.564
76.079	-0.568
76.144	-0.572
76.232	-0.564
76.319	-0.576
76.411	-0.571
76.498	-0.566
76.585	-0.567
76.664	-0.571
76.751	-0.574
76.851	-0.580
76.938	-0.573
77.008	-0.569
77.056	-0.577
77.109	-0.581
77.170	-0.581
77.235	-0.587
77.288	-0.582
77.344	-0.571
77.410	-0.570
77.497	-0.572
77.584	-0.581
77.680	-0.569
77.781	-0.575
77.868	-0.582
77.942	-0.569
78.012	-0.572
78.095	-0.580
78.178	-0.576
78.261	-0.579
78.339	-0.574
78.409	-0.570
78.479	-0.580
78.557	-0.580
78.645	-0.575
78.736	-0.587
78.837	-0.576
78.937	-0.580
79.046	-0.582
79.155	-0.582
79.260	-0.580
79.356	-0.586
79.447	-0.586
79.517	-0.591
79.587	-0.590
79.657	-0.590
79.731	-0.596
79.792	-0.587
79.844	-0.578
79.897	-0.570
79.971	-0.576
80.076	-0.580
80.207	-0.586
80.342	-0.585
80.486	-0.588
80.608	-0.579
80.708	-0.587
80.791	-0.584
80.870	-0.582
80.961	-0.586
81.075	-0.588
81.193	-0.601
81.302	-0.590
81.402	-0.584
81.489	-0.577
81.572	-0.598
81.647	-0.582
81.729	-0.580
81.812	-0.585
81.891	-0.595
81.969	-0.587
82.052	-0.581
82.126	-0.584
82.201	-0.584
82.279	-0.586
82.362	-0.591
82.436	-0.581
82.510	-0.584
82.572	-0.589
82.611	-0.596
82.650	-0.601
82.711	-0.595
82.794	-0.591
82.877	-0.585
82.964	-0.598
83.073	-0.585
83.204	-0.591
83.335	-0.595
83.370	-0.599
83.361	-0.593
83.366	-0.596
83.366	-0.595
83.366	-0.587
83.366	-0.592
83.366	-0.590
83.366	-0.609
83.366	-0.598
83.366	-0.601
83.366	-0.605
83.366	-0.590
83.366	-0.597
83.366	-0.598
83.366	-0.599
83.366	-0.594
83.366	-0.600
83.366	-0.609
83.366	-0.596
83.366	-0.600
83.366	-0.604
83.361	-0.597
83.361	-0.593
83.361	-0.603
83.357	-0.595
83.353	-0.616
83.353	-0.596
83.353	-0.591
83.353	-0.596
83.353	-0.591
83.353	-0.600
83.353	-0.599
83.353	-0.608
83.353	-0.600
83.348	-0.602
83.348	-0.599
83.348	-0.597
83.348	-0.600
83.348	-0.601
83.348	-0.606
83.348	-0.602
83.348	-0.604
83.348	-0.616
83.348	-0.599
83.348	-0.609
83.348	-0.607
83.348	-0.612
83.348	-0.612
83.348	-0.604
83.348	-0.603
83.348	-0.611
83.348	-0.588
83.348	-0.604
83.348	-0.619
83.348	-0.616
83.348	-0.610
83.348	-0.616
83.348	-0.607
83.348	-0.609
83.348	-0.612
83.348	-0.601
83.344	-0.610
83.344	-0.599
83.344	-0.607
83.344	-0.622
83.344	-0.601
83.344	-0.599
83.344	-0.609
83.344	-0.598
83.344	-0.604
83.344	-0.607
83.344	-0.611
83.344	-0.605
83.344	-0.606
83.344	-0.602
83.344	-0.618
83.344	-0.600
83.344	-0.609
83.344	-0.612
83.344	-0.605
83.344	-0.609
83.344	-0.620
83.344	-0.612
83.344	-0.619
83.344	-0.616
83.344	-0.626
83.344	-0.601
83.344	-0.615
83.344	-0.610
83.344	-0.616
83.344	-0.611
83.344	-0.614
83.344	-0.599
83.344	-0.609
83.344	-0.611
83.344	-0.611
83.344	-0.602
83.344	-0.615
83.344	-0.611
83.344	-0.616
83.344	-0.614
83.344	-0.615
83.344	-0.615
83.344	-0.620
83.344	-0.624
83.344	-0.613
83.344	-0.605
83.344	-0.602
83.344	-0.606
83.344	-0.600
83.344	-0.607
83.344	-0.592
83.344	-0.614
83.344	-0.610
83.344	-0.615
83.344	-0.607
83.344	-0.617
83.344	-0.605
83.344	-0.609
83.344	-0.605
83.344	-0.609
83.344	-0.604
83.344	-0.612
83.344	-0.602
83.344	-0.613
83.344	-0.610
83.344	-0.605
83.344	-0.617
83.344	-0.602
83.344	-0.606
83.344	-0.616
83.344	-0.620
83.339	-0.609
83.339	-0.621
83.339	-0.613
83.339	-0.613
83.339	-0.610
83.339	-0.609
83.339	-0.623
83.339	-0.615
83.339	-0.616
83.339	-0.620
83.339	-0.607
83.339	-0.615
83.339	-0.624
83.339	-0.609
83.339	-0.625
83.339	-0.608
83.339	-0.615
83.339	-0.613
83.339	-0.620
83.339	-0.621
83.339	-0.609
83.339	-0.619
83.339	-0.615
83.339	-0.611
83.339	-0.621
83.339	-0.620
83.339	-0.612
83.339	-0.616
