Voltage, ChA vs Angular Position, Ch1&2, Run #24
Angular Position, Ch1&2 ( rad )	Voltage, ChA ( V )
0.000	-0.039
0.000	-0.028
0.000	-0.039
0.000	-0.033
0.000	-0.045
0.000	-0.038
0.000	-0.040
0.000	-0.041
0.000	-0.043
0.000	-0.040
0.000	-0.040
0.000	-0.040
0.000	-0.040
0.000	-0.036
0.000	-0.043
0.000	-0.040
0.000	-0.040
0.000	-0.048
0.000	-0.036
0.000	-0.031
0.000	-0.040
0.000	-0.035
0.000	-0.046
0.000	-0.037
0.000	-0.042
0.000	-0.046
0.000	-0.048
0.000	-0.043
0.000	-0.049
0.000	-0.029
0.000	-0.037
0.000	-0.029
0.000	-0.040
0.000	-0.036
0.000	-0.042
0.000	-0.037
0.000	-0.037
0.000	-0.044
0.000	-0.034
0.000	-0.034
0.000	-0.026
0.000	-0.040
0.000	-0.040
0.000	-0.039
0.000	-0.027
0.000	-0.037
0.000	-0.037
0.000	-0.032
0.000	-0.031
0.000	-0.034
0.000	-0.044
0.000	-0.056
0.000	-0.043
0.000	-0.048
0.000	-0.032
0.000	-0.048
0.000	-0.027
0.000	-0.042
0.000	-0.032
0.000	-0.042
0.000	-0.035
0.000	-0.039
0.000	-0.044
0.000	-0.035
0.000	-0.038
0.000	-0.024
0.000	-0.035
0.000	-0.027
0.000	-0.019
0.000	-0.035
0.000	-0.031
0.000	-0.035
0.000	-0.034
0.000	-0.038
0.000	-0.039
0.000	-0.034
0.000	-0.026
0.000	-0.044
0.000	-0.037
0.000	-0.032
0.000	-0.026
0.000	-0.032
0.000	-0.031
0.000	-0.029
0.000	-0.034
0.000	-0.036
0.000	-0.020
0.000	-0.033
0.000	-0.034
0.000	-0.037
0.000	-0.039
0.000	-0.032
0.000	-0.032
0.000	-0.042
0.000	-0.040
0.000	-0.042
0.000	-0.049
0.000	-0.037
0.004	-0.029
0.004	-0.034
0.004	-0.028
0.004	-0.031
0.004	-0.038
0.004	-0.024
0.004	-0.045
0.004	-0.041
0.004	-0.037
0.004	-0.035
0.004	-0.038
0.004	-0.047
0.004	-0.037
0.004	-0.033
0.004	-0.033
0.004	-0.036
0.004	-0.042
0.004	-0.035
0.004	-0.034
0.004	-0.047
0.004	-0.031
0.004	-0.035
0.004	-0.035
0.004	-0.038
0.004	-0.035
0.004	-0.029
0.004	-0.034
0.004	-0.045
0.004	-0.031
0.004	-0.027
0.004	-0.034
0.004	-0.029
0.004	-0.032
0.004	-0.036
0.004	-0.037
0.004	-0.033
0.004	-0.026
0.004	-0.038
0.004	-0.044
0.004	-0.031
0.004	-0.037
0.004	-0.048
0.004	-0.046
0.004	-0.027
0.004	-0.044
0.004	-0.054
0.004	-0.037
0.004	-0.038
0.004	-0.045
0.004	-0.038
0.004	-0.035
0.004	-0.031
0.004	-0.051
0.004	-0.042
0.004	-0.040
0.004	-0.045
0.004	-0.052
0.004	-0.037
0.004	-0.039
0.004	-0.027
0.004	-0.042
0.004	-0.052
0.004	-0.049
0.004	-0.046
0.004	-0.044
0.004	-0.047
0.004	-0.040
0.004	-0.045
0.004	-0.038
0.004	-0.038
0.004	-0.043
0.004	-0.044
0.004	-0.044
0.004	-0.044
0.004	-0.035
0.004	-0.051
0.004	-0.046
0.004	-0.040
0.004	-0.049
0.004	-0.048
0.004	-0.044
0.004	-0.037
0.004	-0.050
0.004	-0.048
0.004	-0.057
0.004	-0.039
0.004	-0.056
0.004	-0.051
0.004	-0.052
0.004	-0.043
0.004	-0.049
0.004	-0.065
0.004	-0.058
0.004	-0.055
0.009	-0.057
0.009	-0.054
0.009	-0.054
0.009	-0.061
0.009	-0.039
0.009	-0.051
0.009	-0.064
0.013	-0.045
0.013	-0.052
0.013	-0.039
0.017	-0.052
0.022	-0.065
0.052	-0.046
0.118	-0.044
0.166	-0.055
0.205	-0.056
0.244	-0.044
0.292	-0.056
0.345	-0.060
0.415	-0.044
0.493	-0.050
0.563	-0.041
0.615	-0.056
0.654	-0.049
0.685	-0.042
0.711	-0.054
0.742	-0.052
0.772	-0.057
0.803	-0.054
0.833	-0.054
0.860	-0.049
0.890	-0.038
0.925	-0.042
0.960	-0.054
0.999	-0.050
1.030	-0.048
1.065	-0.063
1.108	-0.045
1.152	-0.049
1.196	-0.051
1.235	-0.039
1.265	-0.060
1.300	-0.048
1.344	-0.054
1.383	-0.049
1.418	-0.058
1.453	-0.067
1.479	-0.043
1.501	-0.057
1.514	-0.046
1.532	-0.040
1.545	-0.046
1.566	-0.050
1.597	-0.052
1.636	-0.048
1.684	-0.052
1.728	-0.048
1.780	-0.056
1.828	-0.037
1.881	-0.051
1.933	-0.056
1.977	-0.052
2.007	-0.053
2.033	-0.058
2.064	-0.053
2.094	-0.053
2.125	-0.056
2.151	-0.051
2.182	-0.052
2.221	-0.060
2.260	-0.047
2.304	-0.059
2.347	-0.049
2.395	-0.060
2.439	-0.044
2.487	-0.059
2.544	-0.058
2.609	-0.048
2.683	-0.047
2.766	-0.056
2.841	-0.055
2.906	-0.054
2.971	-0.057
3.041	-0.049
3.107	-0.046
3.172	-0.049
3.233	-0.054
3.294	-0.056
3.351	-0.048
3.416	-0.054
3.491	-0.054
3.543	-0.067
3.595	-0.054
3.639	-0.054
3.691	-0.058
3.748	-0.056
3.774	-0.049
3.814	-0.059
3.862	-0.062
3.910	-0.057
3.966	-0.046
4.019	-0.060
4.071	-0.056
4.123	-0.057
4.171	-0.060
4.211	-0.049
4.254	-0.046
4.307	-0.047
4.372	-0.046
4.446	-0.055
4.529	-0.053
4.612	-0.045
4.695	-0.059
4.782	-0.053
4.865	-0.049
4.948	-0.056
5.022	-0.057
5.092	-0.062
5.153	-0.053
5.210	-0.046
5.262	-0.059
5.323	-0.057
5.389	-0.048
5.454	-0.058
5.515	-0.041
5.585	-0.055
5.651	-0.058
5.703	-0.046
5.764	-0.046
5.821	-0.051
5.877	-0.056
5.934	-0.040
5.991	-0.054
6.052	-0.042
6.113	-0.054
6.170	-0.054
6.226	-0.059
6.279	-0.049
6.331	-0.042
6.388	-0.048
6.440	-0.050
6.484	-0.043
6.532	-0.050
6.576	-0.046
6.628	-0.050
6.685	-0.053
6.737	-0.051
6.785	-0.062
6.842	-0.061
6.903	-0.049
6.955	-0.051
6.994	-0.057
7.021	-0.047
7.029	-0.058
7.034	-0.060
7.038	-0.046
7.038	-0.060
7.038	-0.048
7.042	-0.053
7.047	-0.052
7.055	-0.051
7.069	-0.062
7.077	-0.045
7.090	-0.056
7.103	-0.052
7.117	-0.048
7.130	-0.048
7.147	-0.039
7.169	-0.046
7.186	-0.054
7.204	-0.057
7.226	-0.059
7.247	-0.039
7.265	-0.047
7.295	-0.048
7.330	-0.054
7.365	-0.049
7.409	-0.046
7.466	-0.049
7.531	-0.053
7.605	-0.057
7.675	-0.051
7.741	-0.059
7.789	-0.056
7.828	-0.060
7.863	-0.034
7.898	-0.057
7.933	-0.053
7.959	-0.049
7.976	-0.057
7.994	-0.048
8.015	-0.054
8.037	-0.046
8.063	-0.049
8.094	-0.043
8.125	-0.059
8.168	-0.038
8.203	-0.049
8.238	-0.049
8.273	-0.046
8.308	-0.059
8.338	-0.054
8.378	-0.057
8.421	-0.049
8.469	-0.049
8.522	-0.049
8.578	-0.042
8.631	-0.049
8.679	-0.052
8.731	-0.039
8.783	-0.046
8.827	-0.049
8.866	-0.043
8.910	-0.054
8.962	-0.045
9.015	-0.054
9.054	-0.048
9.089	-0.051
9.119	-0.054
9.141	-0.051
9.163	-0.048
9.180	-0.045
9.198	-0.042
9.220	-0.043
9.246	-0.046
9.276	-0.049
9.316	-0.050
9.372	-0.046
9.425	-0.048
9.473	-0.048
9.516	-0.043
9.551	-0.032
9.595	-0.040
9.643	-0.039
9.682	-0.040
9.721	-0.035
9.761	-0.024
9.791	-0.025
9.813	-0.021
9.839	-0.027
9.865	-0.018
9.892	-0.014
9.918	-0.012
9.940	-0.009
9.966	-0.018
10.001	-0.005
10.040	0.003
10.079	0.012
10.132	0.014
10.175	0.026
10.210	0.037
10.245	0.070
10.276	0.107
10.302	0.148
10.332	0.191
10.367	0.236
10.393	0.277
10.415	0.319
10.446	0.363
10.494	0.416
10.542	0.480
10.572	0.552
10.594	0.605
10.620	0.687
10.655	0.763
10.695	0.817
10.729	0.901
10.747	0.967
10.764	1.036
10.777	1.094
10.790	1.147
10.804	1.184
10.812	1.212
10.812	1.249
10.817	1.276
10.830	1.285
10.860	1.315
10.886	1.339
10.908	1.382
10.926	1.398
10.952	1.426
10.987	1.470
11.017	1.513
11.057	1.521
11.096	1.554
11.135	1.556
11.161	1.535
11.183	1.506
11.201	1.473
11.214	1.433
11.227	1.393
11.240	1.354
11.249	1.312
11.257	1.276
11.262	1.232
11.262	1.202
11.275	1.185
11.297	1.155
11.332	1.107
11.362	1.033
11.388	0.967
11.414	0.886
11.441	0.819
11.454	0.740
11.462	0.681
11.471	0.628
11.484	0.588
11.515	0.537
11.554	0.472
11.611	0.394
11.676	0.308
11.737	0.239
11.798	0.189
11.868	0.156
11.921	0.112
11.960	0.090
11.995	0.059
12.030	0.040
12.069	0.027
12.104	0.012
12.134	0.003
12.152	-0.012
12.161	-0.016
12.165	-0.017
12.178	-0.033
12.195	-0.020
12.217	-0.035
12.243	-0.034
12.274	-0.039
12.313	-0.048
12.348	-0.038
12.374	-0.047
12.392	-0.045
12.401	-0.044
12.405	-0.035
12.405	-0.054
12.401	-0.056
12.401	-0.063
12.401	-0.057
12.401	-0.045
12.401	-0.051
12.401	-0.046
12.401	-0.062
12.401	-0.063
12.401	-0.068
12.401	-0.057
12.405	-0.068
12.409	-0.056
12.422	-0.061
12.435	-0.051
12.457	-0.061
12.479	-0.053
12.497	-0.064
12.527	-0.059
12.558	-0.067
12.597	-0.063
12.641	-0.074
12.689	-0.053
12.737	-0.062
12.780	-0.078
12.819	-0.068
12.859	-0.065
12.898	-0.059
12.937	-0.073
12.981	-0.067
13.038	-0.064
13.094	-0.063
13.155	-0.073
13.221	-0.071
13.282	-0.075
13.339	-0.070
13.387	-0.068
13.430	-0.078
13.465	-0.071
13.496	-0.061
13.526	-0.070
13.561	-0.070
13.596	-0.073
13.627	-0.070
13.666	-0.068
13.701	-0.076
13.736	-0.073
13.775	-0.071
13.819	-0.074
13.867	-0.070
13.915	-0.074
13.976	-0.084
14.037	-0.068
14.098	-0.073
14.155	-0.068
14.203	-0.074
14.242	-0.090
14.281	-0.078
14.312	-0.065
14.342	-0.079
14.360	-0.080
14.368	-0.078
14.368	-0.083
14.368	-0.078
14.368	-0.078
14.373	-0.078
14.373	-0.079
14.386	-0.087
14.416	-0.083
14.456	-0.067
14.495	-0.090
14.543	-0.070
14.604	-0.088
14.665	-0.090
14.731	-0.067
14.787	-0.095
14.840	-0.075
14.888	-0.078
14.923	-0.085
14.953	-0.075
14.988	-0.086
15.032	-0.076
15.080	-0.084
15.136	-0.076
15.197	-0.086
15.259	-0.078
15.315	-0.092
15.376	-0.078
15.429	-0.088
15.477	-0.089
15.516	-0.090
15.551	-0.083
15.581	-0.079
15.616	-0.085
15.651	-0.085
15.699	-0.078
15.752	-0.090
15.808	-0.094
15.869	-0.079
15.935	-0.094
15.992	-0.093
16.048	-0.083
16.101	-0.082
16.149	-0.086
16.201	-0.089
16.253	-0.081
16.301	-0.096
16.354	-0.101
16.397	-0.096
16.454	-0.085
16.502	-0.096
16.554	-0.095
16.602	-0.097
16.646	-0.085
16.681	-0.079
16.725	-0.087
16.760	-0.085
16.786	-0.103
16.812	-0.090
16.842	-0.097
16.877	-0.087
16.917	-0.096
16.947	-0.096
16.978	-0.087
17.008	-0.095
17.043	-0.093
17.078	-0.092
17.122	-0.094
17.165	-0.102
17.209	-0.083
17.261	-0.098
17.318	-0.095
17.366	-0.098
17.410	-0.100
17.453	-0.096
17.501	-0.097
17.545	-0.101
17.597	-0.092
17.645	-0.093
17.693	-0.095
17.737	-0.095
17.781	-0.097
17.820	-0.107
17.859	-0.096
17.898	-0.106
17.933	-0.099
17.968	-0.098
18.007	-0.096
18.038	-0.097
18.064	-0.093
18.086	-0.089
18.103	-0.102
18.125	-0.093
18.151	-0.098
18.178	-0.104
18.204	-0.101
18.230	-0.098
18.252	-0.106
18.282	-0.088
18.322	-0.096
18.361	-0.100
18.391	-0.089
18.418	-0.098
18.444	-0.093
18.470	-0.093
18.500	-0.099
18.531	-0.102
18.562	-0.108
18.596	-0.103
18.640	-0.103
18.688	-0.104
18.736	-0.107
18.780	-0.103
18.828	-0.107
18.871	-0.110
18.915	-0.105
18.963	-0.103
19.002	-0.120
19.037	-0.096
19.068	-0.103
19.094	-0.101
19.111	-0.090
19.133	-0.096
19.155	-0.101
19.172	-0.088
19.181	-0.107
19.194	-0.115
19.216	-0.096
19.247	-0.109
19.277	-0.103
19.303	-0.100
19.334	-0.095
19.369	-0.115
19.399	-0.105
19.430	-0.112
19.460	-0.106
19.495	-0.099
19.526	-0.115
19.561	-0.118
19.591	-0.106
19.622	-0.116
19.652	-0.113
19.687	-0.117
19.718	-0.109
19.757	-0.118
19.805	-0.109
19.857	-0.099
19.910	-0.112
19.958	-0.108
20.001	-0.121
20.041	-0.103
20.076	-0.117
20.106	-0.114
20.132	-0.106
20.159	-0.113
20.180	-0.120
20.207	-0.116
20.228	-0.117
20.259	-0.126
20.289	-0.113
20.324	-0.122
20.355	-0.103
20.390	-0.126
20.425	-0.117
20.464	-0.112
20.503	-0.109
20.543	-0.121
20.586	-0.117
20.634	-0.122
20.691	-0.118
20.748	-0.115
20.809	-0.119
20.861	-0.125
20.913	-0.114
20.966	-0.109
21.009	-0.118
21.049	-0.121
21.092	-0.118
21.145	-0.128
21.193	-0.118
21.241	-0.113
21.293	-0.123
21.345	-0.115
21.398	-0.121
21.450	-0.120
21.494	-0.130
21.542	-0.110
21.594	-0.110
21.651	-0.118
21.708	-0.113
21.764	-0.118
21.817	-0.126
21.869	-0.132
21.917	-0.125
21.965	-0.126
22.009	-0.127
22.052	-0.125
22.092	-0.123
22.140	-0.126
22.183	-0.116
22.218	-0.128
22.253	-0.122
22.288	-0.128
22.323	-0.117
22.353	-0.124
22.388	-0.127
22.423	-0.125
22.462	-0.126
22.497	-0.124
22.532	-0.121
22.576	-0.121
22.615	-0.125
22.654	-0.118
22.694	-0.121
22.729	-0.130
22.759	-0.115
22.790	-0.126
22.816	-0.124
22.842	-0.121
22.864	-0.136
22.886	-0.131
22.912	-0.132
22.938	-0.136
22.964	-0.134
22.986	-0.115
22.999	-0.122
23.012	-0.126
23.030	-0.124
23.043	-0.115
23.065	-0.139
23.086	-0.113
23.104	-0.132
23.117	-0.114
23.130	-0.128
23.147	-0.121
23.169	-0.128
23.187	-0.122
23.209	-0.131
23.230	-0.135
23.252	-0.124
23.278	-0.122
23.305	-0.140
23.326	-0.132
23.357	-0.132
23.387	-0.122
23.418	-0.119
23.448	-0.121
23.479	-0.123
23.514	-0.121
23.549	-0.117
23.584	-0.112
23.614	-0.129
23.640	-0.132
23.671	-0.132
23.702	-0.136
23.732	-0.128
23.763	-0.137
23.793	-0.132
23.824	-0.127
23.859	-0.141
23.898	-0.136
23.933	-0.129
23.968	-0.121
23.998	-0.126
24.029	-0.125
24.055	-0.133
24.081	-0.136
24.112	-0.129
24.147	-0.137
24.177	-0.128
24.216	-0.126
24.247	-0.114
24.269	-0.126
24.295	-0.136
24.317	-0.120
24.339	-0.136
24.365	-0.131
24.395	-0.134
24.422	-0.125
24.452	-0.131
24.478	-0.131
24.509	-0.137
24.531	-0.132
24.557	-0.143
24.596	-0.130
24.631	-0.128
24.662	-0.143
24.696	-0.137
24.727	-0.144
24.757	-0.128
24.788	-0.135
24.819	-0.138
24.853	-0.141
24.884	-0.134
24.915	-0.137
24.949	-0.146
24.984	-0.134
25.024	-0.129
25.059	-0.140
25.098	-0.135
25.137	-0.136
25.185	-0.128
25.237	-0.136
25.281	-0.142
25.320	-0.134
25.360	-0.136
25.390	-0.145
25.434	-0.139
25.473	-0.137
25.512	-0.137
25.552	-0.140
25.595	-0.138
25.635	-0.131
25.687	-0.141
25.748	-0.137
25.813	-0.143
25.888	-0.132
25.962	-0.134
26.036	-0.142
26.097	-0.140
26.145	-0.137
26.184	-0.134
26.215	-0.145
26.232	-0.135
26.250	-0.129
26.267	-0.140
26.293	-0.136
26.320	-0.144
26.350	-0.150
26.385	-0.132
26.429	-0.138
26.468	-0.135
26.507	-0.139
26.551	-0.141
26.594	-0.142
26.642	-0.150
26.690	-0.139
26.738	-0.138
26.786	-0.143
26.834	-0.142
26.874	-0.143
26.913	-0.152
26.948	-0.137
26.978	-0.138
27.005	-0.145
27.026	-0.137
27.048	-0.145
27.070	-0.141
27.096	-0.142
27.122	-0.151
27.153	-0.148
27.188	-0.139
27.223	-0.134
27.253	-0.147
27.288	-0.146
27.327	-0.140
27.367	-0.135
27.402	-0.147
27.441	-0.146
27.480	-0.143
27.519	-0.151
27.554	-0.148
27.594	-0.145
27.633	-0.142
27.677	-0.137
27.725	-0.142
27.773	-0.140
27.825	-0.137
27.877	-0.142
27.925	-0.137
27.969	-0.145
28.008	-0.136
28.047	-0.157
28.082	-0.145
28.113	-0.146
28.139	-0.151
28.157	-0.146
28.178	-0.150
28.205	-0.143
28.231	-0.146
28.266	-0.131
28.296	-0.153
28.331	-0.146
28.370	-0.156
28.418	-0.151
28.466	-0.154
28.527	-0.146
28.593	-0.144
28.663	-0.156
28.737	-0.146
28.802	-0.149
28.859	-0.156
28.907	-0.162
28.942	-0.145
28.977	-0.153
29.012	-0.150
29.042	-0.151
29.068	-0.155
29.103	-0.153
29.134	-0.156
29.164	-0.153
29.199	-0.145
29.234	-0.148
29.278	-0.151
29.322	-0.156
29.365	-0.135
29.409	-0.143
29.457	-0.143
29.509	-0.146
29.557	-0.148
29.610	-0.146
29.658	-0.142
29.706	-0.146
29.749	-0.142
29.801	-0.153
29.849	-0.143
29.897	-0.137
29.945	-0.156
29.980	-0.147
30.020	-0.138
30.055	-0.144
30.081	-0.146
30.103	-0.153
30.129	-0.148
30.155	-0.147
30.177	-0.152
30.203	-0.146
30.225	-0.140
30.247	-0.150
30.273	-0.143
30.299	-0.159
30.316	-0.160
30.329	-0.133
30.347	-0.150
30.364	-0.146
30.386	-0.140
30.417	-0.142
30.452	-0.167
30.491	-0.144
30.526	-0.145
30.556	-0.150
30.587	-0.153
30.617	-0.160
30.648	-0.158
30.674	-0.160
30.705	-0.158
30.731	-0.145
30.757	-0.159
30.775	-0.151
30.792	-0.166
30.809	-0.156
30.827	-0.156
30.844	-0.157
30.866	-0.157
30.892	-0.153
30.914	-0.156
30.936	-0.155
30.958	-0.146
30.984	-0.157
31.015	-0.149
31.049	-0.154
31.084	-0.149
31.119	-0.151
31.154	-0.149
31.189	-0.145
31.228	-0.156
31.268	-0.166
31.307	-0.155
31.350	-0.159
31.398	-0.158
31.446	-0.151
31.499	-0.156
31.556	-0.167
31.617	-0.142
31.673	-0.143
31.739	-0.153
31.796	-0.156
31.848	-0.161
31.905	-0.167
31.953	-0.159
32.005	-0.163
32.049	-0.155
32.097	-0.161
32.153	-0.153
32.210	-0.166
32.267	-0.155
32.306	-0.159
32.337	-0.164
32.371	-0.157
32.415	-0.153
32.459	-0.156
32.502	-0.159
32.550	-0.151
32.598	-0.163
32.646	-0.156
32.694	-0.155
32.734	-0.151
32.773	-0.154
32.812	-0.152
32.847	-0.161
32.886	-0.154
32.926	-0.161
32.965	-0.156
33.013	-0.148
33.070	-0.152
33.126	-0.157
33.174	-0.142
33.227	-0.162
33.279	-0.149
33.331	-0.160
33.384	-0.159
33.432	-0.153
33.475	-0.153
33.510	-0.150
33.554	-0.164
33.589	-0.158
33.624	-0.161
33.650	-0.156
33.676	-0.156
33.711	-0.152
33.755	-0.145
33.807	-0.156
33.864	-0.157
33.925	-0.148
33.982	-0.151
34.038	-0.148
34.099	-0.169
34.160	-0.143
34.222	-0.150
34.287	-0.150
34.344	-0.161
34.400	-0.157
34.457	-0.156
34.518	-0.152
34.571	-0.156
34.619	-0.157
34.658	-0.161
34.693	-0.153
34.736	-0.156
34.789	-0.164
34.837	-0.154
34.885	-0.156
34.933	-0.166
34.976	-0.157
35.024	-0.156
35.072	-0.160
35.120	-0.161
35.168	-0.156
35.208	-0.152
35.251	-0.161
35.291	-0.154
35.325	-0.157
35.356	-0.166
35.387	-0.162
35.413	-0.146
35.439	-0.159
35.461	-0.154
35.487	-0.157
35.504	-0.159
35.517	-0.145
35.535	-0.160
35.552	-0.155
35.565	-0.155
35.579	-0.151
35.592	-0.157
35.600	-0.151
35.605	-0.161
35.605	-0.146
35.609	-0.154
35.613	-0.154
35.622	-0.168
35.635	-0.146
35.648	-0.149
35.661	-0.162
35.679	-0.153
35.701	-0.154
35.736	-0.157
35.775	-0.153
35.814	-0.165
35.849	-0.161
35.884	-0.155
35.915	-0.163
35.949	-0.153
35.984	-0.162
36.024	-0.156
36.063	-0.157
36.098	-0.156
36.133	-0.156
36.168	-0.155
36.207	-0.151
36.246	-0.156
36.294	-0.156
36.346	-0.152
36.403	-0.148
36.451	-0.153
36.499	-0.155
36.543	-0.155
36.582	-0.159
36.608	-0.167
36.634	-0.162
36.665	-0.145
36.687	-0.164
36.704	-0.156
36.726	-0.153
36.748	-0.161
36.770	-0.156
36.787	-0.157
36.809	-0.156
36.831	-0.159
36.857	-0.151
36.892	-0.166
36.940	-0.162
37.001	-0.154
37.066	-0.165
37.132	-0.151
37.193	-0.153
37.245	-0.162
37.293	-0.146
37.337	-0.161
37.367	-0.161
37.398	-0.167
37.420	-0.167
37.450	-0.161
37.490	-0.157
37.546	-0.162
37.616	-0.142
37.682	-0.151
37.751	-0.153
37.821	-0.161
37.891	-0.156
37.961	-0.162
38.031	-0.152
38.105	-0.165
38.162	-0.151
38.214	-0.165
38.262	-0.170
38.306	-0.156
38.349	-0.153
38.397	-0.162
38.450	-0.168
38.493	-0.156
38.537	-0.167
38.581	-0.153
38.624	-0.165
38.672	-0.160
38.729	-0.165
38.786	-0.161
38.851	-0.148
38.916	-0.151
38.982	-0.152
39.056	-0.149
39.130	-0.159
39.200	-0.154
39.261	-0.152
39.322	-0.168
39.375	-0.153
39.418	-0.153
39.458	-0.162
39.501	-0.155
39.540	-0.152
39.575	-0.156
39.615	-0.146
39.663	-0.145
39.711	-0.161
39.763	-0.153
39.824	-0.142
39.898	-0.145
39.977	-0.142
40.060	-0.165
40.147	-0.156
40.243	-0.155
40.326	-0.162
40.396	-0.154
40.457	-0.153
40.505	-0.160
40.557	-0.161
40.623	-0.151
40.688	-0.153
40.753	-0.158
40.819	-0.154
40.876	-0.156
40.932	-0.148
41.002	-0.147
41.081	-0.154
41.164	-0.155
41.251	-0.156
41.334	-0.154
41.412	-0.155
41.478	-0.154
41.530	-0.161
41.569	-0.142
41.604	-0.161
41.626	-0.154
41.639	-0.155
41.661	-0.157
41.678	-0.149
41.700	-0.156
41.726	-0.156
41.753	-0.162
41.770	-0.157
41.783	-0.169
41.796	-0.156
41.809	-0.151
41.827	-0.165
41.844	-0.161
41.870	-0.148
41.901	-0.150
41.936	-0.153
41.971	-0.151
42.001	-0.156
42.032	-0.158
42.067	-0.166
42.106	-0.151
42.154	-0.151
42.202	-0.156
42.241	-0.152
42.285	-0.155
42.329	-0.154
42.381	-0.148
42.429	-0.163
42.468	-0.153
42.507	-0.152
42.538	-0.149
42.569	-0.156
42.599	-0.154
42.634	-0.150
42.669	-0.142
42.704	-0.159
42.739	-0.159
42.778	-0.168
42.817	-0.156
42.848	-0.156
42.883	-0.167
42.913	-0.170
42.944	-0.159
42.987	-0.161
43.035	-0.156
43.092	-0.167
43.153	-0.154
43.214	-0.156
43.280	-0.158
43.350	-0.167
43.411	-0.158
43.476	-0.156
43.537	-0.161
43.598	-0.142
43.651	-0.161
43.699	-0.151
43.751	-0.154
43.799	-0.159
43.843	-0.163
43.895	-0.155
43.956	-0.147
44.013	-0.170
44.070	-0.161
44.135	-0.156
44.209	-0.156
44.283	-0.153
44.358	-0.154
44.432	-0.154
44.493	-0.161
44.541	-0.154
44.593	-0.159
44.646	-0.162
44.689	-0.163
44.728	-0.150
44.759	-0.153
44.794	-0.156
44.824	-0.162
44.864	-0.155
44.894	-0.160
44.925	-0.156
44.942	-0.150
44.964	-0.153
44.990	-0.154
45.029	-0.157
45.077	-0.161
45.134	-0.155
45.187	-0.154
45.230	-0.145
45.265	-0.150
45.300	-0.148
45.331	-0.151
45.361	-0.149
45.383	-0.145
45.400	-0.152
45.418	-0.149
45.440	-0.153
45.475	-0.142
45.518	-0.150
45.562	-0.150
45.592	-0.147
45.627	-0.157
45.658	-0.150
45.684	-0.146
45.710	-0.153
45.736	-0.151
45.763	-0.146
45.797	-0.151
45.837	-0.151
45.876	-0.136
45.911	-0.148
45.955	-0.146
45.998	-0.137
46.037	-0.158
46.085	-0.144
46.133	-0.140
46.186	-0.148
46.234	-0.156
46.282	-0.142
46.325	-0.150
46.365	-0.153
46.408	-0.151
46.452	-0.132
46.491	-0.137
46.530	-0.139
46.561	-0.147
46.592	-0.157
46.626	-0.137
46.653	-0.142
46.679	-0.141
46.705	-0.137
46.722	-0.142
46.744	-0.137
46.766	-0.146
46.797	-0.140
46.832	-0.143
46.866	-0.142
46.897	-0.137
46.919	-0.148
46.941	-0.142
46.958	-0.146
46.971	-0.137
46.984	-0.137
47.002	-0.139
47.015	-0.147
47.028	-0.146
47.045	-0.141
47.067	-0.131
47.093	-0.147
47.115	-0.134
47.146	-0.140
47.172	-0.132
47.198	-0.133
47.229	-0.133
47.259	-0.143
47.290	-0.132
47.320	-0.142
47.355	-0.145
47.390	-0.137
47.416	-0.134
47.442	-0.126
47.464	-0.128
47.486	-0.127
47.499	-0.138
47.517	-0.140
47.530	-0.130
47.543	-0.129
47.551	-0.145
47.551	-0.143
47.556	-0.141
47.560	-0.115
47.565	-0.128
47.582	-0.123
47.604	-0.128
47.621	-0.126
47.647	-0.137
47.678	-0.131
47.717	-0.119
47.765	-0.123
47.813	-0.127
47.853	-0.126
47.892	-0.131
47.935	-0.129
47.975	-0.119
48.023	-0.123
48.079	-0.123
48.136	-0.112
48.180	-0.126
48.228	-0.123
48.271	-0.134
48.311	-0.128
48.359	-0.137
48.411	-0.119
48.463	-0.118
48.520	-0.123
48.581	-0.121
48.629	-0.126
48.682	-0.128
48.734	-0.134
48.778	-0.124
48.826	-0.123
48.869	-0.125
48.908	-0.133
48.952	-0.129
48.996	-0.109
49.044	-0.115
49.096	-0.117
49.148	-0.126
49.201	-0.127
49.258	-0.129
49.310	-0.131
49.349	-0.122
49.393	-0.126
49.436	-0.131
49.476	-0.123
49.519	-0.115
49.572	-0.123
49.628	-0.134
49.681	-0.121
49.742	-0.128
49.799	-0.125
49.855	-0.123
49.903	-0.126
49.947	-0.126
49.986	-0.118
50.021	-0.124
50.060	-0.114
50.091	-0.117
50.108	-0.110
50.126	-0.126
50.139	-0.123
50.156	-0.114
50.178	-0.128
50.204	-0.103
50.231	-0.134
50.252	-0.120
50.279	-0.123
50.309	-0.107
50.344	-0.125
50.388	-0.118
50.423	-0.124
50.462	-0.117
50.497	-0.112
50.536	-0.117
50.575	-0.129
50.615	-0.124
50.658	-0.118
50.702	-0.112
50.754	-0.111
50.820	-0.125
50.898	-0.114
50.977	-0.112
51.060	-0.111
51.138	-0.106
51.212	-0.115
51.282	-0.119
51.348	-0.126
51.409	-0.117
51.465	-0.115
51.522	-0.124
51.574	-0.099
51.622	-0.117
51.670	-0.127
51.714	-0.129
51.753	-0.123
51.793	-0.130
51.823	-0.112
51.845	-0.117
51.858	-0.115
51.867	-0.113
51.876	-0.126
51.889	-0.112
51.910	-0.111
51.945	-0.113
51.985	-0.109
52.024	-0.116
52.059	-0.116
52.098	-0.114
52.137	-0.118
52.177	-0.107
52.229	-0.106
52.286	-0.109
52.347	-0.107
52.412	-0.112
52.473	-0.111
52.534	-0.111
52.582	-0.107
52.630	-0.114
52.678	-0.107
52.726	-0.117
52.761	-0.115
52.801	-0.108
52.835	-0.118
52.870	-0.106
52.914	-0.115
52.958	-0.115
52.997	-0.120
53.036	-0.112
53.084	-0.118
53.123	-0.114
53.154	-0.117
53.185	-0.098
53.215	-0.110
53.241	-0.110
53.276	-0.111
53.311	-0.110
53.342	-0.117
53.377	-0.115
53.403	-0.108
53.438	-0.110
53.473	-0.117
53.512	-0.114
53.551	-0.123
53.595	-0.106
53.643	-0.106
53.699	-0.119
53.752	-0.111
53.809	-0.109
53.865	-0.121
53.913	-0.118
53.961	-0.117
54.009	-0.118
54.066	-0.111
54.114	-0.102
54.171	-0.115
54.219	-0.113
54.267	-0.126
54.315	-0.110
54.363	-0.107
54.415	-0.122
54.459	-0.107
54.494	-0.112
54.533	-0.112
54.572	-0.104
54.607	-0.110
54.646	-0.106
54.686	-0.117
54.725	-0.123
54.764	-0.107
54.816	-0.102
54.873	-0.114
54.930	-0.107
54.982	-0.119
55.035	-0.109
55.091	-0.101
55.135	-0.103
55.179	-0.113
55.227	-0.112
55.266	-0.115
55.314	-0.098
55.362	-0.112
55.414	-0.109
55.458	-0.102
55.506	-0.109
55.554	-0.110
55.602	-0.117
55.645	-0.110
55.680	-0.108
55.707	-0.111
55.728	-0.106
55.755	-0.107
55.785	-0.107
55.820	-0.096
55.851	-0.095
55.872	-0.103
55.903	-0.099
55.942	-0.096
55.990	-0.098
56.038	-0.102
56.073	-0.109
56.117	-0.103
56.165	-0.114
56.213	-0.103
56.256	-0.098
56.309	-0.098
56.357	-0.101
56.405	-0.109
56.444	-0.094
56.474	-0.103
56.509	-0.096
56.544	-0.092
56.579	-0.087
56.605	-0.099
56.632	-0.108
56.653	-0.101
56.671	-0.101
56.701	-0.112
56.723	-0.090
56.758	-0.089
56.789	-0.096
56.824	-0.091
56.863	-0.098
56.898	-0.095
56.941	-0.091
56.972	-0.101
57.002	-0.099
57.029	-0.106
57.050	-0.105
57.077	-0.107
57.107	-0.095
57.142	-0.098
57.177	-0.092
57.208	-0.092
57.242	-0.103
57.282	-0.103
57.321	-0.093
57.365	-0.101
57.404	-0.100
57.443	-0.096
57.474	-0.085
57.504	-0.106
57.539	-0.082
57.565	-0.096
57.587	-0.093
57.609	-0.095
57.639	-0.099
57.670	-0.096
57.701	-0.096
57.731	-0.105
57.762	-0.090
57.792	-0.099
57.818	-0.083
57.845	-0.092
57.875	-0.092
57.906	-0.082
57.936	-0.092
57.967	-0.092
57.997	-0.097
58.028	-0.082
58.058	-0.093
58.102	-0.089
58.150	-0.090
58.202	-0.089
58.259	-0.089
58.325	-0.079
58.386	-0.087
58.438	-0.100
58.486	-0.103
58.538	-0.099
58.608	-0.095
58.682	-0.089
58.748	-0.095
58.809	-0.089
58.866	-0.088
58.918	-0.088
58.962	-0.097
58.996	-0.088
59.036	-0.090
59.066	-0.094
59.097	-0.085
59.127	-0.108
59.162	-0.098
59.197	-0.090
59.223	-0.088
59.236	-0.096
59.245	-0.089
59.263	-0.094
59.280	-0.078
59.311	-0.084
59.341	-0.087
59.372	-0.095
59.402	-0.084
59.424	-0.087
59.450	-0.079
59.472	-0.079
59.498	-0.082
59.529	-0.089
59.559	-0.091
59.586	-0.098
59.599	-0.100
59.607	-0.082
59.616	-0.081
59.625	-0.081
59.642	-0.096
59.673	-0.079
59.708	-0.093
59.756	-0.092
59.804	-0.085
59.852	-0.097
59.904	-0.086
59.952	-0.081
59.996	-0.090
60.044	-0.087
60.092	-0.092
60.131	-0.085
60.166	-0.081
60.196	-0.094
60.227	-0.087
60.257	-0.094
60.292	-0.086
60.327	-0.088
60.362	-0.086
60.397	-0.078
60.436	-0.095
60.484	-0.079
60.524	-0.092
60.576	-0.085
60.633	-0.084
60.685	-0.073
60.729	-0.089
60.759	-0.089
60.790	-0.090
60.816	-0.092
60.851	-0.079
60.886	-0.087
60.925	-0.082
60.956	-0.085
60.977	-0.085
60.999	-0.088
61.021	-0.078
61.047	-0.086
61.069	-0.081
61.091	-0.085
61.117	-0.078
61.148	-0.093
61.187	-0.079
61.226	-0.073
61.265	-0.083
61.296	-0.078
61.335	-0.072
61.383	-0.078
61.440	-0.062
61.488	-0.081
61.527	-0.067
61.566	-0.078
61.601	-0.074
61.628	-0.069
61.658	-0.089
61.693	-0.079
61.732	-0.067
61.776	-0.062
61.820	-0.075
61.868	-0.084
61.920	-0.086
61.972	-0.067
62.025	-0.089
62.081	-0.071
62.142	-0.067
62.208	-0.087
62.269	-0.071
62.339	-0.068
62.404	-0.070
62.444	-0.057
62.470	-0.072
62.483	-0.080
62.492	-0.069
62.496	-0.070
62.500	-0.062
62.513	-0.066
62.522	-0.055
62.540	-0.055
62.561	-0.071
62.596	-0.078
62.631	-0.067
62.666	-0.069
62.701	-0.067
62.740	-0.066
62.771	-0.070
62.801	-0.076
62.836	-0.075
62.875	-0.068
62.915	-0.059
62.945	-0.074
62.976	-0.062
63.002	-0.065
63.033	-0.056
63.063	-0.065
63.089	-0.071
63.115	-0.054
63.142	-0.064
63.172	-0.074
63.203	-0.057
63.233	-0.062
63.264	-0.053
63.294	-0.068
63.325	-0.065
63.351	-0.065
63.382	-0.066
63.403	-0.054
63.417	-0.066
63.425	-0.047
63.438	-0.067
63.451	-0.049
63.478	-0.063
63.508	-0.072
63.534	-0.056
63.565	-0.065
63.595	-0.063
63.622	-0.062
63.648	-0.070
63.670	-0.071
63.691	-0.059
63.709	-0.058
63.722	-0.059
63.735	-0.057
63.748	-0.045
63.761	-0.064
63.779	-0.057
63.792	-0.059
63.814	-0.062
63.835	-0.048
63.857	-0.064
63.875	-0.058
63.892	-0.062
63.914	-0.065
63.931	-0.059
63.953	-0.049
63.975	-0.059
64.001	-0.066
64.027	-0.057
64.054	-0.074
64.088	-0.047
64.128	-0.045
64.163	-0.057
64.202	-0.048
64.241	-0.055
64.285	-0.054
64.324	-0.060
64.368	-0.053
64.411	-0.056
64.446	-0.057
64.477	-0.060
64.512	-0.053
64.547	-0.042
64.573	-0.049
64.599	-0.039
64.616	-0.062
64.630	-0.037
64.630	-0.049
64.634	-0.052
64.638	-0.048
64.651	-0.051
64.660	-0.049
64.669	-0.050
64.678	-0.062
64.691	-0.048
64.712	-0.047
64.739	-0.046
64.769	-0.051
64.804	-0.057
64.848	-0.056
64.887	-0.056
64.926	-0.057
64.974	-0.059
65.018	-0.061
65.066	-0.053
65.105	-0.051
65.140	-0.049
65.171	-0.052
65.197	-0.048
65.223	-0.046
65.240	-0.054
65.245	-0.043
65.245	-0.040
65.245	-0.053
65.245	-0.051
65.245	-0.052
65.245	-0.043
65.245	-0.052
65.245	-0.048
65.245	-0.057
65.245	-0.034
65.245	-0.049
65.245	-0.058
65.245	-0.050
65.245	-0.038
65.245	-0.045
65.245	-0.043
65.245	-0.043
65.249	-0.042
65.249	-0.043
65.249	-0.035
65.249	-0.046
65.249	-0.045
65.249	-0.043
65.249	-0.037
65.249	-0.038
65.253	-0.043
65.253	-0.043
65.258	-0.047
65.262	-0.041
65.271	-0.046
65.284	-0.047
65.306	-0.040
65.315	-0.053
65.323	-0.049
65.328	-0.047
65.341	-0.048
65.358	-0.053
65.380	-0.047
65.397	-0.052
65.406	-0.039
65.424	-0.056
65.441	-0.042
65.463	-0.046
65.485	-0.044
65.507	-0.053
65.524	-0.038
65.533	-0.049
65.537	-0.049
65.537	-0.054
65.541	-0.040
65.546	-0.037
65.559	-0.047
65.568	-0.036
65.576	-0.041
65.585	-0.037
65.598	-0.046
65.616	-0.043
65.629	-0.039
65.642	-0.037
65.659	-0.034
65.672	-0.044
65.685	-0.054
65.703	-0.034
65.725	-0.031
65.751	-0.032
65.781	-0.043
65.816	-0.041
65.851	-0.031
65.886	-0.029
65.917	-0.038
65.939	-0.038
65.956	-0.037
65.969	-0.042
65.973	-0.033
65.973	-0.031
65.973	-0.034
65.978	-0.042
65.982	-0.035
65.995	-0.034
66.013	-0.029
66.030	-0.034
66.048	-0.046
66.074	-0.027
66.096	-0.037
66.122	-0.048
66.148	-0.040
66.174	-0.037
66.200	-0.037
66.222	-0.043
66.240	-0.032
66.253	-0.036
66.266	-0.026
66.283	-0.032
66.301	-0.038
66.323	-0.027
66.340	-0.033
66.357	-0.036
66.371	-0.034
66.388	-0.036
66.410	-0.041
66.436	-0.040
66.462	-0.044
66.488	-0.038
66.519	-0.029
66.549	-0.048
66.580	-0.029
66.624	-0.039
66.658	-0.033
66.685	-0.037
66.706	-0.038
66.728	-0.031
66.746	-0.043
66.763	-0.049
66.781	-0.037
66.794	-0.031
66.798	-0.027
66.802	-0.031
66.807	-0.029
66.807	-0.021
66.807	-0.036
66.811	-0.033
66.811	-0.032
66.816	-0.029
66.824	-0.027
66.833	-0.030
66.846	-0.021
66.859	-0.028
66.885	-0.026
66.916	-0.029
66.951	-0.028
66.986	-0.031
67.021	-0.012
67.060	-0.002
67.104	-0.008
67.138	-0.010
67.173	-0.008
67.204	0.008
67.234	0.010
67.256	0.005
67.274	0.018
67.291	0.015
67.300	0.019
67.309	0.013
67.313	0.021
67.322	0.029
67.330	0.051
67.335	0.037
67.339	0.040
67.348	0.035
67.357	0.042
67.365	0.046
67.378	0.045
67.392	0.049
67.405	0.051
67.413	0.056
67.426	0.061
67.440	0.052
67.457	0.061
67.479	0.071
67.501	0.078
67.522	0.066
67.549	0.093
67.570	0.088
67.588	0.102
67.601	0.101
67.614	0.119
67.623	0.107
67.636	0.109
67.653	0.115
67.675	0.129
67.706	0.135
67.741	0.133
67.784	0.145
67.828	0.163
67.871	0.163
67.919	0.195
67.963	0.204
68.007	0.221
68.050	0.242
68.090	0.275
68.129	0.291
68.164	0.334
68.190	0.354
68.212	0.383
68.229	0.419
68.238	0.436
68.247	0.451
68.251	0.476
68.260	0.469
68.269	0.477
68.273	0.504
68.282	0.500
68.290	0.522
68.308	0.529
68.334	0.539
68.369	0.548
68.399	0.578
68.434	0.606
68.469	0.629
68.513	0.671
68.561	0.706
68.609	0.749
68.648	0.800
68.692	0.855
68.735	0.923
68.779	0.989
68.823	1.056
68.866	1.111
68.897	1.189
68.919	1.238
68.936	1.292
68.949	1.348
68.958	1.395
68.967	1.433
68.971	1.443
68.980	1.487
68.989	1.483
69.002	1.529
69.019	1.563
69.041	1.586
69.067	1.629
69.093	1.657
69.119	1.695
69.146	1.720
69.172	1.771
69.194	1.818
69.215	1.857
69.233	1.916
69.246	1.962
69.255	2.003
69.263	2.026
69.268	2.055
69.272	2.078
69.276	2.092
69.290	2.127
69.307	2.144
69.329	2.181
69.342	2.210
69.359	2.247
69.372	2.261
69.390	2.297
69.412	2.323
69.434	2.359
69.451	2.398
69.468	2.424
69.477	2.443
69.482	2.454
69.490	2.482
69.499	2.491
69.503	2.503
69.512	2.522
69.525	2.549
69.534	2.574
69.547	2.568
69.560	2.595
69.569	2.615
69.578	2.633
69.586	2.647
69.591	2.672
69.591	2.698
69.595	2.702
69.595	2.716
69.599	2.734
69.599	2.738
69.604	2.751
69.617	2.768
69.634	2.770
69.652	2.761
69.678	2.797
69.704	2.803
69.730	2.822
69.756	2.828
69.778	2.849
69.791	2.847
69.804	2.860
69.818	2.863
69.835	2.879
69.857	2.878
69.879	2.893
69.896	2.915
69.909	2.922
69.922	2.927
69.935	2.921
69.948	2.931
69.962	2.949
69.979	2.951
70.005	2.959
70.036	2.938
70.071	2.946
70.114	2.931
70.162	2.920
70.206	2.896
70.241	2.881
70.276	2.851
70.302	2.823
70.319	2.788
70.332	2.744
70.345	2.719
70.359	2.701
70.367	2.686
70.372	2.683
70.376	2.672
70.380	2.663
70.385	2.645
70.385	2.644
70.389	2.633
70.389	2.628
70.393	2.623
70.398	2.622
70.402	2.600
70.411	2.600
70.420	2.609
70.420	2.595
70.420	2.585
70.420	2.572
70.420	2.571
70.420	2.570
70.424	2.566
70.437	2.561
70.446	2.546
70.459	2.537
70.463	2.536
70.472	2.512
70.476	2.492
70.489	2.488
70.507	2.467
70.520	2.461
70.542	2.451
70.568	2.424
70.599	2.394
70.629	2.359
70.660	2.319
70.690	2.297
70.725	2.241
70.773	2.186
70.817	2.130
70.856	2.048
70.895	1.992
70.935	1.923
70.974	1.846
71.004	1.788
71.022	1.735
71.044	1.678
71.065	1.629
71.092	1.591
71.122	1.540
71.161	1.504
71.201	1.437
71.231	1.406
71.253	1.360
71.279	1.331
71.301	1.288
71.319	1.238
71.332	1.218
71.349	1.191
71.367	1.168
71.393	1.141
71.419	1.107
71.445	1.081
71.471	1.062
71.489	1.036
71.506	1.006
71.524	0.983
71.545	0.954
71.572	0.931
71.593	0.905
71.615	0.891
71.637	0.866
71.654	0.856
71.668	0.838
71.676	0.823
71.685	0.812
71.689	0.790
71.694	0.773
71.702	0.785
71.711	0.758
71.729	0.752
71.746	0.747
71.772	0.729
71.803	0.716
71.838	0.710
71.873	0.684
71.912	0.668
71.947	0.643
71.982	0.618
72.017	0.605
72.047	0.587
72.082	0.569
72.121	0.548
72.156	0.532
72.196	0.519
72.235	0.488
72.270	0.472
72.305	0.473
72.340	0.446
72.366	0.428
72.388	0.399
72.409	0.408
72.431	0.375
72.444	0.379
72.457	0.366
72.484	0.349
72.510	0.345
72.523	0.331
72.532	0.328
72.545	0.323
72.558	0.317
72.571	0.313
72.580	0.298
72.593	0.305
72.606	0.294
72.623	0.294
72.645	0.277
72.662	0.291
72.680	0.266
72.702	0.276
72.724	0.258
72.750	0.258
72.780	0.255
72.806	0.247
72.828	0.225
72.846	0.228
72.863	0.223
72.885	0.222
72.907	0.209
72.929	0.211
72.955	0.201
72.968	0.201
72.977	0.190
72.985	0.187
72.994	0.181
72.998	0.179
73.007	0.181
73.011	0.184
73.016	0.168
73.025	0.168
73.029	0.188
73.042	0.168
73.055	0.165
73.068	0.178
73.077	0.176
73.090	0.164
73.107	0.161
73.129	0.155
73.155	0.157
73.177	0.149
73.199	0.145
73.225	0.157
73.251	0.145
73.278	0.135
73.299	0.129
73.317	0.123
73.326	0.126
73.334	0.125
73.339	0.123
73.343	0.125
73.347	0.118
73.352	0.121
73.352	0.126
73.356	0.118
73.361	0.119
73.365	0.119
73.374	0.099
73.378	0.107
73.387	0.112
73.395	0.109
73.404	0.107
73.417	0.095
73.422	0.105
73.422	0.106
73.426	0.105
73.430	0.100
73.430	0.101
73.430	0.115
73.430	0.098
73.430	0.092
73.430	0.098
73.435	0.110
73.435	0.107
73.435	0.109
73.439	0.088
73.443	0.098
73.457	0.092
73.474	0.092
73.487	0.091
73.500	0.103
73.509	0.089
73.518	0.099
73.522	0.089
73.531	0.088
73.539	0.085
73.544	0.074
73.553	0.094
73.557	0.076
73.566	0.084
73.574	0.075
73.583	0.079
73.592	0.085
73.601	0.083
73.605	0.070
73.605	0.082
73.609	0.094
73.609	0.078
73.614	0.081
73.622	0.085
73.631	0.086
73.640	0.069
73.653	0.075
73.653	0.078
73.657	0.073
73.662	0.066
73.666	0.068
73.666	0.084
73.666	0.072
73.666	0.068
73.670	0.070
73.670	0.076
73.679	0.074
73.683	0.074
73.683	0.076
73.683	0.068
73.683	0.066
73.683	0.071
73.688	0.067
73.688	0.060
73.697	0.060
73.705	0.068
73.714	0.059
73.718	0.074
73.718	0.064
73.718	0.067
73.718	0.070
73.718	0.067
73.718	0.065
73.718	0.067
73.718	0.064
73.718	0.065
73.718	0.060
73.718	0.058
73.718	0.060
73.718	0.063
73.718	0.061
73.718	0.060
73.723	0.055
73.723	0.059
73.727	0.073
73.727	0.076
73.731	0.068
73.736	0.063
73.740	0.066
73.762	0.071
73.788	0.062
73.823	0.070
73.854	0.062
73.889	0.059
73.923	0.058
73.963	0.051
73.993	0.049
74.028	0.060
74.059	0.053
74.089	0.054
74.115	0.042
74.137	0.042
74.168	0.043
74.198	0.037
74.233	0.038
74.264	0.038
74.299	0.042
74.334	0.028
74.364	0.031
74.395	0.034
74.425	0.025
74.447	0.025
74.469	0.021
74.491	0.027
74.508	0.015
74.526	0.024
74.543	0.023
74.560	0.023
74.587	0.013
74.608	0.008
74.639	0.012
74.665	0.010
74.691	0.018
74.713	0.022
74.739	0.016
74.761	0.015
74.792	0.010
74.827	0.013
74.857	0.017
74.892	0.011
74.927	-0.005
74.962	0.004
74.992	0.007
75.010	0.002
75.027	0.009
75.045	0.010
75.062	0.008
75.080	0.008
75.106	0.007
75.136	0.012
75.167	-0.009
75.198	-0.017
75.224	-0.008
75.254	0.000
75.280	-0.012
75.307	-0.013
75.328	-0.002
75.346	-0.012
75.355	0.004
75.363	0.005
75.376	0.003
75.389	-0.007
75.403	-0.009
75.424	6.104E-4
75.446	0.002
75.468	0.006
75.494	-0.014
75.525	-0.010
75.555	-0.008
75.586	-0.009
75.621	-0.020
75.656	-0.011
75.682	-0.018
75.712	-0.016
75.743	-0.011
75.773	-0.018
75.804	-0.013
75.839	-0.014
75.874	-0.004
75.904	-0.020
75.939	-0.014
75.974	-0.010
76.013	-0.013
76.057	-0.021
76.092	-0.020
76.127	-0.018
76.166	-0.012
76.201	-0.012
76.240	-0.015
76.284	-0.024
76.328	-0.017
76.363	-0.029
76.397	-0.027
76.432	-0.018
76.459	-0.034
76.480	-0.027
76.498	-0.022
76.511	-0.015
76.533	-0.030
76.559	-0.022
76.594	-0.016
76.629	-0.024
76.664	-0.022
76.703	-0.020
76.742	-0.019
76.781	-0.032
76.816	-0.019
76.847	-0.021
76.877	-0.033
76.912	-0.028
76.952	-0.013
77.000	-0.026
77.048	-0.029
77.096	-0.029
77.139	-0.031
77.183	-0.019
77.231	-0.026
77.274	-0.035
77.314	-0.035
77.353	-0.036
77.388	-0.034
77.427	-0.025
77.462	-0.027
77.501	-0.023
77.536	-0.027
77.580	-0.023
77.624	-0.029
77.663	-0.032
77.698	-0.036
77.737	-0.029
77.781	-0.024
77.824	-0.032
77.872	-0.038
77.925	-0.037
77.959	-0.040
77.973	-0.034
77.981	-0.035
77.986	-0.019
77.990	-0.026
77.990	-0.030
77.994	-0.036
77.994	-0.023
77.994	-0.034
77.994	-0.031
77.994	-0.035
77.994	-0.024
77.999	-0.020
78.012	-0.029
78.021	-0.046
78.034	-0.034
78.051	-0.038
78.077	-0.031
78.095	-0.037
78.108	-0.035
78.121	-0.040
78.134	-0.040
78.143	-0.039
78.147	-0.038
78.151	-0.027
78.156	-0.037
78.165	-0.029
78.173	-0.027
78.191	-0.034
78.221	-0.029
78.252	-0.036
78.282	-0.032
78.322	-0.038
78.365	-0.034
78.409	-0.027
78.453	-0.018
78.501	-0.038
78.557	-0.028
78.614	-0.020
78.679	-0.024
78.745	-0.037
78.806	-0.046
78.867	-0.029
78.933	-0.029
78.994	-0.028
79.055	-0.026
79.116	-0.034
79.172	-0.034
79.229	-0.023
79.277	-0.033
79.330	-0.020
79.386	-0.032
79.443	-0.037
79.508	-0.028
79.583	-0.015
79.657	-0.028
79.735	-0.032
79.818	-0.031
79.897	-0.023
79.967	-0.027
80.032	-0.029
80.102	-0.024
80.172	-0.026
80.228	-0.024
80.285	-0.033
80.333	-0.034
80.368	-0.023
80.399	-0.019
80.429	-0.026
80.473	-0.018
80.516	-0.027
80.556	-0.023
80.595	-0.040
80.639	-0.032
80.682	-0.024
80.726	-0.028
80.774	-0.034
80.822	-0.021
80.874	-0.023
80.931	-0.014
80.988	-0.022
81.049	-0.033
81.105	-0.031
81.167	-0.026
81.223	-0.018
81.284	-0.015
81.341	-0.019
81.407	-0.029
81.472	-0.037
81.546	-0.020
81.625	-0.031
81.708	-0.022
81.795	-0.040
81.878	-0.029
81.956	-0.027
82.030	-0.030
82.109	-0.033
82.183	-0.024
82.253	-0.019
82.318	-0.021
82.375	-0.016
82.428	-0.025
82.467	-0.023
82.502	-0.020
82.541	-0.020
82.576	-0.021
82.606	-0.039
82.637	-0.024
82.672	-0.022
82.711	-0.027
82.746	-0.029
82.790	-0.027
82.846	-0.024
82.908	-0.023
82.947	-0.024
82.947	-0.033
82.947	-0.021
82.947	-0.020
82.947	-0.029
82.947	-0.017
82.947	-0.027
82.947	-0.021
82.947	-0.031
82.947	-0.020
82.947	-0.014
82.947	-0.031
82.951	-0.024
82.951	-0.020
82.951	-0.015
82.951	-0.029
82.947	-0.012
82.947	-0.015
82.942	-0.031
82.938	-0.024
82.938	-0.029
82.938	-0.018
82.938	-0.025
82.938	-0.012
82.938	-0.015
82.938	-0.024
82.934	-0.024
82.929	-0.026
82.934	-0.020
82.934	-0.026
82.929	-0.018
82.929	-0.019
82.929	-0.027
82.929	-0.019
82.929	-0.026
82.929	-0.020
82.929	-0.016
82.929	-0.027
82.929	-0.026
82.929	-0.024
82.929	-0.016
82.929	-0.020
82.929	-0.025
82.929	-0.009
82.929	-0.023
82.929	-0.019
82.929	-0.039
82.929	-0.016
82.929	-0.021
82.929	-0.023
82.929	-0.022
82.929	-0.007
82.929	-0.007
82.929	-0.016
82.929	-0.018
82.929	-0.027
82.929	-0.016
82.929	-0.024
82.929	-0.029
82.929	-0.022
82.929	-0.022
82.925	-0.015
82.925	-0.018
82.925	-0.024
82.925	-0.032
82.925	-0.016
82.925	-0.017
82.925	-0.029
82.925	-0.031
82.925	-0.023
82.925	-0.029
82.925	-0.028
82.925	-0.040
82.925	-0.031
82.925	-0.028
82.925	-0.035
82.925	-0.026
82.925	-0.020
82.925	-0.015
82.925	-0.033
82.925	-0.022
82.925	-0.024
82.925	-0.012
82.925	-0.035
82.925	-0.026
82.925	-0.025
82.925	-0.033
82.925	-0.021
82.925	-0.007
82.925	-0.031
82.925	-0.024
82.925	-0.021
82.925	-0.034
