Voltage, ChA vs Angular Position, Ch1&2, Run #25
Angular Position, Ch1&2 ( rad )	Voltage, ChA ( V )
0.000	-0.227
0.000	-0.225
0.000	-0.234
0.000	-0.235
0.000	-0.234
0.000	-0.236
0.000	-0.242
0.000	-0.236
0.000	-0.231
0.000	-0.236
0.000	-0.237
0.000	-0.226
0.000	-0.231
0.000	-0.231
0.000	-0.240
0.000	-0.235
0.000	-0.228
0.000	-0.229
0.000	-0.237
0.000	-0.234
0.000	-0.236
0.000	-0.235
0.000	-0.228
0.000	-0.241
0.000	-0.233
0.000	-0.238
0.000	-0.234
0.000	-0.225
0.000	-0.236
0.000	-0.235
0.000	-0.228
0.000	-0.242
0.000	-0.230
0.000	-0.232
0.000	-0.240
0.000	-0.236
0.000	-0.231
0.000	-0.221
0.000	-0.233
0.000	-0.239
0.000	-0.237
0.000	-0.228
0.000	-0.223
0.000	-0.229
0.000	-0.236
0.000	-0.231
0.000	-0.226
0.000	-0.231
0.004	-0.232
0.004	-0.217
0.004	-0.226
0.004	-0.227
0.004	-0.217
0.004	-0.228
0.004	-0.221
0.004	-0.216
0.004	-0.221
0.004	-0.221
0.004	-0.226
0.004	-0.228
0.004	-0.225
0.004	-0.246
0.004	-0.236
0.004	-0.223
0.004	-0.231
0.004	-0.236
0.004	-0.243
0.004	-0.231
0.004	-0.232
0.004	-0.228
0.004	-0.231
0.004	-0.228
0.004	-0.226
0.004	-0.233
0.004	-0.237
0.004	-0.238
0.004	-0.231
0.004	-0.225
0.004	-0.237
0.004	-0.240
0.004	-0.225
0.004	-0.224
0.004	-0.234
0.004	-0.234
0.004	-0.226
0.004	-0.222
0.004	-0.212
0.004	-0.225
0.004	-0.234
0.004	-0.222
0.004	-0.225
0.004	-0.226
0.004	-0.226
0.004	-0.245
0.004	-0.226
0.004	-0.231
0.004	-0.242
0.004	-0.229
0.009	-0.231
0.009	-0.217
0.009	-0.232
0.009	-0.229
0.009	-0.226
0.009	-0.231
0.009	-0.239
0.009	-0.226
0.009	-0.233
0.009	-0.223
0.009	-0.230
0.009	-0.232
0.009	-0.225
0.009	-0.232
0.009	-0.231
0.009	-0.231
0.009	-0.219
0.009	-0.237
0.009	-0.230
0.009	-0.225
0.009	-0.226
0.009	-0.227
0.009	-0.220
0.009	-0.225
0.009	-0.226
0.009	-0.240
0.009	-0.242
0.009	-0.217
0.009	-0.222
0.009	-0.222
0.009	-0.246
0.009	-0.228
0.009	-0.231
0.009	-0.231
0.009	-0.225
0.009	-0.225
0.009	-0.222
0.009	-0.224
0.009	-0.219
0.009	-0.232
0.009	-0.227
0.009	-0.220
0.009	-0.231
0.009	-0.222
0.009	-0.226
0.009	-0.227
0.009	-0.226
0.009	-0.240
0.009	-0.226
0.009	-0.222
0.009	-0.215
0.009	-0.222
0.009	-0.226
0.009	-0.222
0.009	-0.234
0.009	-0.222
0.009	-0.215
0.009	-0.224
0.009	-0.230
0.009	-0.222
0.009	-0.226
0.009	-0.219
0.009	-0.225
0.009	-0.226
0.009	-0.222
0.009	-0.226
0.009	-0.221
0.009	-0.230
0.009	-0.223
0.009	-0.223
0.009	-0.221
0.009	-0.221
0.009	-0.226
0.009	-0.225
0.009	-0.223
0.009	-0.219
0.009	-0.220
0.009	-0.231
0.009	-0.234
0.009	-0.222
0.009	-0.227
0.009	-0.225
0.009	-0.226
0.009	-0.221
0.009	-0.216
0.013	-0.232
0.013	-0.223
0.013	-0.234
0.013	-0.228
0.017	-0.225
0.017	-0.235
0.022	-0.225
0.039	-0.218
0.105	-0.231
0.192	-0.227
0.284	-0.227
0.371	-0.234
0.445	-0.218
0.515	-0.216
0.576	-0.226
0.633	-0.217
0.685	-0.219
0.729	-0.222
0.777	-0.210
0.833	-0.219
0.899	-0.236
0.964	-0.224
1.025	-0.223
1.091	-0.217
1.182	-0.217
1.278	-0.219
1.379	-0.220
1.479	-0.228
1.571	-0.219
1.658	-0.221
1.737	-0.223
1.815	-0.222
1.881	-0.230
1.937	-0.222
1.994	-0.223
2.051	-0.208
2.112	-0.209
2.169	-0.203
2.221	-0.215
2.278	-0.217
2.334	-0.222
2.391	-0.227
2.448	-0.226
2.505	-0.222
2.561	-0.227
2.627	-0.222
2.692	-0.228
2.749	-0.217
2.806	-0.231
2.854	-0.212
2.910	-0.218
2.980	-0.214
3.037	-0.214
3.094	-0.222
3.146	-0.215
3.207	-0.223
3.268	-0.228
3.325	-0.231
3.390	-0.228
3.456	-0.230
3.512	-0.228
3.569	-0.226
3.622	-0.217
3.665	-0.226
3.713	-0.227
3.761	-0.217
3.809	-0.219
3.857	-0.217
3.905	-0.233
3.953	-0.226
3.984	-0.224
4.014	-0.227
4.062	-0.211
4.128	-0.222
4.193	-0.233
4.246	-0.226
4.294	-0.217
4.333	-0.225
4.372	-0.240
4.411	-0.236
4.455	-0.226
4.503	-0.228
4.542	-0.226
4.590	-0.215
4.643	-0.237
4.686	-0.220
4.730	-0.231
4.769	-0.219
4.813	-0.221
4.865	-0.226
4.917	-0.217
4.970	-0.222
5.022	-0.227
5.075	-0.217
5.127	-0.215
5.179	-0.218
5.236	-0.215
5.293	-0.226
5.345	-0.221
5.402	-0.229
5.467	-0.222
5.524	-0.226
5.589	-0.228
5.655	-0.227
5.733	-0.222
5.812	-0.236
5.882	-0.226
5.947	-0.219
6.017	-0.208
6.087	-0.223
6.152	-0.222
6.213	-0.221
6.279	-0.225
6.331	-0.215
6.370	-0.226
6.427	-0.220
6.484	-0.215
6.545	-0.213
6.619	-0.220
6.693	-0.217
6.763	-0.212
6.833	-0.217
6.894	-0.212
6.960	-0.208
7.016	-0.222
7.082	-0.215
7.147	-0.205
7.204	-0.227
7.265	-0.208
7.322	-0.212
7.374	-0.212
7.418	-0.211
7.453	-0.215
7.483	-0.211
7.514	-0.219
7.549	-0.217
7.583	-0.220
7.618	-0.206
7.653	-0.217
7.688	-0.222
7.723	-0.211
7.762	-0.209
7.802	-0.219
7.850	-0.206
7.898	-0.214
7.946	-0.203
8.007	-0.217
8.077	-0.199
8.146	-0.212
8.216	-0.212
8.295	-0.215
8.378	-0.212
8.465	-0.212
8.552	-0.212
8.635	-0.216
8.709	-0.212
8.783	-0.208
8.862	-0.214
8.932	-0.206
9.002	-0.208
9.080	-0.205
9.163	-0.205
9.246	-0.198
9.338	-0.217
9.434	-0.204
9.525	-0.203
9.604	-0.193
9.678	-0.192
9.752	-0.188
9.826	-0.190
9.887	-0.182
9.931	-0.163
9.988	-0.164
10.049	-0.168
10.110	-0.139
10.180	-0.119
10.254	-0.059
10.328	0.003
10.411	0.101
10.498	0.213
10.577	0.374
10.651	0.551
10.725	0.730
10.804	0.901
10.873	1.079
10.930	1.250
10.978	1.395
11.022	1.516
11.052	1.602
11.074	1.657
11.096	1.682
11.113	1.694
11.135	1.690
11.157	1.685
11.179	1.662
11.201	1.610
11.231	1.569
11.262	1.491
11.301	1.412
11.332	1.314
11.371	1.204
11.401	1.096
11.432	0.967
11.458	0.848
11.480	0.721
11.506	0.626
11.524	0.521
11.541	0.431
11.558	0.333
11.580	0.279
11.606	0.201
11.633	0.146
11.654	0.083
11.681	0.043
11.711	0.009
11.742	-0.026
11.777	-0.056
11.803	-0.074
11.838	-0.085
11.873	-0.119
11.908	-0.120
11.951	-0.136
11.995	-0.138
12.038	-0.142
12.082	-0.148
12.126	-0.164
12.169	-0.168
12.213	-0.164
12.252	-0.173
12.287	-0.173
12.326	-0.168
12.370	-0.185
12.409	-0.178
12.453	-0.186
12.488	-0.176
12.514	-0.187
12.540	-0.197
12.562	-0.200
12.593	-0.185
12.623	-0.194
12.667	-0.194
12.715	-0.192
12.758	-0.200
12.806	-0.209
12.859	-0.187
12.911	-0.201
12.972	-0.197
13.038	-0.204
13.099	-0.196
13.160	-0.208
13.217	-0.204
13.269	-0.194
13.304	-0.198
13.339	-0.206
13.378	-0.217
13.408	-0.211
13.443	-0.202
13.478	-0.200
13.518	-0.199
13.557	-0.209
13.596	-0.198
13.640	-0.208
13.675	-0.202
13.714	-0.207
13.744	-0.200
13.771	-0.197
13.797	-0.194
13.827	-0.204
13.858	-0.211
13.897	-0.202
13.945	-0.211
14.002	-0.200
14.054	-0.198
14.102	-0.212
14.150	-0.203
14.211	-0.208
14.268	-0.211
14.325	-0.204
14.382	-0.198
14.434	-0.196
14.482	-0.208
14.526	-0.193
14.556	-0.209
14.595	-0.202
14.635	-0.202
14.665	-0.206
14.700	-0.207
14.739	-0.198
14.774	-0.214
14.813	-0.198
14.857	-0.208
14.901	-0.206
14.944	-0.202
14.988	-0.215
15.032	-0.202
15.071	-0.211
15.115	-0.209
15.149	-0.203
15.184	-0.212
15.215	-0.198
15.250	-0.217
15.285	-0.215
15.324	-0.210
15.363	-0.212
15.403	-0.222
15.451	-0.208
15.503	-0.214
15.560	-0.211
15.625	-0.206
15.695	-0.202
15.760	-0.212
15.826	-0.211
15.887	-0.212
15.948	-0.205
16.005	-0.203
16.061	-0.207
16.114	-0.204
16.166	-0.213
16.201	-0.217
16.232	-0.212
16.266	-0.212
16.306	-0.206
16.341	-0.214
16.376	-0.201
16.406	-0.212
16.437	-0.206
16.472	-0.218
16.520	-0.217
16.572	-0.207
16.620	-0.211
16.664	-0.221
16.707	-0.226
16.760	-0.210
16.812	-0.213
16.864	-0.214
16.917	-0.217
16.973	-0.212
17.026	-0.223
17.082	-0.233
17.139	-0.218
17.191	-0.218
17.253	-0.226
17.331	-0.217
17.401	-0.221
17.471	-0.206
17.536	-0.215
17.597	-0.224
17.663	-0.207
17.724	-0.223
17.789	-0.223
17.863	-0.223
17.942	-0.211
18.016	-0.225
18.082	-0.221
18.134	-0.222
18.191	-0.207
18.252	-0.220
18.317	-0.204
18.383	-0.219
18.444	-0.218
18.505	-0.219
18.562	-0.225
18.618	-0.217
18.671	-0.230
18.714	-0.212
18.762	-0.226
18.793	-0.213
18.823	-0.218
18.854	-0.222
18.880	-0.219
18.906	-0.222
18.941	-0.219
18.994	-0.215
19.042	-0.233
19.090	-0.212
19.142	-0.221
19.203	-0.217
19.264	-0.226
19.330	-0.222
19.386	-0.217
19.443	-0.233
19.504	-0.224
19.574	-0.226
19.639	-0.221
19.709	-0.223
19.770	-0.217
19.831	-0.223
19.892	-0.226
19.958	-0.216
20.028	-0.224
20.093	-0.225
20.154	-0.221
20.220	-0.225
20.289	-0.237
20.359	-0.212
20.433	-0.221
20.499	-0.214
20.560	-0.230
20.621	-0.222
20.678	-0.222
20.730	-0.206
20.783	-0.220
20.835	-0.222
20.892	-0.217
20.948	-0.216
21.005	-0.218
21.070	-0.221
21.136	-0.214
21.197	-0.221
21.267	-0.224
21.337	-0.210
21.406	-0.219
21.476	-0.216
21.537	-0.226
21.590	-0.208
21.642	-0.229
21.690	-0.226
21.729	-0.208
21.777	-0.220
21.821	-0.225
21.860	-0.219
21.908	-0.232
21.952	-0.226
22.000	-0.228
22.048	-0.225
22.087	-0.226
22.131	-0.225
22.170	-0.223
22.209	-0.214
22.244	-0.222
22.283	-0.217
22.318	-0.228
22.358	-0.219
22.401	-0.220
22.445	-0.212
22.484	-0.225
22.519	-0.226
22.563	-0.214
22.611	-0.222
22.663	-0.203
22.715	-0.218
22.772	-0.218
22.825	-0.220
22.868	-0.223
22.916	-0.226
22.964	-0.212
23.017	-0.226
23.073	-0.212
23.126	-0.216
23.178	-0.215
23.226	-0.215
23.274	-0.226
23.326	-0.219
23.374	-0.218
23.414	-0.217
23.448	-0.221
23.479	-0.228
23.514	-0.212
23.549	-0.228
23.579	-0.229
23.610	-0.227
23.640	-0.226
23.671	-0.236
23.706	-0.225
23.741	-0.235
23.771	-0.214
23.806	-0.222
23.837	-0.222
23.867	-0.222
23.902	-0.214
23.928	-0.222
23.959	-0.220
23.990	-0.222
24.020	-0.226
24.051	-0.218
24.081	-0.226
24.112	-0.227
24.138	-0.219
24.164	-0.212
24.195	-0.226
24.225	-0.233
24.264	-0.217
24.304	-0.237
24.343	-0.226
24.382	-0.229
24.422	-0.218
24.461	-0.226
24.504	-0.225
24.544	-0.223
24.579	-0.229
24.618	-0.215
24.653	-0.212
24.688	-0.226
24.723	-0.221
24.753	-0.231
24.784	-0.223
24.819	-0.226
24.858	-0.217
24.893	-0.232
24.932	-0.228
24.967	-0.228
25.002	-0.222
25.041	-0.227
25.080	-0.213
25.120	-0.218
25.155	-0.212
25.189	-0.220
25.224	-0.214
25.268	-0.231
25.316	-0.215
25.360	-0.233
25.390	-0.226
25.412	-0.216
25.443	-0.217
25.473	-0.219
25.512	-0.201
25.560	-0.216
25.604	-0.228
25.652	-0.225
25.696	-0.214
25.731	-0.214
25.761	-0.204
25.783	-0.213
25.809	-0.215
25.831	-0.214
25.844	-0.208
25.857	-0.215
25.875	-0.222
25.896	-0.219
25.918	-0.222
25.953	-0.216
25.988	-0.215
26.018	-0.220
26.045	-0.222
26.066	-0.223
26.084	-0.222
26.110	-0.212
26.136	-0.217
26.167	-0.210
26.202	-0.223
26.237	-0.217
26.280	-0.225
26.328	-0.225
26.385	-0.212
26.442	-0.212
26.503	-0.203
26.560	-0.218
26.608	-0.202
26.651	-0.218
26.699	-0.212
26.752	-0.221
26.804	-0.212
26.861	-0.219
26.917	-0.205
26.983	-0.212
27.044	-0.211
27.101	-0.208
27.157	-0.224
27.210	-0.215
27.262	-0.213
27.310	-0.216
27.354	-0.220
27.393	-0.209
27.423	-0.202
27.450	-0.202
27.476	-0.207
27.498	-0.209
27.515	-0.201
27.528	-0.203
27.541	-0.197
27.550	-0.190
27.554	-0.197
27.554	-0.207
27.563	-0.207
27.576	-0.209
27.598	-0.208
27.620	-0.207
27.637	-0.203
27.663	-0.209
27.690	-0.203
27.711	-0.208
27.742	-0.190
27.777	-0.203
27.812	-0.203
27.842	-0.205
27.882	-0.200
27.930	-0.211
27.973	-0.211
28.017	-0.202
28.052	-0.211
28.087	-0.198
28.117	-0.212
28.161	-0.206
28.205	-0.204
28.248	-0.205
28.301	-0.208
28.357	-0.211
28.418	-0.199
28.475	-0.216
28.540	-0.205
28.602	-0.209
28.658	-0.203
28.728	-0.195
28.794	-0.214
28.859	-0.217
28.920	-0.212
28.977	-0.210
29.038	-0.203
29.090	-0.206
29.151	-0.198
29.208	-0.206
29.256	-0.202
29.300	-0.206
29.348	-0.217
29.396	-0.201
29.448	-0.208
29.487	-0.192
29.535	-0.209
29.583	-0.210
29.631	-0.198
29.675	-0.194
29.719	-0.198
29.767	-0.205
29.815	-0.198
29.867	-0.192
29.928	-0.203
29.980	-0.201
30.033	-0.196
30.089	-0.203
30.155	-0.190
30.220	-0.195
30.290	-0.193
30.360	-0.197
30.430	-0.209
30.487	-0.208
30.548	-0.197
30.609	-0.193
30.674	-0.211
30.740	-0.199
30.823	-0.195
30.923	-0.186
31.019	-0.201
31.106	-0.203
31.193	-0.195
31.272	-0.203
31.350	-0.197
31.420	-0.199
31.499	-0.207
31.569	-0.200
31.647	-0.183
31.717	-0.203
31.782	-0.203
31.848	-0.201
31.918	-0.197
31.983	-0.193
32.031	-0.201
32.079	-0.196
32.127	-0.199
32.166	-0.194
32.210	-0.189
32.258	-0.199
32.306	-0.192
32.354	-0.205
32.398	-0.200
32.437	-0.183
32.476	-0.200
32.515	-0.187
32.555	-0.204
32.603	-0.192
32.646	-0.186
32.690	-0.197
32.734	-0.202
32.790	-0.198
32.851	-0.190
32.926	-0.187
33.004	-0.190
33.096	-0.188
33.183	-0.199
33.270	-0.206
33.358	-0.197
33.441	-0.192
33.528	-0.195
33.615	-0.203
33.702	-0.202
33.794	-0.195
33.877	-0.196
33.951	-0.193
34.016	-0.189
34.073	-0.193
34.134	-0.190
34.191	-0.189
34.243	-0.199
34.287	-0.195
34.331	-0.178
34.379	-0.180
34.427	-0.195
34.488	-0.189
34.562	-0.195
34.632	-0.195
34.702	-0.195
34.780	-0.198
34.863	-0.198
34.941	-0.192
35.016	-0.193
35.090	-0.193
35.160	-0.193
35.225	-0.198
35.291	-0.198
35.365	-0.198
35.439	-0.192
35.509	-0.202
35.574	-0.206
35.644	-0.204
35.701	-0.195
35.749	-0.198
35.797	-0.207
35.858	-0.203
35.919	-0.193
35.980	-0.203
36.032	-0.195
36.089	-0.195
36.146	-0.197
36.220	-0.199
36.290	-0.206
36.355	-0.204
36.416	-0.198
36.469	-0.203
36.508	-0.193
36.547	-0.199
36.578	-0.207
36.613	-0.202
36.656	-0.209
36.704	-0.192
36.752	-0.207
36.809	-0.203
36.866	-0.203
36.918	-0.196
36.966	-0.203
37.018	-0.209
37.080	-0.199
37.141	-0.212
37.210	-0.198
37.293	-0.211
37.381	-0.203
37.463	-0.214
37.542	-0.202
37.625	-0.204
37.708	-0.192
37.795	-0.212
37.882	-0.198
37.970	-0.203
38.053	-0.202
38.140	-0.198
38.218	-0.203
38.293	-0.199
38.358	-0.202
38.419	-0.201
38.471	-0.206
38.519	-0.217
38.567	-0.210
38.615	-0.206
38.663	-0.210
38.716	-0.203
38.772	-0.212
38.829	-0.197
38.899	-0.198
38.978	-0.207
39.074	-0.211
39.165	-0.204
39.244	-0.205
39.322	-0.209
39.401	-0.214
39.471	-0.207
39.536	-0.201
39.597	-0.207
39.654	-0.213
39.715	-0.202
39.767	-0.198
39.820	-0.217
39.868	-0.215
39.916	-0.202
39.964	-0.208
40.012	-0.201
40.055	-0.207
40.099	-0.209
40.147	-0.219
40.195	-0.215
40.247	-0.219
40.304	-0.215
40.365	-0.209
40.422	-0.206
40.479	-0.212
40.527	-0.212
40.579	-0.213
40.631	-0.216
40.688	-0.206
40.753	-0.216
40.823	-0.206
40.893	-0.206
40.967	-0.213
41.046	-0.220
41.120	-0.207
41.185	-0.212
41.246	-0.215
41.299	-0.222
41.351	-0.217
41.399	-0.225
41.456	-0.212
41.513	-0.220
41.578	-0.215
41.648	-0.225
41.718	-0.220
41.788	-0.225
41.853	-0.217
41.910	-0.224
41.962	-0.226
42.006	-0.211
42.045	-0.203
42.080	-0.212
42.119	-0.203
42.154	-0.211
42.189	-0.208
42.215	-0.210
42.241	-0.214
42.263	-0.210
42.285	-0.215
42.307	-0.222
42.329	-0.207
42.346	-0.221
42.364	-0.214
42.381	-0.225
42.407	-0.214
42.425	-0.219
42.442	-0.221
42.455	-0.217
42.473	-0.223
42.486	-0.233
42.503	-0.216
42.521	-0.222
42.547	-0.211
42.582	-0.213
42.625	-0.220
42.678	-0.231
42.730	-0.215
42.778	-0.209
42.830	-0.206
42.878	-0.201
42.926	-0.219
42.970	-0.212
43.018	-0.215
43.062	-0.217
43.110	-0.203
43.153	-0.217
43.197	-0.220
43.236	-0.221
43.275	-0.208
43.306	-0.222
43.337	-0.214
43.376	-0.196
43.411	-0.212
43.454	-0.222
43.498	-0.228
43.550	-0.220
43.603	-0.222
43.655	-0.216
43.712	-0.214
43.773	-0.217
43.838	-0.228
43.908	-0.214
43.978	-0.217
44.043	-0.215
44.122	-0.211
44.196	-0.223
44.275	-0.211
44.344	-0.218
44.419	-0.221
44.493	-0.220
44.571	-0.222
44.641	-0.218
44.702	-0.214
44.772	-0.220
44.829	-0.219
44.877	-0.222
44.920	-0.212
44.964	-0.223
45.008	-0.219
45.051	-0.223
45.104	-0.217
45.160	-0.221
45.221	-0.219
45.283	-0.215
45.352	-0.219
45.418	-0.229
45.488	-0.223
45.562	-0.231
45.645	-0.222
45.732	-0.216
45.824	-0.216
45.915	-0.214
46.003	-0.223
46.077	-0.205
46.138	-0.208
46.199	-0.213
46.260	-0.214
46.312	-0.208
46.365	-0.223
46.413	-0.219
46.456	-0.223
46.504	-0.212
46.544	-0.217
46.587	-0.217
46.626	-0.211
46.661	-0.212
46.696	-0.214
46.722	-0.211
46.749	-0.217
46.770	-0.217
46.792	-0.211
46.814	-0.229
46.832	-0.225
46.858	-0.223
46.888	-0.222
46.928	-0.217
46.976	-0.222
47.037	-0.229
47.106	-0.228
47.181	-0.219
47.259	-0.222
47.333	-0.221
47.408	-0.219
47.482	-0.222
47.547	-0.214
47.621	-0.210
47.695	-0.225
47.774	-0.222
47.844	-0.217
47.940	-0.201
48.045	-0.209
48.141	-0.214
48.228	-0.206
48.302	-0.215
48.372	-0.209
48.442	-0.214
48.511	-0.226
48.573	-0.201
48.638	-0.217
48.703	-0.219
48.769	-0.197
48.834	-0.216
48.895	-0.215
48.956	-0.217
49.013	-0.208
49.074	-0.216
49.135	-0.212
49.201	-0.212
49.271	-0.212
49.336	-0.222
49.402	-0.203
49.463	-0.205
49.528	-0.218
49.594	-0.202
49.650	-0.212
49.707	-0.207
49.759	-0.215
49.807	-0.210
49.851	-0.216
49.903	-0.208
49.964	-0.209
50.034	-0.207
50.108	-0.213
50.191	-0.217
50.265	-0.218
50.335	-0.219
50.414	-0.222
50.492	-0.212
50.571	-0.208
50.641	-0.212
50.711	-0.222
50.785	-0.222
50.859	-0.222
50.937	-0.212
51.016	-0.212
51.090	-0.226
51.156	-0.225
51.212	-0.214
51.273	-0.206
51.334	-0.228
51.396	-0.220
51.448	-0.226
51.496	-0.214
51.540	-0.228
51.588	-0.223
51.640	-0.210
51.692	-0.222
51.740	-0.225
51.784	-0.218
51.832	-0.225
51.884	-0.223
51.937	-0.222
51.998	-0.223
52.050	-0.218
52.102	-0.212
52.155	-0.223
52.207	-0.224
52.246	-0.208
52.294	-0.220
52.347	-0.217
52.399	-0.216
52.452	-0.220
52.500	-0.217
52.539	-0.222
52.578	-0.223
52.613	-0.217
52.652	-0.227
52.691	-0.208
52.726	-0.212
52.766	-0.219
52.801	-0.226
52.840	-0.219
52.879	-0.221
52.910	-0.231
52.945	-0.222
52.988	-0.212
53.027	-0.221
53.071	-0.222
53.115	-0.220
53.158	-0.222
53.193	-0.222
53.224	-0.232
53.254	-0.222
53.285	-0.214
53.315	-0.214
53.350	-0.218
53.381	-0.212
53.420	-0.215
53.451	-0.225
53.477	-0.204
53.499	-0.221
53.521	-0.212
53.547	-0.214
53.573	-0.217
53.603	-0.223
53.634	-0.222
53.665	-0.226
53.699	-0.218
53.730	-0.221
53.756	-0.214
53.787	-0.222
53.804	-0.221
53.826	-0.205
53.848	-0.215
53.874	-0.219
53.904	-0.222
53.935	-0.212
53.979	-0.217
54.022	-0.226
54.057	-0.222
54.096	-0.219
54.158	-0.229
54.219	-0.225
54.271	-0.216
54.323	-0.212
54.371	-0.211
54.419	-0.218
54.459	-0.217
54.489	-0.225
54.511	-0.214
54.533	-0.227
54.555	-0.212
54.576	-0.212
54.598	-0.213
54.624	-0.209
54.651	-0.223
54.686	-0.215
54.716	-0.223
54.751	-0.214
54.795	-0.212
54.838	-0.222
54.886	-0.232
54.930	-0.215
54.969	-0.220
55.004	-0.219
55.035	-0.215
55.070	-0.217
55.100	-0.222
55.126	-0.229
55.152	-0.230
55.179	-0.227
55.209	-0.215
55.240	-0.219
55.266	-0.226
55.288	-0.217
55.314	-0.225
55.336	-0.223
55.362	-0.221
55.384	-0.221
55.419	-0.222
55.458	-0.219
55.497	-0.222
55.532	-0.232
55.567	-0.222
55.602	-0.212
55.632	-0.226
55.667	-0.222
55.707	-0.212
55.746	-0.217
55.789	-0.220
55.833	-0.217
55.881	-0.220
55.933	-0.219
55.981	-0.223
56.029	-0.222
56.082	-0.219
56.134	-0.222
56.182	-0.223
56.226	-0.220
56.269	-0.228
56.309	-0.217
56.335	-0.216
56.357	-0.217
56.378	-0.220
56.400	-0.217
56.422	-0.225
56.440	-0.225
56.466	-0.209
56.492	-0.219
56.514	-0.217
56.536	-0.218
56.549	-0.217
56.566	-0.219
56.588	-0.217
56.610	-0.214
56.640	-0.207
56.671	-0.222
56.706	-0.214
56.741	-0.215
56.771	-0.224
56.802	-0.217
56.828	-0.223
56.863	-0.228
56.898	-0.222
56.920	-0.212
56.950	-0.222
56.989	-0.222
57.024	-0.212
57.059	-0.215
57.098	-0.226
57.146	-0.214
57.186	-0.220
57.225	-0.217
57.260	-0.208
57.299	-0.217
57.338	-0.215
57.378	-0.221
57.421	-0.217
57.456	-0.216
57.491	-0.227
57.517	-0.222
57.544	-0.226
57.574	-0.226
57.609	-0.220
57.639	-0.220
57.670	-0.220
57.709	-0.227
57.753	-0.219
57.792	-0.212
57.836	-0.228
57.879	-0.219
57.919	-0.230
57.958	-0.227
58.006	-0.229
58.054	-0.223
58.093	-0.218
58.124	-0.222
58.150	-0.221
58.176	-0.222
58.194	-0.231
58.211	-0.219
58.233	-0.233
58.250	-0.221
58.268	-0.222
58.290	-0.213
58.307	-0.222
58.333	-0.223
58.359	-0.214
58.386	-0.211
58.412	-0.217
58.442	-0.208
58.473	-0.225
58.495	-0.226
58.512	-0.227
58.525	-0.227
58.543	-0.222
58.560	-0.206
58.578	-0.222
58.599	-0.214
58.626	-0.211
58.652	-0.201
58.687	-0.227
58.722	-0.219
58.752	-0.212
58.787	-0.220
58.818	-0.219
58.857	-0.219
58.892	-0.220
58.927	-0.219
58.957	-0.219
58.988	-0.223
59.014	-0.232
59.036	-0.222
59.053	-0.218
59.079	-0.212
59.101	-0.219
59.127	-0.203
59.154	-0.214
59.175	-0.215
59.202	-0.202
59.232	-0.214
59.267	-0.220
59.302	-0.207
59.337	-0.233
59.367	-0.223
59.398	-0.213
59.428	-0.215
59.463	-0.226
59.498	-0.215
59.533	-0.215
59.559	-0.220
59.586	-0.222
59.607	-0.216
59.625	-0.223
59.647	-0.220
59.664	-0.217
59.686	-0.226
59.712	-0.220
59.743	-0.213
59.773	-0.214
59.808	-0.207
59.839	-0.217
59.869	-0.208
59.891	-0.204
59.908	-0.219
59.926	-0.208
59.948	-0.212
59.965	-0.211
59.983	-0.209
60.000	-0.213
60.022	-0.211
60.039	-0.203
60.057	-0.212
60.074	-0.220
60.087	-0.217
60.100	-0.212
60.114	-0.218
60.127	-0.222
60.140	-0.222
60.148	-0.207
60.153	-0.215
60.166	-0.217
60.179	-0.222
60.188	-0.217
60.192	-0.222
60.196	-0.215
60.201	-0.212
60.209	-0.213
60.223	-0.214
60.240	-0.211
60.262	-0.217
60.279	-0.208
60.305	-0.211
60.327	-0.219
60.345	-0.209
60.367	-0.219
60.393	-0.214
60.419	-0.206
60.441	-0.222
60.467	-0.200
60.489	-0.202
60.506	-0.204
60.524	-0.219
60.537	-0.223
60.545	-0.217
60.554	-0.207
60.559	-0.213
60.567	-0.217
60.572	-0.220
60.576	-0.214
60.585	-0.199
60.598	-0.207
60.615	-0.211
60.633	-0.214
60.655	-0.216
60.668	-0.204
60.685	-0.217
60.707	-0.208
60.733	-0.217
60.768	-0.213
60.807	-0.208
60.847	-0.203
60.881	-0.205
60.921	-0.204
60.960	-0.197
60.995	-0.206
61.025	-0.217
61.047	-0.199
61.065	-0.204
61.082	-0.207
61.100	-0.198
61.113	-0.198
61.135	-0.199
61.161	-0.198
61.187	-0.206
61.217	-0.206
61.248	-0.203
61.292	-0.202
61.340	-0.197
61.388	-0.197
61.440	-0.198
61.484	-0.205
61.536	-0.204
61.584	-0.205
61.628	-0.212
61.671	-0.212
61.710	-0.211
61.754	-0.206
61.789	-0.204
61.811	-0.204
61.824	-0.206
61.837	-0.207
61.841	-0.201
61.850	-0.206
61.859	-0.198
61.872	-0.208
61.876	-0.204
61.889	-0.202
61.907	-0.217
61.929	-0.203
61.950	-0.205
61.977	-0.212
62.003	-0.207
62.029	-0.203
62.060	-0.213
62.086	-0.209
62.116	-0.206
62.138	-0.202
62.160	-0.208
62.173	-0.209
62.186	-0.210
62.199	-0.212
62.212	-0.214
62.230	-0.209
62.247	-0.203
62.265	-0.221
62.282	-0.210
62.300	-0.197
62.326	-0.208
62.348	-0.207
62.374	-0.208
62.404	-0.202
62.430	-0.213
62.461	-0.212
62.496	-0.207
62.535	-0.206
62.583	-0.204
62.631	-0.208
62.679	-0.210
62.727	-0.197
62.779	-0.201
62.832	-0.216
62.884	-0.212
62.932	-0.203
62.976	-0.201
63.011	-0.204
63.046	-0.207
63.081	-0.197
63.115	-0.194
63.155	-0.207
63.185	-0.195
63.216	-0.193
63.251	-0.205
63.286	-0.205
63.316	-0.199
63.351	-0.204
63.382	-0.214
63.403	-0.199
63.430	-0.195
63.451	-0.212
63.473	-0.203
63.491	-0.198
63.504	-0.206
63.513	-0.201
63.521	-0.194
63.530	-0.200
63.543	-0.195
63.552	-0.208
63.569	-0.197
63.582	-0.191
63.595	-0.197
63.617	-0.204
63.643	-0.210
63.670	-0.201
63.700	-0.201
63.726	-0.203
63.753	-0.209
63.774	-0.211
63.801	-0.209
63.822	-0.204
63.849	-0.205
63.870	-0.202
63.892	-0.202
63.905	-0.204
63.923	-0.216
63.936	-0.202
63.949	-0.204
63.958	-0.204
63.971	-0.206
63.988	-0.211
64.006	-0.197
64.023	-0.196
64.045	-0.197
64.067	-0.200
64.080	-0.190
64.097	-0.203
64.115	-0.201
64.132	-0.198
64.154	-0.202
64.176	-0.207
64.198	-0.198
64.211	-0.198
64.228	-0.199
64.246	-0.207
64.272	-0.197
64.302	-0.214
64.333	-0.208
64.368	-0.207
64.403	-0.208
64.433	-0.202
64.459	-0.206
64.477	-0.200
64.486	-0.200
64.486	-0.189
64.490	-0.205
64.490	-0.192
64.490	-0.191
64.490	-0.195
64.490	-0.197
64.490	-0.194
64.490	-0.207
64.490	-0.198
64.494	-0.198
64.494	-0.197
64.503	-0.209
64.507	-0.205
64.520	-0.198
64.529	-0.200
64.547	-0.203
64.564	-0.194
64.582	-0.199
64.599	-0.203
64.616	-0.204
64.638	-0.201
64.660	-0.206
64.678	-0.194
64.699	-0.191
64.717	-0.197
64.734	-0.192
64.747	-0.199
64.765	-0.198
64.778	-0.189
64.791	-0.198
64.800	-0.203
64.808	-0.206
64.817	-0.192
64.830	-0.197
64.843	-0.200
64.861	-0.191
64.878	-0.206
64.900	-0.180
64.931	-0.199
64.966	-0.188
64.996	-0.195
65.031	-0.192
65.066	-0.208
65.092	-0.204
65.123	-0.204
65.153	-0.192
65.192	-0.207
65.227	-0.202
65.267	-0.194
65.301	-0.207
65.332	-0.194
65.354	-0.195
65.380	-0.206
65.406	-0.200
65.432	-0.193
65.459	-0.197
65.485	-0.196
65.507	-0.198
65.533	-0.195
65.559	-0.192
65.589	-0.202
65.620	-0.201
65.651	-0.204
65.681	-0.199
65.716	-0.193
65.751	-0.195
65.786	-0.197
65.812	-0.195
65.834	-0.202
65.851	-0.201
65.869	-0.197
65.877	-0.192
65.886	-0.193
65.891	-0.192
65.895	-0.182
65.904	-0.203
65.917	-0.192
65.934	-0.196
65.952	-0.188
65.973	-0.191
65.995	-0.196
66.013	-0.196
66.030	-0.192
66.048	-0.194
66.065	-0.192
66.083	-0.187
66.100	-0.186
66.117	-0.198
66.126	-0.200
66.139	-0.191
66.161	-0.200
66.187	-0.204
66.227	-0.186
66.266	-0.189
66.305	-0.201
66.344	-0.190
66.379	-0.193
66.419	-0.203
66.458	-0.197
66.497	-0.197
66.532	-0.194
66.567	-0.196
66.606	-0.192
66.637	-0.189
66.654	-0.195
66.676	-0.193
66.698	-0.203
66.720	-0.190
66.741	-0.187
66.768	-0.188
66.789	-0.184
66.811	-0.187
66.833	-0.193
66.855	-0.183
66.877	-0.188
66.903	-0.172
66.938	-0.182
66.973	-0.180
66.999	-0.175
67.021	-0.175
67.042	-0.170
67.073	-0.166
67.099	-0.158
67.130	-0.160
67.165	-0.160
67.195	-0.157
67.221	-0.143
67.252	-0.142
67.278	-0.125
67.300	-0.132
67.326	-0.121
67.348	-0.132
67.365	-0.114
67.392	-0.123
67.413	-0.115
67.440	-0.102
67.466	-0.094
67.488	-0.083
67.514	-0.089
67.536	-0.062
67.553	-0.073
67.570	-0.060
67.588	-0.068
67.605	-0.060
67.618	-0.035
67.632	-0.044
67.649	-0.029
67.666	-0.012
67.684	-0.011
67.701	-0.011
67.719	0.003
67.741	0.020
67.758	0.019
67.780	0.016
67.802	0.044
67.828	0.053
67.850	0.064
67.876	0.079
67.902	0.104
67.928	0.101
67.954	0.129
67.985	0.143
68.015	0.172
68.046	0.177
68.077	0.214
68.111	0.223
68.138	0.262
68.155	0.281
68.168	0.296
68.177	0.319
68.190	0.320
68.199	0.353
68.212	0.368
68.229	0.374
68.247	0.407
68.264	0.413
68.277	0.424
68.299	0.452
68.325	0.477
68.347	0.507
68.373	0.529
68.399	0.555
68.426	0.596
68.456	0.627
68.482	0.673
68.509	0.712
68.535	0.759
68.552	0.800
68.570	0.825
68.583	0.866
68.600	0.916
68.613	0.939
68.631	0.974
68.653	1.017
68.670	1.038
68.696	1.092
68.722	1.127
68.744	1.179
68.770	1.232
68.797	1.278
68.823	1.332
68.849	1.384
68.866	1.437
68.884	1.487
68.897	1.546
68.914	1.580
68.927	1.626
68.936	1.652
68.949	1.695
68.962	1.726
68.975	1.766
68.980	1.804
68.984	1.825
68.989	1.859
68.993	1.854
68.997	1.867
69.002	1.886
69.010	1.896
69.019	1.923
69.028	1.940
69.041	1.945
69.050	1.976
69.058	1.994
69.063	2.014
69.076	2.031
69.098	2.072
69.119	2.109
69.146	2.150
69.167	2.189
69.185	2.263
69.202	2.293
69.228	2.326
69.259	2.373
69.290	2.422
69.316	2.477
69.333	2.546
69.351	2.611
69.359	2.658
69.368	2.705
69.381	2.735
69.390	2.749
69.399	2.799
69.399	2.822
69.403	2.848
69.407	2.878
69.416	2.902
69.420	2.920
69.429	2.940
69.434	2.952
69.438	2.980
69.442	2.987
69.455	3.004
69.477	3.022
69.495	3.049
69.512	3.082
69.525	3.116
69.538	3.157
69.551	3.170
69.560	3.187
69.573	3.228
69.591	3.230
69.608	3.271
69.630	3.301
69.652	3.326
69.678	3.346
69.700	3.367
69.722	3.386
69.743	3.418
69.761	3.431
69.778	3.464
69.791	3.477
69.809	3.478
69.826	3.483
69.848	3.497
69.866	3.506
69.887	3.540
69.909	3.555
69.931	3.567
69.944	3.574
69.957	3.576
69.966	3.560
69.975	3.569
69.979	3.560
69.983	3.573
69.988	3.581
69.992	3.573
69.992	3.574
69.996	3.563
69.996	3.561
70.001	3.565
70.001	3.572
70.005	3.587
70.014	3.580
70.027	3.587
70.040	3.576
70.058	3.579
70.084	3.575
70.110	3.566
70.132	3.535
70.158	3.527
70.188	3.506
70.232	3.477
70.271	3.449
70.306	3.418
70.345	3.375
70.376	3.340
70.407	3.308
70.433	3.267
70.459	3.230
70.481	3.175
70.498	3.137
70.520	3.092
70.537	3.052
70.551	3.010
70.559	2.963
70.572	2.935
70.590	2.901
70.607	2.888
70.629	2.840
70.651	2.803
70.673	2.759
70.690	2.720
70.712	2.693
70.734	2.659
70.751	2.608
70.764	2.570
70.777	2.543
70.782	2.521
70.786	2.486
70.791	2.457
70.795	2.441
70.799	2.441
70.808	2.423
70.812	2.401
70.821	2.378
70.825	2.355
70.834	2.349
70.843	2.331
70.847	2.331
70.856	2.305
70.865	2.274
70.878	2.260
70.900	2.219
70.917	2.194
70.943	2.167
70.969	2.133
70.991	2.087
71.013	2.052
71.026	2.018
71.039	1.993
71.048	1.959
71.065	1.920
71.083	1.901
71.096	1.865
71.109	1.841
71.122	1.816
71.140	1.781
71.153	1.769
71.161	1.729
71.170	1.716
71.183	1.686
71.201	1.673
71.218	1.647
71.231	1.626
71.249	1.595
71.266	1.569
71.284	1.544
71.297	1.514
71.319	1.494
71.336	1.456
71.353	1.433
71.375	1.411
71.393	1.383
71.410	1.361
71.428	1.324
71.449	1.301
71.476	1.282
71.519	1.242
71.563	1.213
71.620	1.167
71.685	1.122
71.755	1.087
71.820	1.022
71.886	0.960
71.942	0.900
71.999	0.837
72.056	0.794
72.104	0.729
72.148	0.698
72.191	0.648
72.235	0.609
72.274	0.568
72.305	0.552
72.335	0.518
72.370	0.487
72.396	0.461
72.414	0.441
72.431	0.423
72.449	0.400
72.457	0.378
72.466	0.374
72.470	0.356
72.479	0.348
72.484	0.340
72.484	0.329
72.484	0.325
72.484	0.316
72.484	0.316
72.484	0.323
72.484	0.303
72.484	0.304
72.484	0.307
72.484	0.308
72.484	0.303
72.484	0.300
72.484	0.297
72.484	0.301
72.484	0.305
72.484	0.302
72.484	0.307
72.484	0.303
72.484	0.295
72.484	0.300
72.484	0.297
72.484	0.293
72.484	0.291
72.484	0.301
72.484	0.293
72.488	0.288
72.488	0.280
72.488	0.287
72.488	0.289
72.488	0.298
72.488	0.290
72.488	0.291
72.488	0.292
72.488	0.289
72.492	0.295
72.505	0.283
72.514	0.269
72.523	0.280
72.527	0.270
72.536	0.291
72.549	0.276
72.562	0.267
72.580	0.276
72.597	0.255
72.610	0.253
72.628	0.245
72.645	0.239
72.662	0.239
72.676	0.220
72.697	0.212
72.724	0.210
72.741	0.206
72.758	0.193
72.776	0.185
72.785	0.188
72.798	0.175
72.811	0.172
72.824	0.149
72.837	0.167
72.854	0.156
72.867	0.142
72.881	0.128
72.894	0.127
72.911	0.132
72.924	0.118
72.933	0.110
72.946	0.110
72.959	0.096
72.968	0.094
72.977	0.092
72.977	0.104
72.981	0.093
72.985	0.091
72.990	0.093
72.990	0.081
72.994	0.081
73.003	0.087
73.011	0.078
73.025	0.067
73.029	0.057
73.033	0.074
73.042	0.066
73.046	0.054
73.051	0.056
73.059	0.063
73.073	0.059
73.081	0.051
73.094	0.049
73.099	0.056
73.103	0.042
73.107	0.038
73.112	0.046
73.112	0.043
73.116	0.043
73.116	0.040
73.116	0.047
73.116	0.038
73.121	0.031
73.125	0.034
73.134	0.027
73.138	0.029
73.142	0.045
73.147	0.031
73.151	0.035
73.160	0.033
73.169	0.024
73.177	0.029
73.186	0.030
73.195	0.016
73.199	0.016
73.208	0.018
73.217	0.020
73.230	0.010
73.238	0.019
73.251	0.015
73.260	0.010
73.273	0.017
73.286	0.009
73.295	0.012
73.304	0.002
73.304	-0.003
73.308	-0.012
73.308	0.000
73.308	0.004
73.308	-0.014
73.308	-0.013
73.308	-0.010
73.313	-0.009
73.313	-0.019
73.313	-0.009
73.321	-0.009
73.330	-0.012
73.339	-0.015
73.343	-0.022
73.343	-0.015
73.343	-0.015
73.343	-0.017
73.343	-0.018
73.343	-0.025
73.343	-0.020
73.343	-0.017
73.343	-0.014
73.343	-0.031
73.343	-0.015
73.343	-0.027
73.343	-0.024
73.347	-0.016
73.347	-0.022
73.347	-0.022
73.347	-0.016
73.347	-0.020
73.347	-0.030
73.347	-0.023
73.347	-0.032
73.347	-0.021
73.347	-0.028
73.352	-0.029
73.352	-0.031
73.365	-0.027
73.374	-0.025
73.387	-0.029
73.395	-0.029
73.409	-0.033
73.413	-0.043
73.422	-0.043
73.430	-0.040
73.435	-0.049
73.439	-0.052
73.443	-0.045
73.448	-0.046
73.448	-0.045
73.452	-0.049
73.452	-0.055
73.452	-0.045
73.461	-0.051
73.465	-0.049
73.474	-0.045
73.483	-0.055
73.491	-0.051
73.505	-0.054
73.518	-0.054
73.535	-0.070
73.553	-0.056
73.574	-0.060
73.596	-0.058
73.618	-0.068
73.635	-0.064
73.644	-0.065
73.653	-0.065
73.657	-0.073
73.657	-0.088
73.670	-0.079
73.688	-0.075
73.705	-0.090
73.727	-0.079
73.745	-0.088
73.771	-0.091
73.793	-0.087
73.814	-0.099
73.832	-0.098
73.841	-0.098
73.854	-0.113
73.871	-0.109
73.897	-0.099
73.923	-0.118
73.945	-0.107
73.967	-0.126
73.993	-0.110
74.028	-0.127
74.072	-0.128
74.120	-0.129
74.159	-0.128
74.194	-0.146
74.229	-0.132
74.272	-0.140
74.316	-0.137
74.347	-0.142
74.368	-0.162
74.386	-0.154
74.399	-0.159
74.412	-0.151
74.425	-0.170
74.434	-0.172
74.447	-0.165
74.460	-0.173
74.469	-0.163
74.486	-0.171
74.499	-0.173
74.521	-0.173
74.543	-0.167
74.569	-0.173
74.587	-0.178
74.604	-0.175
74.622	-0.176
74.643	-0.191
74.665	-0.194
74.683	-0.189
74.700	-0.180
74.718	-0.190
74.735	-0.203
74.748	-0.192
74.757	-0.193
74.766	-0.195
74.774	-0.199
74.792	-0.189
74.805	-0.192
74.818	-0.195
74.835	-0.190
74.862	-0.200
74.883	-0.190
74.905	-0.195
74.927	-0.201
74.940	-0.200
74.953	-0.204
74.966	-0.217
74.975	-0.208
74.988	-0.195
75.001	-0.196
75.010	-0.216
75.023	-0.208
75.036	-0.211
75.049	-0.201
75.058	-0.215
75.067	-0.198
75.071	-0.211
75.075	-0.206
75.075	-0.207
75.080	-0.219
75.088	-0.209
75.102	-0.216
75.115	-0.217
75.132	-0.211
75.154	-0.204
75.180	-0.214
75.206	-0.207
75.237	-0.212
75.272	-0.222
75.302	-0.211
75.333	-0.215
75.359	-0.215
75.385	-0.222
75.403	-0.221
75.424	-0.222
75.437	-0.234
75.451	-0.231
75.455	-0.217
75.459	-0.223
75.464	-0.229
75.472	-0.222
75.477	-0.223
75.485	-0.235
75.490	-0.227
75.499	-0.231
75.503	-0.229
75.516	-0.229
75.529	-0.225
75.542	-0.227
75.555	-0.231
75.568	-0.243
75.581	-0.228
75.590	-0.226
75.599	-0.231
75.616	-0.220
75.629	-0.228
75.647	-0.230
75.664	-0.231
75.691	-0.231
75.721	-0.241
75.747	-0.220
75.769	-0.242
75.791	-0.233
75.808	-0.242
75.830	-0.234
75.852	-0.251
75.869	-0.237
75.883	-0.228
75.896	-0.242
75.909	-0.236
75.922	-0.229
75.935	-0.225
75.952	-0.233
75.979	-0.235
76.000	-0.246
76.027	-0.243
76.053	-0.227
76.075	-0.243
76.101	-0.233
76.127	-0.233
76.153	-0.243
76.184	-0.245
76.210	-0.235
76.236	-0.247
76.262	-0.241
76.288	-0.251
76.310	-0.245
76.332	-0.250
76.354	-0.246
76.371	-0.250
76.393	-0.242
76.415	-0.250
76.432	-0.250
76.454	-0.248
76.476	-0.251
76.502	-0.237
76.528	-0.251
76.555	-0.251
76.581	-0.246
76.611	-0.251
76.637	-0.250
76.659	-0.253
76.681	-0.242
76.698	-0.251
76.725	-0.252
76.755	-0.251
76.781	-0.253
76.808	-0.261
76.834	-0.250
76.856	-0.251
76.886	-0.248
76.921	-0.259
76.956	-0.254
76.991	-0.247
77.026	-0.253
77.069	-0.258
77.109	-0.261
77.139	-0.246
77.174	-0.256
77.205	-0.257
77.231	-0.245
77.261	-0.250
77.288	-0.246
77.314	-0.258
77.340	-0.252
77.362	-0.251
77.384	-0.258
77.401	-0.256
77.427	-0.255
77.449	-0.256
77.475	-0.256
77.501	-0.245
77.523	-0.262
77.536	-0.266
77.554	-0.266
77.576	-0.261
77.606	-0.258
77.637	-0.258
77.672	-0.259
77.706	-0.256
77.746	-0.259
77.781	-0.256
77.816	-0.270
77.846	-0.258
77.872	-0.266
77.898	-0.268
77.933	-0.266
77.964	-0.262
77.990	-0.267
78.021	-0.265
78.051	-0.257
78.082	-0.260
78.112	-0.262
78.147	-0.264
78.182	-0.267
78.217	-0.262
78.252	-0.265
78.291	-0.263
78.330	-0.267
78.374	-0.261
78.422	-0.267
78.470	-0.264
78.518	-0.268
78.566	-0.262
78.605	-0.257
78.649	-0.262
78.684	-0.265
78.714	-0.270
78.741	-0.258
78.767	-0.269
78.793	-0.266
78.823	-0.273
78.858	-0.272
78.889	-0.271
78.919	-0.267
78.946	-0.278
78.967	-0.271
79.002	-0.269
79.042	-0.270
79.081	-0.276
79.107	-0.271
79.142	-0.272
79.177	-0.261
79.216	-0.263
79.264	-0.270
79.325	-0.272
79.382	-0.275
79.443	-0.261
79.500	-0.270
79.556	-0.261
79.604	-0.276
79.648	-0.275
79.679	-0.275
79.714	-0.270
79.735	-0.272
79.753	-0.267
79.766	-0.271
79.775	-0.271
79.783	-0.264
79.796	-0.266
79.801	-0.268
79.805	-0.266
79.810	-0.261
79.818	-0.269
79.836	-0.266
79.858	-0.277
79.888	-0.272
79.923	-0.269
79.971	-0.275
80.019	-0.271
80.080	-0.290
80.146	-0.272
80.202	-0.266
80.250	-0.270
80.285	-0.271
80.324	-0.292
80.355	-0.279
80.377	-0.270
80.399	-0.264
80.425	-0.258
80.442	-0.280
80.460	-0.270
80.481	-0.272
80.508	-0.280
80.547	-0.266
80.595	-0.262
80.647	-0.262
80.700	-0.267
80.756	-0.266
80.822	-0.272
80.892	-0.273
80.970	-0.261
81.040	-0.272
81.114	-0.273
81.180	-0.268
81.232	-0.272
81.284	-0.262
81.324	-0.264
81.350	-0.271
81.367	-0.260
81.380	-0.258
81.389	-0.272
81.398	-0.261
81.415	-0.270
81.428	-0.266
81.446	-0.268
81.472	-0.260
81.511	-0.271
81.564	-0.268
81.620	-0.273
81.694	-0.273
81.773	-0.273
81.856	-0.269
81.943	-0.268
82.035	-0.268
82.126	-0.275
82.209	-0.272
82.284	-0.277
82.362	-0.272
82.428	-0.270
82.484	-0.266
82.541	-0.262
82.589	-0.271
82.628	-0.270
82.663	-0.267
82.698	-0.272
82.729	-0.270
82.764	-0.280
82.798	-0.261
82.833	-0.275
82.873	-0.269
82.903	-0.268
82.912	-0.272
82.908	-0.267
82.908	-0.281
82.908	-0.264
82.908	-0.271
82.908	-0.272
82.908	-0.267
82.908	-0.271
82.908	-0.271
82.908	-0.264
82.908	-0.272
82.908	-0.266
82.908	-0.257
82.908	-0.276
82.908	-0.267
82.908	-0.271
82.908	-0.266
82.908	-0.269
82.908	-0.270
82.908	-0.264
82.908	-0.276
82.912	-0.266
82.912	-0.266
82.912	-0.264
82.912	-0.261
82.912	-0.263
82.912	-0.282
82.912	-0.272
82.912	-0.271
82.912	-0.282
82.912	-0.267
82.908	-0.269
82.908	-0.278
82.908	-0.270
82.908	-0.262
82.903	-0.266
82.899	-0.275
82.899	-0.266
82.899	-0.275
82.899	-0.286
82.899	-0.273
82.899	-0.275
82.899	-0.262
82.899	-0.276
82.899	-0.270
82.899	-0.278
82.894	-0.282
82.894	-0.266
82.894	-0.286
82.894	-0.273
82.894	-0.275
82.894	-0.273
82.894	-0.276
82.894	-0.273
